%!PS-Adobe-3.0 EPSF-3.0
%%Creator: cairo 1.14.2 (http://cairographics.org)
%%CreationDate: Wed Oct  3 10:33:22 2018
%%Pages: 1
%%DocumentData: Clean7Bit
%%LanguageLevel: 2
%%BoundingBox: 0 -1 409 409
%%EndComments
%%BeginProlog
save
50 dict begin
/q { gsave } bind def
/Q { grestore } bind def
/cm { 6 array astore concat } bind def
/w { setlinewidth } bind def
/J { setlinecap } bind def
/j { setlinejoin } bind def
/M { setmiterlimit } bind def
/d { setdash } bind def
/m { moveto } bind def
/l { lineto } bind def
/c { curveto } bind def
/h { closepath } bind def
/re { exch dup neg 3 1 roll 5 3 roll moveto 0 rlineto
      0 exch rlineto 0 rlineto closepath } bind def
/S { stroke } bind def
/f { fill } bind def
/f* { eofill } bind def
/n { newpath } bind def
/W { clip } bind def
/W* { eoclip } bind def
/BT { } bind def
/ET { } bind def
/pdfmark where { pop globaldict /?pdfmark /exec load put }
    { globaldict begin /?pdfmark /pop load def /pdfmark
    /cleartomark load def end } ifelse
/BDC { mark 3 1 roll /BDC pdfmark } bind def
/EMC { mark /EMC pdfmark } bind def
/cairo_store_point { /cairo_point_y exch def /cairo_point_x exch def } def
/Tj { show currentpoint cairo_store_point } bind def
/TJ {
  {
    dup
    type /stringtype eq
    { show } { -0.001 mul 0 cairo_font_matrix dtransform rmoveto } ifelse
  } forall
  currentpoint cairo_store_point
} bind def
/cairo_selectfont { cairo_font_matrix aload pop pop pop 0 0 6 array astore
    cairo_font exch selectfont cairo_point_x cairo_point_y moveto } bind def
/Tf { pop /cairo_font exch def /cairo_font_matrix where
      { pop cairo_selectfont } if } bind def
/Td { matrix translate cairo_font_matrix matrix concatmatrix dup
      /cairo_font_matrix exch def dup 4 get exch 5 get cairo_store_point
      /cairo_font where { pop cairo_selectfont } if } bind def
/Tm { 2 copy 8 2 roll 6 array astore /cairo_font_matrix exch def
      cairo_store_point /cairo_font where { pop cairo_selectfont } if } bind def
/g { setgray } bind def
/rg { setrgbcolor } bind def
/d1 { setcachedevice } bind def
%%EndProlog
%%BeginSetup
%%EndSetup
%%Page: 1 1
%%BeginPageSetup
%%PageBoundingBox: 0 -1 409 409
%%EndPageSetup
q 0 -1 409 410 rectclip q
0 g
283.281 212.534 m 283.281 169.886 l 283.281 165.456 279.691 161.866 275.262
 161.866 c 270.832 161.866 267.242 165.456 267.242 169.886 c 267.242 212.534
 l 248.082 231.698 l 244.949 234.827 244.949 239.902 248.082 243.034 c 251.211
 246.167 256.289 246.167 259.418 243.034 c 275.262 227.195 l 291.102 243.034
 l 294.234 246.167 299.312 246.167 302.445 243.034 c 305.574 239.902 305.574
 234.827 302.445 231.698 c h
307.336 126.183 m 302.91 126.183 299.32 129.773 299.32 134.198 c 299.32
 138.628 302.91 142.218 307.336 142.218 c 368.703 142.218 l 375.312 142.218
 381.324 144.929 385.688 149.292 c 390.055 153.655 392.762 159.667 392.762
 166.277 c 392.762 240.968 l 392.762 247.577 390.055 253.589 385.688 257.952
 c 381.324 262.32 375.312 265.027 368.703 265.027 c 307.336 265.027 l 302.91
 265.027 299.32 268.62 299.32 273.046 c 299.32 277.476 302.91 281.066 307.336
 281.066 c 335.754 281.066 l 346.824 317.507 l 299.059 314.148 l 294.953
 313.855 291.242 316.757 290.602 320.894 c 283.27 368.191 l 241.695 344.441
 l 238.129 342.398 233.523 343.394 231.148 346.839 c 204 386.3 l 177.156
 347.28 l 174.926 343.538 170.098 342.257 166.297 344.433 c 124.73 368.198
 l 117.48 321.448 l 117.117 317.089 113.316 313.823 108.941 314.132 c 61.176
 317.511 l 72.246 281.07 l 243.18 281.07 l 247.613 281.07 251.203 277.48
 251.203 273.05 c 251.203 268.62 247.613 265.03 243.18 265.03 c 39.297 265.03
 l 32.688 265.03 26.676 262.323 22.312 257.956 c 17.945 253.593 15.238 247.581
 15.238 240.972 c 15.238 166.277 l 15.238 159.671 17.945 153.659 22.312 
149.292 c 26.676 144.933 32.691 142.222 39.297 142.222 c 243.18 142.222 
l 247.613 142.222 251.203 138.632 251.203 134.202 c 251.203 129.777 247.613
 126.183 243.18 126.183 c 72.246 126.183 l 61.176 89.745 l 108.945 93.101
 l 113.047 93.394 116.758 90.495 117.398 86.355 c 124.73 39.058 l 166.305
 62.808 l 169.875 64.855 174.477 63.855 176.852 60.409 c 204 20.948 l 230.844
 59.964 l 233.074 63.714 237.902 64.991 241.703 62.82 c 283.27 39.054 l 
290.516 85.804 l 290.883 90.159 294.684 93.425 299.059 93.12 c 346.824 89.741
 l 335.754 126.179 l 307.336 126.179 l h
275.258 142.218 m 279.691 142.218 283.277 138.628 283.277 134.198 c 283.277
 129.773 279.691 126.183 275.258 126.183 c 270.832 126.183 267.242 129.773
 267.242 134.198 c 267.242 138.628 270.832 142.218 275.258 142.218 c h
275.258 281.07 m 279.691 281.07 283.277 277.48 283.277 273.05 c 283.277
 268.62 279.691 265.03 275.258 265.03 c 270.832 265.03 267.242 268.62 267.242
 273.05 c 267.242 277.48 270.832 281.07 275.258 281.07 c h
352.445 126.183 m 368.703 126.183 l 379.738 126.183 389.762 130.687 397.027
 137.952 c 404.289 145.214 408.801 155.245 408.801 166.277 c 408.801 240.972
 l 408.801 252.007 404.289 262.03 397.027 269.296 c 389.762 276.558 379.738
 281.07 368.703 281.07 c 352.445 281.07 l 365.32 323.425 l 365.73 324.491
 365.922 325.663 365.836 326.878 c 365.523 331.292 361.695 334.612 357.285
 334.304 c 305.258 330.62 l 297.371 381.511 l 297.285 382.667 296.945 383.823
 296.336 384.894 c 294.137 388.734 289.242 390.066 285.398 387.87 c 240.133
 361.987 l 210.676 404.808 l 210.125 405.64 209.414 406.382 208.543 406.984
 c 204.91 409.491 199.93 408.581 197.422 404.948 c 167.867 361.991 l 122.586
 387.855 l 121.762 388.323 120.836 388.655 119.84 388.812 c 115.48 389.487
 111.398 386.499 110.727 382.14 c 102.742 330.624 l 50.711 334.284 l 49.77
 334.351 48.793 334.249 47.832 333.96 c 43.613 332.679 41.227 328.218 42.508
 323.995 c 55.555 281.07 l 39.297 281.07 l 28.262 281.07 18.238 276.558 
10.973 269.296 c 3.711 262.03 -0.801 252.007 -0.801 240.972 c -0.801 166.277
 l -0.801 155.245 3.711 145.214 10.973 137.952 c 18.238 130.691 28.262 126.183
 39.297 126.183 c 55.551 126.183 l 42.68 83.823 l 42.266 82.757 42.074 81.589
 42.164 80.37 c 42.473 75.96 46.305 72.636 50.711 72.948 c 102.742 76.624
 l 110.629 25.737 l 110.711 24.581 111.051 23.429 111.664 22.355 c 113.863
 18.511 118.758 17.183 122.598 19.378 c 167.867 45.261 l 197.324 2.445 l
 197.871 1.612 198.586 0.87 199.457 0.269 c 203.09 -2.239 208.07 -1.329 
210.578 2.304 c 240.133 45.261 l 285.414 19.402 l 286.238 18.925 287.164
 18.593 288.156 18.441 c 292.516 17.765 296.598 20.753 297.273 25.112 c 
305.258 76.628 l 357.285 72.968 l 358.23 72.902 359.207 73.003 360.164 73.292
 c 364.387 74.573 366.773 79.034 365.492 83.253 c h
111.227 245.386 m 129.691 245.386 l 136.543 245.386 142.77 242.585 147.273
 238.077 c 151.785 233.573 154.582 227.347 154.582 220.495 c 154.582 213.995
 152.066 208.062 147.961 203.624 c 152.066 199.183 154.582 193.249 154.582
 186.753 c 154.582 179.902 151.785 173.675 147.273 169.167 c 142.77 164.663
 136.543 161.866 129.691 161.866 c 111.227 161.866 l 106.801 161.866 103.211
 165.452 103.211 169.886 c 103.211 237.366 l 103.211 241.792 106.801 245.386
 111.227 245.386 c h
129.691 229.347 m 132.117 229.347 134.328 228.347 135.938 226.741 c 137.543
 225.132 138.543 222.917 138.543 220.495 c 138.543 218.07 137.543 215.855
 135.938 214.249 c 134.328 212.64 132.117 211.644 129.691 211.644 c 119.246
 211.644 l 119.246 229.347 l h
129.691 195.605 m 132.117 195.605 134.328 194.605 135.938 192.999 c 137.543
 191.39 138.543 189.183 138.543 186.753 c 138.543 184.327 137.543 182.116
 135.938 180.511 c 134.328 178.902 132.117 177.902 129.691 177.902 c 119.246
 177.902 l 119.246 195.605 l h
215.5 237.366 m 215.5 241.792 219.09 245.386 223.52 245.386 c 227.945 245.386
 231.539 241.792 231.539 237.366 c 231.539 192.085 l 231.539 183.769 228.141
 176.21 222.664 170.734 c 217.195 165.261 209.633 161.866 201.316 161.866
 c 192.996 161.866 185.441 165.261 179.965 170.734 c 174.492 176.21 171.094
 183.765 171.094 192.085 c 171.094 237.366 l 171.094 241.792 174.684 245.386
 179.113 245.386 c 183.543 245.386 187.133 241.792 187.133 237.366 c 187.133
 192.085 l 187.133 188.195 188.73 184.652 191.305 182.073 c 193.879 179.499
 197.422 177.902 201.316 177.902 c 205.207 177.902 208.754 179.499 211.324
 182.073 c 213.902 184.652 215.5 188.195 215.5 192.085 c h
215.5 237.366 m f*
Q Q
showpage
%%Trailer
end restore
%%EOF
