%!PS-Adobe-3.0 EPSF-3.0
%%Creator: cairo 1.14.2 (http://cairographics.org)
%%CreationDate: Wed Oct  3 10:33:22 2018
%%Pages: 1
%%DocumentData: Clean7Bit
%%LanguageLevel: 2
%%BoundingBox: 0 30 409 377
%%EndComments
%%BeginProlog
save
50 dict begin
/q { gsave } bind def
/Q { grestore } bind def
/cm { 6 array astore concat } bind def
/w { setlinewidth } bind def
/J { setlinecap } bind def
/j { setlinejoin } bind def
/M { setmiterlimit } bind def
/d { setdash } bind def
/m { moveto } bind def
/l { lineto } bind def
/c { curveto } bind def
/h { closepath } bind def
/re { exch dup neg 3 1 roll 5 3 roll moveto 0 rlineto
      0 exch rlineto 0 rlineto closepath } bind def
/S { stroke } bind def
/f { fill } bind def
/f* { eofill } bind def
/n { newpath } bind def
/W { clip } bind def
/W* { eoclip } bind def
/BT { } bind def
/ET { } bind def
/pdfmark where { pop globaldict /?pdfmark /exec load put }
    { globaldict begin /?pdfmark /pop load def /pdfmark
    /cleartomark load def end } ifelse
/BDC { mark 3 1 roll /BDC pdfmark } bind def
/EMC { mark /EMC pdfmark } bind def
/cairo_store_point { /cairo_point_y exch def /cairo_point_x exch def } def
/Tj { show currentpoint cairo_store_point } bind def
/TJ {
  {
    dup
    type /stringtype eq
    { show } { -0.001 mul 0 cairo_font_matrix dtransform rmoveto } ifelse
  } forall
  currentpoint cairo_store_point
} bind def
/cairo_selectfont { cairo_font_matrix aload pop pop pop 0 0 6 array astore
    cairo_font exch selectfont cairo_point_x cairo_point_y moveto } bind def
/Tf { pop /cairo_font exch def /cairo_font_matrix where
      { pop cairo_selectfont } if } bind def
/Td { matrix translate cairo_font_matrix matrix concatmatrix dup
      /cairo_font_matrix exch def dup 4 get exch 5 get cairo_store_point
      /cairo_font where { pop cairo_selectfont } if } bind def
/Tm { 2 copy 8 2 roll 6 array astore /cairo_font_matrix exch def
      cairo_store_point /cairo_font where { pop cairo_selectfont } if } bind def
/g { setgray } bind def
/rg { setrgbcolor } bind def
/d1 { setcachedevice } bind def
%%EndProlog
%%BeginSetup
%%EndSetup
%%Page: 1 1
%%BeginPageSetup
%%PageBoundingBox: 0 30 409 377
%%EndPageSetup
q 0 30 409 347 rectclip q
0 g
2.453 85.698 m 7.848 98.941 13.242 112.183 18.641 125.429 c 22.238 134.261
 28.836 141.663 36.547 146.917 c 37.695 147.702 38.875 148.441 40.074 149.136
 c 39.945 149.261 39.812 149.39 39.68 149.523 c 33.633 155.573 29.875 163.925
 29.875 173.12 c 29.875 342.995 l 29.875 361.386 44.891 376.402 63.281 376.402
 c 344.719 376.402 l 363.105 376.402 378.121 361.386 378.121 342.995 c 378.121
 173.12 l 378.121 164.034 374.441 155.448 367.922 149.136 c 369.121 148.445
 370.305 147.702 371.453 146.917 c 379.164 141.663 385.758 134.261 389.359
 125.429 c 394.754 112.183 400.148 98.941 405.547 85.698 c 407.645 81.234
 408.801 74.835 408.801 69.917 c 408.801 61.3 405.902 53.464 401.512 47.171
 c 397.109 40.855 391.133 36.07 385.023 33.577 c 381.758 32.245 378.402 
31.53 375.148 31.53 c 32.852 31.53 l 29.598 31.53 26.242 32.245 22.977 33.577
 c 16.867 36.07 10.887 40.855 6.484 47.171 c 2.098 53.464 -0.801 61.3 -0.801
 69.917 c -0.801 74.831 0.355 81.237 2.453 85.698 c h
300.535 123.538 m 296.086 123.538 292.484 119.933 292.484 115.491 c 292.484
 111.042 296.086 107.441 300.535 107.441 c 304.98 107.441 308.586 111.042
 308.586 115.491 c 308.586 119.933 304.98 123.538 300.535 123.538 c h
102.52 90.327 m 98.074 90.327 94.469 86.722 94.469 82.277 c 94.469 77.831
 98.074 74.23 102.52 74.23 c 106.965 74.23 110.57 77.831 110.57 82.277 c
 110.57 86.722 106.965 90.327 102.52 90.327 c h
149.742 324.96 m 149.098 326.046 148.188 326.999 147.035 327.706 c 143.25
 330.034 138.293 328.855 135.965 325.066 c 114.578 290.249 l 75.223 280.757
 l 73.914 280.495 72.656 279.905 71.574 278.98 c 68.207 276.097 67.812 271.03
 70.695 267.663 c 97.156 236.605 l 94.012 195.855 l 93.922 194.652 94.102
 193.405 94.594 192.21 c 96.277 188.112 100.965 186.155 105.062 187.839 
c 142.82 203.433 l 180.07 188.05 l 181.316 187.433 182.738 187.132 184.227
 187.241 c 188.652 187.573 191.977 191.429 191.648 195.859 c 188.484 236.605
 l 214.945 267.667 l 215.742 268.593 216.336 269.722 216.648 270.995 c 217.688
 275.3 215.039 279.636 210.734 280.679 c 171.062 290.249 l h
159.078 279.023 m 142.82 305.48 l 126.547 279.034 l 125.477 277.292 123.742
 275.956 121.598 275.437 c 91.379 268.148 l 111.258 244.82 l 112.766 243.23
 113.621 241.038 113.445 238.683 c 111.039 207.667 l 139.773 219.53 l 141.656
 220.308 143.836 220.37 145.871 219.53 c 174.602 207.667 l 172.211 238.683
 l 172.055 240.722 172.68 242.823 174.117 244.495 c 194.27 268.148 l 164.645
 275.292 l 162.414 275.655 160.352 276.948 159.078 279.023 c h
242.406 295.3 m 329.512 295.3 l 333.961 295.3 337.562 298.902 337.562 303.351
 c 337.562 307.796 333.961 311.402 329.512 311.402 c 242.406 311.402 l 237.961
 311.402 234.355 307.796 234.355 303.351 c 234.355 298.902 237.961 295.3
 242.406 295.3 c h
242.406 203.53 m 303.555 203.53 l 308 203.53 311.605 207.136 311.605 211.581
 c 311.605 216.027 308 219.632 303.555 219.632 c 242.406 219.632 l 237.961
 219.632 234.355 216.027 234.355 211.581 c 234.355 207.136 237.961 203.53
 242.406 203.53 c h
242.406 234.12 m 329.512 234.12 l 333.961 234.12 337.562 237.726 337.562
 242.171 c 337.562 246.616 333.961 250.222 329.512 250.222 c 242.406 250.222
 l 237.961 250.222 234.355 246.616 234.355 242.171 c 234.355 237.726 237.961
 234.12 242.406 234.12 c h
242.406 264.71 m 329.512 264.71 l 333.961 264.71 337.562 268.316 337.562
 272.761 c 337.562 277.206 333.961 280.808 329.512 280.808 c 242.406 280.808
 l 237.961 280.808 234.355 277.206 234.355 272.761 c 234.355 268.316 237.961
 264.71 242.406 264.71 c h
63.281 155.812 m 344.719 155.812 l 349.32 155.812 353.688 157.652 356.938
 160.902 c 360.074 164.042 362.023 168.37 362.023 173.12 c 362.023 342.995
 l 362.023 352.499 354.223 360.3 344.719 360.3 c 63.281 360.3 l 53.777 360.3
 45.977 352.495 45.977 342.995 c 45.977 173.12 l 45.977 168.37 47.926 164.042
 51.062 160.902 c 54.203 157.761 58.527 155.812 63.281 155.812 c h
21.703 90.327 m 70.32 90.327 l 74.77 90.327 78.371 86.722 78.371 82.277
 c 78.371 77.831 74.77 74.23 70.32 74.23 c 15.703 74.23 l 15.43 72.761 15.297
 71.32 15.297 69.917 c 15.297 64.765 17.023 60.093 19.629 56.355 c 22.223
 52.636 25.617 49.866 29.016 48.48 c 30.371 47.929 31.68 47.632 32.852 47.632
 c 375.148 47.632 l 376.32 47.632 377.629 47.929 378.988 48.48 c 382.383
 49.866 385.777 52.636 388.371 56.355 c 390.98 60.093 392.703 64.765 392.703
 69.917 c 392.703 71.32 392.57 72.761 392.297 74.23 c 134.715 74.23 l 130.273
 74.23 126.668 77.831 126.668 82.277 c 126.668 86.726 130.273 90.327 134.715
 90.327 c 386.297 90.327 l 379.324 107.441 l 332.73 107.441 l 328.285 107.441
 324.68 111.042 324.68 115.487 c 324.68 119.933 328.285 123.538 332.73 123.538
 c 372.324 123.538 l 369.836 127.515 366.348 130.956 362.398 133.652 c 356.766
 137.491 350.355 139.714 344.719 139.714 c 63.281 139.714 l 57.098 139.714
 50.652 137.093 45.602 133.652 c 41.652 130.96 38.164 127.515 35.676 123.538
 c 268.336 123.538 l 272.781 123.538 276.383 119.933 276.383 115.487 c 276.383
 111.042 272.781 107.441 268.336 107.441 c 28.676 107.441 l h
21.703 90.327 m f*
Q Q
showpage
%%Trailer
end restore
%%EOF
