%!PS-Adobe-3.0 EPSF-3.0
%%Creator: cairo 1.14.2 (http://cairographics.org)
%%CreationDate: Wed Oct  3 10:33:22 2018
%%Pages: 1
%%DocumentData: Clean7Bit
%%LanguageLevel: 2
%%BoundingBox: 0 25 410 385
%%EndComments
%%BeginProlog
save
50 dict begin
/q { gsave } bind def
/Q { grestore } bind def
/cm { 6 array astore concat } bind def
/w { setlinewidth } bind def
/J { setlinecap } bind def
/j { setlinejoin } bind def
/M { setmiterlimit } bind def
/d { setdash } bind def
/m { moveto } bind def
/l { lineto } bind def
/c { curveto } bind def
/h { closepath } bind def
/re { exch dup neg 3 1 roll 5 3 roll moveto 0 rlineto
      0 exch rlineto 0 rlineto closepath } bind def
/S { stroke } bind def
/f { fill } bind def
/f* { eofill } bind def
/n { newpath } bind def
/W { clip } bind def
/W* { eoclip } bind def
/BT { } bind def
/ET { } bind def
/pdfmark where { pop globaldict /?pdfmark /exec load put }
    { globaldict begin /?pdfmark /pop load def /pdfmark
    /cleartomark load def end } ifelse
/BDC { mark 3 1 roll /BDC pdfmark } bind def
/EMC { mark /EMC pdfmark } bind def
/cairo_store_point { /cairo_point_y exch def /cairo_point_x exch def } def
/Tj { show currentpoint cairo_store_point } bind def
/TJ {
  {
    dup
    type /stringtype eq
    { show } { -0.001 mul 0 cairo_font_matrix dtransform rmoveto } ifelse
  } forall
  currentpoint cairo_store_point
} bind def
/cairo_selectfont { cairo_font_matrix aload pop pop pop 0 0 6 array astore
    cairo_font exch selectfont cairo_point_x cairo_point_y moveto } bind def
/Tf { pop /cairo_font exch def /cairo_font_matrix where
      { pop cairo_selectfont } if } bind def
/Td { matrix translate cairo_font_matrix matrix concatmatrix dup
      /cairo_font_matrix exch def dup 4 get exch 5 get cairo_store_point
      /cairo_font where { pop cairo_selectfont } if } bind def
/Tm { 2 copy 8 2 roll 6 array astore /cairo_font_matrix exch def
      cairo_store_point /cairo_font where { pop cairo_selectfont } if } bind def
/g { setgray } bind def
/rg { setrgbcolor } bind def
/d1 { setcachedevice } bind def
%%EndProlog
%%BeginSetup
%%EndSetup
%%Page: 1 1
%%BeginPageSetup
%%PageBoundingBox: 0 25 410 385
%%EndPageSetup
q 0 25 410 360 rectclip q
0 g
37.227 383.998 m 372.371 383.998 l 382.617 383.998 391.926 379.815 398.672
 373.073 c 405.414 366.327 409.602 357.018 409.602 346.772 c 409.602 135.858
 l 409.602 125.608 405.414 116.303 398.672 109.557 c 391.926 102.811 382.617
 98.627 372.371 98.627 c 266.914 98.627 l 266.914 68.655 l 290.512 68.655
 l 300.023 68.655 308.664 64.768 314.926 58.506 c 321.184 52.248 325.07 
43.608 325.07 34.092 c 325.07 29.682 321.492 26.104 317.074 26.104 c 312.66
 26.104 309.082 29.682 309.082 34.092 c 309.082 39.194 306.992 43.834 303.621
 47.202 c 300.254 50.577 295.613 52.663 290.512 52.663 c 119.086 52.663 
l 113.992 52.663 109.352 50.577 105.977 47.202 c 102.609 43.834 100.52 39.194
 100.52 34.092 c 100.52 29.682 96.941 26.104 92.523 26.104 c 88.109 26.104
 84.531 29.682 84.531 34.092 c 84.531 43.608 88.414 52.248 94.68 58.506 
c 100.938 64.764 109.578 68.655 119.086 68.655 c 142.684 68.655 l 142.684
 98.627 l 37.227 98.627 l 26.98 98.627 17.676 102.811 10.93 109.557 c 4.184
 116.303 0 125.612 0 135.858 c 0 227.725 l 0 232.139 3.578 235.717 7.992
 235.717 c 12.41 235.717 15.988 232.139 15.988 227.725 c 15.988 172.627 
l 393.613 172.627 l 393.613 346.772 l 393.613 352.604 391.219 357.913 387.367
 361.768 c 383.512 365.623 378.203 368.014 372.371 368.014 c 37.227 368.014
 l 31.395 368.014 26.086 365.623 22.23 361.768 c 18.379 357.913 15.988 352.608
 15.988 346.772 c 15.988 291.674 l 15.988 287.26 12.406 283.682 7.992 283.682
 c 3.578 283.682 0 287.26 0 291.674 c 0 346.772 l 0 357.018 4.184 366.327
 10.93 373.073 c 17.676 379.815 26.984 383.998 37.227 383.998 c h
7.992 267.694 m 3.578 267.694 0 264.116 0 259.702 c 0 255.284 3.578 251.705
 7.992 251.705 c 12.41 251.705 15.988 255.284 15.988 259.702 c 15.988 264.116
 12.41 267.694 7.992 267.694 c h
367.027 222.674 m 367.027 200.444 l 344.801 200.444 l 340.383 200.444 336.805
 196.866 336.805 192.452 c 336.805 188.038 340.387 184.455 344.801 184.455
 c 368.629 184.455 l 372.594 184.455 376.195 186.077 378.797 188.678 c 381.398
 191.28 383.016 194.881 383.016 198.846 c 383.016 222.674 l 383.016 227.088
 379.438 230.67 375.023 230.67 c 370.609 230.67 367.027 227.088 367.027 
222.674 c h
383.02 318.604 m 383.02 342.432 l 383.02 346.397 381.398 349.998 378.797
 352.6 c 376.195 355.202 372.594 356.823 368.629 356.823 c 344.805 356.823
 l 340.387 356.823 336.809 353.241 336.809 348.827 c 336.809 344.413 340.387
 340.834 344.805 340.834 c 367.031 340.834 l 367.031 318.608 l 367.031 314.19
 370.609 310.612 375.023 310.612 c 379.438 310.608 383.02 314.186 383.02
 318.604 c h
27.18 222.674 m 27.18 198.846 l 27.18 194.881 28.797 191.28 31.398 188.678
 c 34.004 186.077 37.602 184.455 41.57 184.455 c 65.398 184.455 l 69.812
 184.455 73.391 188.038 73.391 192.452 c 73.391 196.866 69.809 200.444 65.398
 200.444 c 43.164 200.444 l 43.164 222.674 l 43.164 227.088 39.586 230.67
 35.176 230.67 c 30.758 230.67 27.18 227.088 27.18 222.674 c h
43.164 318.604 m 43.164 340.83 l 65.398 340.83 l 69.812 340.83 73.391 344.413
 73.391 348.827 c 73.391 353.241 69.809 356.819 65.398 356.819 c 41.57 356.819
 l 37.602 356.819 34.004 355.202 31.398 352.6 c 28.797 349.998 27.18 346.397
 27.18 342.432 c 27.18 318.604 l 27.18 314.186 30.758 310.608 35.176 310.608
 c 39.586 310.608 43.164 314.186 43.164 318.604 c h
203.461 352.53 m 197.18 352.53 191.477 349.967 187.348 345.834 c 183.215
 341.702 180.652 335.998 180.652 329.717 c 180.652 310.58 l 122.914 310.58
 l 118.133 310.58 113.785 308.627 110.641 305.483 c 107.496 302.342 105.543
 297.995 105.543 293.209 c 105.543 275.291 l 105.543 270.506 107.496 266.159
 110.641 263.014 c 112.176 261.483 113.992 260.233 116.008 259.358 c 124.457
 212.514 l 125.512 206.643 128.098 201.178 132.035 197.245 c 135.977 193.295
 141.133 190.854 147.367 190.854 c 259.562 190.854 l 265.789 190.854 270.949
 193.299 274.895 197.245 c 278.828 201.178 281.414 206.647 282.473 212.514
 c 290.918 259.358 l 292.938 260.233 294.754 261.483 296.289 263.014 c 299.43
 266.163 301.383 270.506 301.383 275.291 c 301.383 293.209 l 301.383 297.995
 299.43 302.342 296.289 305.483 c 293.141 308.627 288.797 310.58 284.012
 310.58 c 226.273 310.58 l 226.273 329.717 l 226.273 335.998 223.711 341.702
 219.582 345.834 c 215.449 349.967 209.746 352.53 203.461 352.53 c h
225.258 294.592 m 224.145 291.014 222.172 287.803 219.582 285.213 c 215.449
 281.08 209.742 278.514 203.461 278.514 c 197.18 278.514 191.477 281.08 
187.348 285.213 c 184.758 287.803 182.781 291.014 181.668 294.592 c 122.914
 294.592 l 122.543 294.592 122.195 294.436 121.945 294.182 c 121.691 293.924
 121.531 293.58 121.531 293.209 c 121.531 275.291 l 121.531 274.92 121.691
 274.577 121.945 274.319 c 122.195 274.065 122.543 273.905 122.914 273.905
 c 284.012 273.905 l 284.383 273.905 284.73 274.065 284.984 274.319 c 285.238
 274.577 285.398 274.92 285.398 275.291 c 285.398 293.209 l 285.398 293.58
 285.242 293.924 284.984 294.182 c 284.73 294.436 284.383 294.592 284.012
 294.592 c h
203.461 336.545 m 201.594 336.545 199.891 335.772 198.648 334.53 c 197.41
 333.291 196.637 331.588 196.637 329.717 c 196.637 301.33 l 196.637 299.463
 197.41 297.756 198.648 296.514 c 199.891 295.276 201.594 294.506 203.461
 294.506 c 205.332 294.506 207.039 295.276 208.277 296.514 c 209.52 297.756
 210.289 299.463 210.289 301.33 c 210.289 329.717 l 210.289 331.588 209.52
 333.291 208.277 334.53 c 207.039 335.772 205.332 336.545 203.461 336.545
 c h
132.445 257.92 m 140.133 215.323 l 140.621 212.596 141.719 210.163 143.336
 208.545 c 144.391 207.491 145.746 206.838 147.367 206.838 c 259.562 206.838
 l 261.18 206.838 262.539 207.491 263.59 208.545 c 265.211 210.166 266.305
 212.596 266.797 215.323 c 274.48 257.92 l h
185.754 127.639 m 223.848 127.639 l 228.262 127.639 231.84 131.217 231.84
 135.627 c 231.84 140.045 228.262 143.623 223.848 143.623 c 185.754 143.623
 l 181.336 143.623 177.758 140.045 177.758 135.627 c 177.758 131.217 181.336
 127.639 185.754 127.639 c h
393.613 156.643 m 15.988 156.643 l 15.988 135.858 l 15.988 130.026 18.379
 124.717 22.23 120.862 c 26.086 117.01 31.395 114.616 37.227 114.616 c 372.371
 114.616 l 378.207 114.616 383.512 117.01 387.367 120.862 c 391.219 124.717
 393.613 130.026 393.613 135.858 c h
250.93 68.655 m 250.93 98.627 l 158.672 98.627 l 158.672 68.655 l h
250.93 68.655 m f*
Q Q
showpage
%%Trailer
end restore
%%EOF
