%!PS-Adobe-3.0 EPSF-3.0
%%Creator: cairo 1.14.2 (http://cairographics.org)
%%CreationDate: Wed Oct  3 10:33:22 2018
%%Pages: 1
%%DocumentData: Clean7Bit
%%LanguageLevel: 2
%%BoundingBox: 6 -1 404 410
%%EndComments
%%BeginProlog
save
50 dict begin
/q { gsave } bind def
/Q { grestore } bind def
/cm { 6 array astore concat } bind def
/w { setlinewidth } bind def
/J { setlinecap } bind def
/j { setlinejoin } bind def
/M { setmiterlimit } bind def
/d { setdash } bind def
/m { moveto } bind def
/l { lineto } bind def
/c { curveto } bind def
/h { closepath } bind def
/re { exch dup neg 3 1 roll 5 3 roll moveto 0 rlineto
      0 exch rlineto 0 rlineto closepath } bind def
/S { stroke } bind def
/f { fill } bind def
/f* { eofill } bind def
/n { newpath } bind def
/W { clip } bind def
/W* { eoclip } bind def
/BT { } bind def
/ET { } bind def
/pdfmark where { pop globaldict /?pdfmark /exec load put }
    { globaldict begin /?pdfmark /pop load def /pdfmark
    /cleartomark load def end } ifelse
/BDC { mark 3 1 roll /BDC pdfmark } bind def
/EMC { mark /EMC pdfmark } bind def
/cairo_store_point { /cairo_point_y exch def /cairo_point_x exch def } def
/Tj { show currentpoint cairo_store_point } bind def
/TJ {
  {
    dup
    type /stringtype eq
    { show } { -0.001 mul 0 cairo_font_matrix dtransform rmoveto } ifelse
  } forall
  currentpoint cairo_store_point
} bind def
/cairo_selectfont { cairo_font_matrix aload pop pop pop 0 0 6 array astore
    cairo_font exch selectfont cairo_point_x cairo_point_y moveto } bind def
/Tf { pop /cairo_font exch def /cairo_font_matrix where
      { pop cairo_selectfont } if } bind def
/Td { matrix translate cairo_font_matrix matrix concatmatrix dup
      /cairo_font_matrix exch def dup 4 get exch 5 get cairo_store_point
      /cairo_font where { pop cairo_selectfont } if } bind def
/Tm { 2 copy 8 2 roll 6 array astore /cairo_font_matrix exch def
      cairo_store_point /cairo_font where { pop cairo_selectfont } if } bind def
/g { setgray } bind def
/rg { setrgbcolor } bind def
/d1 { setcachedevice } bind def
%%EndProlog
%%BeginSetup
%%EndSetup
%%Page: 1 1
%%BeginPageSetup
%%PageBoundingBox: 6 -1 404 410
%%EndPageSetup
q 6 -1 398 411 rectclip q
0 g
256.637 56.955 m 252.227 56.955 248.652 60.53 248.652 64.94 c 248.652 69.35
 252.227 72.928 256.637 72.928 c 284.895 72.928 l 289.305 72.928 292.883
 69.354 292.883 64.94 c 292.883 60.53 289.305 56.955 284.895 56.955 c h
91.289 212.815 m 95.719 212.815 99.309 209.229 99.309 204.799 c 99.309 
200.373 95.719 196.78 91.289 196.78 c 86.863 196.78 83.273 200.373 83.273
 204.799 c 83.273 209.229 86.863 212.815 91.289 212.815 c h
99.309 236.87 m 99.309 355.44 l 99.309 365.916 103.602 375.448 110.516 
382.358 c 117.43 389.276 126.961 393.565 137.434 393.565 c 272.352 393.565
 l 282.824 393.565 292.355 389.276 299.27 382.358 c 306.184 375.448 310.477
 365.916 310.477 355.44 c 310.477 54.159 l 310.477 43.682 306.184 34.155
 299.27 27.241 c 292.355 20.327 282.824 16.03 272.352 16.03 c 137.434 16.03
 l 126.957 16.03 117.43 20.327 110.516 27.241 c 103.602 34.155 99.309 43.686
 99.309 54.159 c 99.309 172.733 l 99.309 177.159 95.719 180.748 91.289 180.748
 c 86.863 180.748 83.273 177.163 83.273 172.733 c 83.273 54.159 l 83.273
 39.256 89.367 25.717 99.18 15.905 c 108.992 6.092 122.531 -0.002 137.434
 -0.002 c 272.352 -0.002 l 287.25 -0.002 300.793 6.092 310.605 15.905 c 
320.418 25.717 326.508 39.256 326.508 54.159 c 326.508 355.44 l 326.508 
370.342 320.418 383.885 310.605 393.698 c 300.793 403.51 287.25 409.6 272.352
 409.6 c 137.434 409.6 l 122.531 409.6 108.992 403.51 99.18 393.698 c 89.367
 383.885 83.273 370.342 83.273 355.44 c 83.273 236.87 l 83.273 232.44 86.863
 228.85 91.289 228.85 c 95.719 228.85 99.309 232.44 99.309 236.87 c h
60.492 175.725 m 58.605 185.116 57.617 194.842 57.617 204.799 c 57.617 
214.76 58.605 224.483 60.492 233.873 c 62.422 243.51 65.301 252.807 69.016
 261.666 c 70.727 265.748 68.809 270.444 64.727 272.155 c 60.645 273.87 
55.949 271.948 54.238 267.866 c 50.109 258.034 46.918 247.709 44.773 237.006
 c 42.68 226.588 41.586 215.819 41.586 204.799 c 41.586 193.78 42.68 183.014
 44.773 172.592 c 46.918 161.889 50.109 151.561 54.238 141.733 c 55.949 
137.655 60.648 135.733 64.727 137.444 c 68.809 139.155 70.727 143.854 69.016
 147.936 c 65.297 156.795 62.422 166.092 60.492 175.725 c h
26.02 168.444 m 23.664 180.084 22.434 192.233 22.434 204.799 c 22.434 217.495
 23.648 229.655 25.996 241.291 c 28.402 253.186 32.016 264.694 36.766 275.815
 c 38.492 279.881 36.602 284.577 32.539 286.307 c 28.477 288.038 23.777 
286.143 22.047 282.077 c 16.914 270.061 12.984 257.506 10.34 244.42 c 7.742
 231.561 6.398 218.35 6.398 204.799 c 6.398 191.377 7.762 178.17 10.359 
165.311 c 13.012 152.202 16.953 139.573 22.047 127.549 c 23.758 123.487 
28.441 121.58 32.508 123.295 c 36.57 125.006 38.477 129.686 36.766 133.752
 c 32.07 144.827 28.445 156.428 26.02 168.444 c h
349.293 175.725 m 351.176 185.116 352.164 194.842 352.164 204.799 c 352.164
 214.76 351.18 224.483 349.293 233.873 c 347.359 243.51 344.484 252.807 
340.766 261.666 c 339.055 265.748 340.977 270.444 345.055 272.155 c 349.137
 273.87 353.836 271.948 355.547 267.866 c 359.672 258.034 362.867 247.709
 365.012 237.006 c 367.102 226.588 368.195 215.819 368.195 204.799 c 368.195
 193.78 367.102 183.014 365.012 172.592 c 362.867 161.889 359.672 151.561
 355.547 141.733 c 353.836 137.655 349.137 135.733 345.055 137.444 c 340.977
 139.155 339.055 143.854 340.766 147.936 c 344.484 156.795 347.359 166.092
 349.293 175.725 c h
383.766 168.444 m 386.117 180.084 387.352 192.233 387.352 204.799 c 387.352
 217.495 386.137 229.655 383.789 241.291 c 381.383 253.186 377.766 264.694
 373.02 275.815 c 371.289 279.881 373.18 284.577 377.242 286.307 c 381.309
 288.038 386.008 286.143 387.734 282.077 c 392.867 270.061 396.797 257.506
 399.445 244.42 c 402.043 231.561 403.383 218.35 403.383 204.799 c 403.383
 191.373 402.023 178.17 399.422 165.311 c 396.773 152.198 392.832 139.569
 387.738 127.549 c 386.023 123.487 381.34 121.577 377.277 123.291 c 373.211
 125.002 371.305 129.686 373.02 133.748 c 377.711 144.827 381.336 156.428
 383.766 168.444 c h
174.777 249.385 m 167.07 257.092 162.305 267.741 162.305 279.498 c 162.305
 291.26 167.07 301.905 174.777 309.612 c 180.688 315.526 188.328 319.705
 196.875 321.334 c 196.875 336.467 l 196.875 340.893 200.461 344.483 204.891
 344.483 c 209.32 344.483 212.91 340.893 212.91 336.467 c 212.91 321.334
 l 221.453 319.705 229.094 315.526 235.008 309.612 c 242.711 301.905 247.48
 291.26 247.48 279.498 c 247.48 275.073 243.891 271.483 239.461 271.483 
c 235.039 271.483 231.445 275.073 231.445 279.498 c 231.445 286.83 228.477
 293.471 223.668 298.28 c 218.863 303.08 212.227 306.053 204.891 306.053
 c 197.555 306.053 190.914 303.08 186.113 298.28 c 181.305 293.471 178.336
 286.83 178.336 279.498 c 178.336 272.166 181.305 265.526 186.113 260.721
 c 190.914 255.916 197.555 252.944 204.891 252.944 c 216.648 252.944 227.297
 248.178 235.004 240.467 c 242.711 232.764 247.477 222.116 247.477 210.358
 c 247.477 198.596 242.711 187.952 235.004 180.241 c 229.094 174.327 221.453
 170.147 212.91 168.518 c 212.91 153.389 l 212.91 148.959 209.32 145.373
 204.891 145.373 c 200.461 145.373 196.875 148.959 196.875 153.389 c 196.875
 168.518 l 188.328 170.147 180.688 174.327 174.777 180.241 c 167.07 187.948
 162.305 198.592 162.305 210.358 c 162.305 214.784 165.891 218.373 170.32
 218.373 c 174.746 218.373 178.336 214.78 178.336 210.358 c 178.336 203.022
 181.305 196.381 186.113 191.577 c 190.918 186.772 197.555 183.799 204.891
 183.799 c 212.227 183.799 218.867 186.772 223.668 191.577 c 228.477 196.381
 231.445 203.022 231.445 210.358 c 231.445 217.686 228.477 224.327 223.668
 229.135 c 218.863 233.936 212.227 236.909 204.891 236.909 c 193.133 236.909
 182.484 241.678 174.777 249.385 c h
137.715 376.002 m 272.07 376.002 l 277.809 376.002 283.023 373.659 286.793
 369.889 c 290.57 366.112 292.914 360.901 292.914 355.159 c 292.914 134.694
 l 292.914 128.952 290.57 123.745 286.793 119.967 c 283.023 116.194 277.809
 113.85 272.07 113.85 c 137.715 113.85 l 131.977 113.85 126.762 116.194 
122.988 119.967 c 119.211 123.745 116.871 128.952 116.871 134.694 c 116.871
 355.159 l 116.871 360.901 119.211 366.112 122.988 369.889 c 126.762 373.659
 131.977 376.002 137.715 376.002 c h
272.07 359.967 m 273.383 359.967 274.586 359.424 275.461 358.549 c 276.336
 357.674 276.879 356.475 276.879 355.159 c 276.879 134.694 l 276.879 133.381
 276.336 132.178 275.461 131.303 c 274.586 130.428 273.383 129.885 272.07
 129.885 c 137.715 129.885 l 136.398 129.885 135.195 130.428 134.32 131.303
 c 133.445 132.178 132.906 133.381 132.906 134.694 c 132.906 355.159 l 132.906
 356.475 133.449 357.674 134.32 358.549 c 135.199 359.424 136.398 359.971
 137.715 359.971 c 272.07 359.971 l h
204.891 94.569 m 213.07 94.569 220.477 91.248 225.84 85.889 c 231.199 80.53
 234.52 73.123 234.52 64.94 c 234.52 56.764 231.199 49.358 225.84 43.995
 c 220.477 38.635 213.07 35.315 204.891 35.315 c 196.711 35.315 189.305 
38.635 183.945 43.995 c 178.586 49.358 175.266 56.764 175.266 64.94 c 175.266
 73.123 178.586 80.53 183.945 85.889 c 189.305 91.248 196.711 94.569 204.891
 94.569 c h
214.504 74.553 m 216.961 72.092 218.484 68.698 218.484 64.94 c 218.484 
61.186 216.961 57.791 214.504 55.33 c 212.043 52.873 208.648 51.35 204.891
 51.35 c 201.137 51.35 197.742 52.873 195.281 55.33 c 192.82 57.788 191.301
 61.186 191.301 64.94 c 191.301 68.694 192.82 72.092 195.281 74.553 c 197.742
 77.014 201.137 78.534 204.891 78.534 c 208.648 78.534 212.043 77.014 214.504
 74.553 c h
124.887 56.955 m 120.477 56.955 116.902 60.53 116.902 64.94 c 116.902 69.35
 120.477 72.928 124.887 72.928 c 153.148 72.928 l 157.555 72.928 161.133
 69.354 161.133 64.944 c 161.133 60.53 157.555 56.955 153.148 56.955 c h
124.887 56.955 m f*
Q Q
showpage
%%Trailer
end restore
%%EOF
