%!PS-Adobe-3.0 EPSF-3.0
%%Creator: cairo 1.14.2 (http://cairographics.org)
%%CreationDate: Wed Oct  3 10:33:22 2018
%%Pages: 1
%%DocumentData: Clean7Bit
%%LanguageLevel: 2
%%BoundingBox: 46 -1 363 410
%%EndComments
%%BeginProlog
save
50 dict begin
/q { gsave } bind def
/Q { grestore } bind def
/cm { 6 array astore concat } bind def
/w { setlinewidth } bind def
/J { setlinecap } bind def
/j { setlinejoin } bind def
/M { setmiterlimit } bind def
/d { setdash } bind def
/m { moveto } bind def
/l { lineto } bind def
/c { curveto } bind def
/h { closepath } bind def
/re { exch dup neg 3 1 roll 5 3 roll moveto 0 rlineto
      0 exch rlineto 0 rlineto closepath } bind def
/S { stroke } bind def
/f { fill } bind def
/f* { eofill } bind def
/n { newpath } bind def
/W { clip } bind def
/W* { eoclip } bind def
/BT { } bind def
/ET { } bind def
/pdfmark where { pop globaldict /?pdfmark /exec load put }
    { globaldict begin /?pdfmark /pop load def /pdfmark
    /cleartomark load def end } ifelse
/BDC { mark 3 1 roll /BDC pdfmark } bind def
/EMC { mark /EMC pdfmark } bind def
/cairo_store_point { /cairo_point_y exch def /cairo_point_x exch def } def
/Tj { show currentpoint cairo_store_point } bind def
/TJ {
  {
    dup
    type /stringtype eq
    { show } { -0.001 mul 0 cairo_font_matrix dtransform rmoveto } ifelse
  } forall
  currentpoint cairo_store_point
} bind def
/cairo_selectfont { cairo_font_matrix aload pop pop pop 0 0 6 array astore
    cairo_font exch selectfont cairo_point_x cairo_point_y moveto } bind def
/Tf { pop /cairo_font exch def /cairo_font_matrix where
      { pop cairo_selectfont } if } bind def
/Td { matrix translate cairo_font_matrix matrix concatmatrix dup
      /cairo_font_matrix exch def dup 4 get exch 5 get cairo_store_point
      /cairo_font where { pop cairo_selectfont } if } bind def
/Tm { 2 copy 8 2 roll 6 array astore /cairo_font_matrix exch def
      cairo_store_point /cairo_font where { pop cairo_selectfont } if } bind def
/g { setgray } bind def
/rg { setrgbcolor } bind def
/d1 { setcachedevice } bind def
%%EndProlog
%%BeginSetup
%%EndSetup
%%Page: 1 1
%%BeginPageSetup
%%PageBoundingBox: 46 -1 363 410
%%EndPageSetup
q 46 -1 317 411 rectclip q
0 g
54.82 409.6 m 172.629 409.6 l 177.059 409.6 180.648 406.01 180.648 401.577
 c 180.648 397.151 177.059 393.561 172.629 393.561 c 62.844 393.561 l 62.844
 28.014 l 78.988 44.928 l 82.141 48.252 87.434 48.268 90.598 44.944 c 114.777
 19.608 l 138.945 44.928 l 142.098 48.252 147.391 48.268 150.555 44.944 
c 174.738 19.608 l 198.902 44.928 l 202.055 48.252 207.348 48.268 210.512
 44.944 c 234.695 19.608 l 258.859 44.928 l 262.012 48.252 267.305 48.268
 270.469 44.944 c 294.648 19.608 l 318.82 44.928 l 321.973 48.252 327.262
 48.268 330.426 44.944 c 346.586 28.014 l 346.586 393.561 l 236.797 393.561
 l 232.367 393.561 228.773 397.151 228.773 401.577 c 228.773 406.01 232.367
 409.6 236.797 409.6 c 354.605 409.6 l 359.035 409.6 362.625 406.01 362.625
 401.577 c 362.625 8.022 l 362.625 3.592 359.035 -0.002 354.605 -0.002 c
 352.117 -0.002 349.891 1.135 348.418 2.916 c 324.625 27.842 l 300.445 2.506
 l 297.281 -0.818 291.988 -0.802 288.836 2.522 c 264.668 27.842 l 240.488
 2.506 l 237.324 -0.818 232.031 -0.802 228.879 2.522 c 204.711 27.842 l 
180.531 2.506 l 177.367 -0.818 172.074 -0.802 168.922 2.522 c 144.758 27.842
 l 120.574 2.506 l 117.414 -0.818 112.117 -0.802 108.965 2.522 c 84.801 
27.842 l 60.617 2.506 l 57.57 -0.693 52.508 -0.822 49.305 2.225 c 47.652
 3.795 46.82 5.905 46.82 8.022 c 46.801 401.577 l 46.801 406.01 50.391 409.6
 54.82 409.6 c h
204.711 409.6 m 200.285 409.6 196.691 406.01 196.691 401.577 c 196.691 
397.151 200.285 393.561 204.711 393.561 c 209.145 393.561 212.73 397.151
 212.73 401.577 c 212.73 406.01 209.145 409.6 204.711 409.6 c h
87.07 141.666 m 322.359 141.666 l 326.789 141.666 330.379 145.256 330.379
 149.686 c 330.379 154.116 326.789 157.705 322.359 157.705 c 87.07 157.705
 l 82.637 157.705 79.047 154.116 79.047 149.686 c 79.047 145.256 82.637 
141.666 87.07 141.666 c h
188.406 100.006 m 322.359 100.006 l 326.789 100.006 330.379 103.596 330.379
 108.03 c 330.379 112.455 326.789 116.045 322.359 116.045 c 188.406 116.045
 l 183.977 116.045 180.383 112.455 180.383 108.03 c 180.383 103.596 183.977
 100.006 188.406 100.006 c h
190.066 299.643 m 218.648 299.643 l 223.082 299.643 226.672 303.233 226.672
 307.663 c 226.672 312.092 223.082 315.686 218.648 315.686 c 190.066 315.686
 l 185.637 315.686 182.043 312.092 182.043 307.663 c 182.043 303.233 185.637
 299.643 190.066 299.643 c h
190.066 216.323 m 218.648 216.323 l 223.082 216.323 226.672 219.916 226.672
 224.342 c 226.672 228.776 223.082 232.366 218.648 232.366 c 190.066 232.366
 l 185.637 232.366 182.043 228.776 182.043 224.342 c 182.043 219.916 185.637
 216.323 190.066 216.323 c h
190.066 257.983 m 218.648 257.983 l 223.082 257.983 226.672 261.577 226.672
 266.002 c 226.672 270.432 223.082 274.026 218.648 274.026 c 190.066 274.026
 l 185.637 274.026 182.043 270.432 182.043 266.002 c 182.043 261.577 185.637
 257.983 190.066 257.983 c h
87.07 299.643 m 158.445 299.643 l 162.875 299.643 166.469 303.233 166.469
 307.663 c 166.469 312.092 162.875 315.686 158.445 315.686 c 87.07 315.686
 l 82.637 315.686 79.047 312.092 79.047 307.663 c 79.047 303.233 82.637 
299.643 87.07 299.643 c h
87.07 216.323 m 158.445 216.323 l 162.875 216.323 166.469 219.916 166.469
 224.342 c 166.469 228.776 162.875 232.366 158.445 232.366 c 87.07 232.366
 l 82.637 232.366 79.047 228.776 79.047 224.342 c 79.047 219.916 82.637 
216.323 87.07 216.323 c h
87.07 257.983 m 158.445 257.983 l 162.875 257.983 166.469 261.577 166.469
 266.002 c 166.469 270.432 162.875 274.026 158.445 274.026 c 87.07 274.026
 l 82.637 274.026 79.047 270.432 79.047 266.002 c 79.047 261.577 82.637 
257.983 87.07 257.983 c h
319.676 292.694 m 319.676 302.28 315.789 310.955 309.508 317.237 c 305.035
 321.709 299.348 324.967 292.984 326.471 c 292.984 336.67 l 292.984 341.104
 289.395 344.694 284.961 344.694 c 280.535 344.694 276.945 341.104 276.945
 336.67 c 276.945 326.471 l 270.582 324.967 264.895 321.709 260.422 317.237
 c 254.141 310.955 250.254 302.28 250.254 292.694 c 250.254 283.108 254.141
 274.432 260.422 268.151 c 266.703 261.87 275.383 257.983 284.965 257.983
 c 290.121 257.983 294.789 255.893 298.164 252.514 c 301.543 249.139 303.633
 244.467 303.633 239.311 c 303.633 234.155 301.543 229.491 298.164 226.112
 c 294.789 222.733 290.121 220.643 284.965 220.643 c 279.809 220.643 275.141
 222.733 271.762 226.112 c 268.383 229.487 266.293 234.155 266.293 239.311
 c 266.293 243.745 262.707 247.334 258.273 247.334 c 253.844 247.334 250.254
 243.745 250.254 239.311 c 250.254 229.729 254.141 221.049 260.422 214.768
 c 264.895 210.295 270.582 207.041 276.945 205.534 c 276.945 195.334 l 276.945
 190.905 280.535 187.311 284.965 187.311 c 289.395 187.311 292.984 190.905
 292.984 195.334 c 292.984 205.538 l 299.352 207.041 305.039 210.295 309.508
 214.772 c 315.789 221.053 319.676 229.733 319.676 239.315 c 319.676 248.901
 315.789 257.577 309.508 263.858 c 303.227 270.139 294.547 274.026 284.961
 274.026 c 279.809 274.026 275.141 276.116 271.762 279.495 c 268.383 282.873
 266.293 287.538 266.293 292.694 c 266.293 297.85 268.383 302.518 271.762
 305.893 c 275.141 309.272 279.809 311.362 284.961 311.362 c 290.117 311.362
 294.789 309.272 298.164 305.893 c 301.543 302.518 303.633 297.85 303.633
 292.694 c 303.633 288.264 307.227 284.67 311.652 284.67 c 316.086 284.67
 319.676 288.264 319.676 292.694 c h
319.676 292.694 m f*
Q Q
showpage
%%Trailer
end restore
%%EOF
