%!PS-Adobe-3.0 EPSF-3.0
%%Creator: cairo 1.14.2 (http://cairographics.org)
%%CreationDate: Wed Oct  3 10:33:22 2018
%%Pages: 1
%%DocumentData: Clean7Bit
%%LanguageLevel: 2
%%BoundingBox: 0 24 410 385
%%EndComments
%%BeginProlog
save
50 dict begin
/q { gsave } bind def
/Q { grestore } bind def
/cm { 6 array astore concat } bind def
/w { setlinewidth } bind def
/J { setlinecap } bind def
/j { setlinejoin } bind def
/M { setmiterlimit } bind def
/d { setdash } bind def
/m { moveto } bind def
/l { lineto } bind def
/c { curveto } bind def
/h { closepath } bind def
/re { exch dup neg 3 1 roll 5 3 roll moveto 0 rlineto
      0 exch rlineto 0 rlineto closepath } bind def
/S { stroke } bind def
/f { fill } bind def
/f* { eofill } bind def
/n { newpath } bind def
/W { clip } bind def
/W* { eoclip } bind def
/BT { } bind def
/ET { } bind def
/pdfmark where { pop globaldict /?pdfmark /exec load put }
    { globaldict begin /?pdfmark /pop load def /pdfmark
    /cleartomark load def end } ifelse
/BDC { mark 3 1 roll /BDC pdfmark } bind def
/EMC { mark /EMC pdfmark } bind def
/cairo_store_point { /cairo_point_y exch def /cairo_point_x exch def } def
/Tj { show currentpoint cairo_store_point } bind def
/TJ {
  {
    dup
    type /stringtype eq
    { show } { -0.001 mul 0 cairo_font_matrix dtransform rmoveto } ifelse
  } forall
  currentpoint cairo_store_point
} bind def
/cairo_selectfont { cairo_font_matrix aload pop pop pop 0 0 6 array astore
    cairo_font exch selectfont cairo_point_x cairo_point_y moveto } bind def
/Tf { pop /cairo_font exch def /cairo_font_matrix where
      { pop cairo_selectfont } if } bind def
/Td { matrix translate cairo_font_matrix matrix concatmatrix dup
      /cairo_font_matrix exch def dup 4 get exch 5 get cairo_store_point
      /cairo_font where { pop cairo_selectfont } if } bind def
/Tm { 2 copy 8 2 roll 6 array astore /cairo_font_matrix exch def
      cairo_store_point /cairo_font where { pop cairo_selectfont } if } bind def
/g { setgray } bind def
/rg { setrgbcolor } bind def
/d1 { setcachedevice } bind def
%%EndProlog
%%BeginSetup
%%EndSetup
%%Page: 1 1
%%BeginPageSetup
%%PageBoundingBox: 0 24 410 385
%%EndPageSetup
q 0 24 410 361 rectclip q
0 g
38.727 198.573 m 37.289 197.217 35.352 196.389 33.227 196.389 c 30.59 196.389
 28.25 197.663 26.789 199.623 c 1.867 229.327 l -0.973 232.717 -0.523 237.764
 2.867 240.604 c 6.258 243.436 11.305 242.991 14.145 239.6 c 26.379 225.018
 l 31.102 266.373 49.879 303.467 77.809 331.397 c 110.309 363.897 155.211
 383.998 204.801 383.998 c 247.32 383.998 286.398 369.202 317.18 344.467
 c 348.555 319.26 371.277 283.729 380.211 243.03 c 381.141 238.702 378.395
 234.44 374.07 233.506 c 369.742 232.573 365.48 235.319 364.547 239.643 
c 356.418 276.698 335.727 309.045 307.16 332.002 c 279.156 354.498 243.566
 367.967 204.805 367.967 c 159.633 367.967 118.746 349.659 89.148 320.061
 c 63.539 294.452 46.383 260.381 42.227 222.405 c 58.148 235.764 l 61.535
 238.604 66.586 238.155 69.418 234.764 c 72.258 231.373 71.809 226.327 68.418
 223.487 c h
147.832 220.885 m 139.121 247.549 l 180.797 247.549 l 185.227 247.549 188.812
 251.139 188.812 255.569 c 188.812 259.998 185.227 263.588 180.797 263.588
 c 133.883 263.588 l 125.836 288.225 l 124.742 291.608 121.602 293.756 118.227
 293.756 c 88.195 293.768 l 83.766 293.768 80.18 290.182 80.18 285.752 c
 80.18 281.327 83.766 277.733 88.195 277.733 c 112.43 277.733 l 126.789 
233.76 141.148 189.78 155.508 145.803 c 149.812 144.635 144.723 141.807 
140.758 137.842 c 135.473 132.557 132.199 125.248 132.199 117.186 c 132.199
 109.116 135.473 101.811 140.758 96.526 c 146.047 91.233 153.352 87.967 
161.418 87.967 c 169.488 87.967 176.789 91.233 182.082 96.526 c 187.367 
101.811 190.637 109.116 190.637 117.186 c 190.637 121.928 189.508 126.405
 187.5 130.37 c 243.168 130.37 l 241.152 126.405 240.016 121.924 240.016
 117.186 c 240.016 109.116 243.289 101.811 248.574 96.526 c 253.863 91.233
 261.168 87.967 269.238 87.967 c 277.305 87.967 284.609 91.233 289.898 96.526
 c 295.184 101.811 298.453 109.116 298.453 117.186 c 298.453 125.229 295.188
 132.518 289.902 137.807 c 284.473 143.245 276.914 146.405 269.219 146.405
 c 172.152 146.405 l 167.535 160.549 l 269.242 160.561 l 272.613 160.561
 275.75 162.713 276.852 166.092 c 305.094 252.592 l 305.461 253.51 305.664
 254.514 305.664 255.569 c 305.664 259.998 302.078 263.588 297.648 263.588
 c 244.938 263.588 l 240.508 263.588 236.922 259.998 236.922 255.569 c 236.922
 251.139 240.508 247.549 244.938 247.549 c 286.613 247.549 l 277.902 220.885
 l h
272.668 204.858 m 153.062 204.858 l 162.297 176.584 l 263.438 176.584 l
 h
212.867 263.588 m 208.438 263.588 204.852 259.998 204.852 255.569 c 204.852
 251.139 208.438 247.553 212.867 247.553 c 217.293 247.553 220.883 251.139
 220.883 255.569 c 220.883 259.998 217.293 263.588 212.867 263.588 c h
269.789 130.389 m 273.211 130.248 276.301 128.803 278.566 126.53 c 280.945
 124.151 282.422 120.842 282.422 117.186 c 282.422 113.541 280.945 110.245
 278.559 107.858 c 276.176 105.475 272.879 103.998 269.238 103.998 c 265.598
 103.998 262.301 105.475 259.914 107.858 c 257.527 110.248 256.055 113.545
 256.055 117.186 c 256.055 120.842 257.527 124.151 259.91 126.53 c 262.094
 128.717 265.043 130.143 268.32 130.37 c 268.883 130.416 269.211 130.416
 269.789 130.389 c h
170.742 126.506 m 173.129 124.123 174.602 120.827 174.602 117.186 c 174.602
 113.541 173.129 110.248 170.742 107.858 c 168.359 105.475 165.062 103.998
 161.422 103.998 c 157.777 103.998 154.48 105.475 152.102 107.862 c 149.711
 110.248 148.238 113.545 148.238 117.186 c 148.238 120.827 149.711 124.123
 152.102 126.506 c 154.48 128.893 157.781 130.37 161.422 130.37 c 165.062
 130.37 168.359 128.893 170.742 126.506 c h
351.457 173.045 m 367.375 186.405 l 363.219 148.432 346.062 114.362 320.453
 88.752 c 290.855 59.155 249.965 40.85 204.801 40.85 c 166.039 40.85 130.445
 54.311 102.441 76.811 c 73.875 99.764 53.18 132.116 45.055 169.17 c 44.117
 173.495 39.855 176.241 35.535 175.307 c 31.211 174.373 28.461 170.108 29.395
 165.788 c 38.32 125.084 61.047 89.553 92.418 64.346 c 123.203 39.612 162.285
 24.811 204.805 24.811 c 254.395 24.811 299.289 44.916 331.789 77.416 c 
359.723 105.346 378.5 142.436 383.223 183.795 c 395.461 169.213 l 398.293
 165.827 403.344 165.373 406.734 168.213 c 410.121 171.045 410.57 176.096
 407.738 179.483 c 382.812 209.186 l 381.352 211.155 379.012 212.424 376.379
 212.424 c 374.246 212.424 372.312 211.592 370.879 210.241 c 341.184 185.327
 l 337.793 182.487 337.344 177.436 340.18 174.045 c 343.02 170.659 348.066
 170.209 351.457 173.045 c h
351.457 173.045 m f*
Q Q
showpage
%%Trailer
end restore
%%EOF
