%!PS-Adobe-3.0 EPSF-3.0
%%Creator: cairo 1.14.2 (http://cairographics.org)
%%CreationDate: Wed Oct  3 10:33:22 2018
%%Pages: 1
%%DocumentData: Clean7Bit
%%LanguageLevel: 2
%%BoundingBox: 0 62 410 348
%%EndComments
%%BeginProlog
save
50 dict begin
/q { gsave } bind def
/Q { grestore } bind def
/cm { 6 array astore concat } bind def
/w { setlinewidth } bind def
/J { setlinecap } bind def
/j { setlinejoin } bind def
/M { setmiterlimit } bind def
/d { setdash } bind def
/m { moveto } bind def
/l { lineto } bind def
/c { curveto } bind def
/h { closepath } bind def
/re { exch dup neg 3 1 roll 5 3 roll moveto 0 rlineto
      0 exch rlineto 0 rlineto closepath } bind def
/S { stroke } bind def
/f { fill } bind def
/f* { eofill } bind def
/n { newpath } bind def
/W { clip } bind def
/W* { eoclip } bind def
/BT { } bind def
/ET { } bind def
/pdfmark where { pop globaldict /?pdfmark /exec load put }
    { globaldict begin /?pdfmark /pop load def /pdfmark
    /cleartomark load def end } ifelse
/BDC { mark 3 1 roll /BDC pdfmark } bind def
/EMC { mark /EMC pdfmark } bind def
/cairo_store_point { /cairo_point_y exch def /cairo_point_x exch def } def
/Tj { show currentpoint cairo_store_point } bind def
/TJ {
  {
    dup
    type /stringtype eq
    { show } { -0.001 mul 0 cairo_font_matrix dtransform rmoveto } ifelse
  } forall
  currentpoint cairo_store_point
} bind def
/cairo_selectfont { cairo_font_matrix aload pop pop pop 0 0 6 array astore
    cairo_font exch selectfont cairo_point_x cairo_point_y moveto } bind def
/Tf { pop /cairo_font exch def /cairo_font_matrix where
      { pop cairo_selectfont } if } bind def
/Td { matrix translate cairo_font_matrix matrix concatmatrix dup
      /cairo_font_matrix exch def dup 4 get exch 5 get cairo_store_point
      /cairo_font where { pop cairo_selectfont } if } bind def
/Tm { 2 copy 8 2 roll 6 array astore /cairo_font_matrix exch def
      cairo_store_point /cairo_font where { pop cairo_selectfont } if } bind def
/g { setgray } bind def
/rg { setrgbcolor } bind def
/d1 { setcachedevice } bind def
%%EndProlog
%%BeginSetup
%%EndSetup
%%Page: 1 1
%%BeginPageSetup
%%PageBoundingBox: 0 62 410 348
%%EndPageSetup
q 0 62 410 286 rectclip q
0 g
143.598 346.721 m 139.469 348.217 134.906 346.084 133.41 341.952 c 124.086
 316.342 l 114.113 317.959 103.969 315.936 94.996 310.998 c 84.023 304.967
 74.797 294.53 69.914 281.12 c 65.828 269.881 65.188 258.432 67.629 248.233
 c 68.617 244.108 70.102 240.19 72.059 236.573 c 46.832 236.573 l 42.43 
236.573 38.855 233.002 38.855 228.596 c 38.855 201.342 l 28.953 199.44 20.121
 194.061 13.375 186.35 c 5.113 176.905 0 163.948 0 149.713 c 0 135.483 5.113
 122.522 13.375 113.077 c 20.121 105.366 28.953 99.983 38.855 98.084 c 38.855
 70.83 l 38.855 66.424 42.43 62.854 46.836 62.854 c 310.945 62.854 l 315.352
 62.854 318.922 66.424 318.922 70.83 c 318.922 98.084 l 328.828 99.983 337.656
 105.366 344.406 113.077 c 347.105 116.166 349.473 119.627 351.43 123.389
 c 361.566 121.647 371.898 123.721 381.023 128.803 c 391.992 134.909 401.215
 145.405 406.086 158.784 c 410.957 172.17 410.594 186.084 406.07 197.764
 c 402.367 207.315 395.898 215.389 387.219 220.565 c 396.551 246.202 l 398.047
 250.33 395.914 254.893 391.785 256.389 c 294.805 291.686 l 293.793 292.147
 292.68 292.405 291.5 292.405 c 287.094 292.405 283.523 288.83 283.523 284.428
 c 283.523 280.979 285.715 278.038 288.781 276.928 c 288.766 276.889 371.363
 246.893 378.879 244.159 c 369.805 219.229 l 368.305 215.1 370.441 210.538
 374.57 209.041 c 382.387 206.194 388.184 199.905 391.238 192.03 c 394.43
 183.795 394.648 173.873 391.133 164.209 c 387.445 154.995 382.121 147.612
 373.297 142.702 c 368.113 139.811 362.395 138.385 356.75 138.764 c 357.426
 142.299 357.777 145.963 357.777 149.717 c 357.777 163.948 352.668 176.905
 344.402 186.35 c 337.656 194.061 328.824 199.444 318.922 201.342 c 318.922
 228.6 l 318.922 233.002 315.352 236.577 310.945 236.577 c 254.66 236.577
 l 250.254 236.577 246.68 233.002 246.68 228.596 c 246.68 224.194 250.254
 220.623 254.66 220.623 c 302.969 220.623 l 302.969 194.123 l 302.969 189.717
 306.539 186.147 310.945 186.147 c 319.289 186.147 326.891 182.221 332.441
 175.881 c 338.242 169.252 341.824 160.006 341.824 149.713 c 341.824 144.827
 341.02 140.178 339.547 135.932 c 339.426 135.647 339.32 135.35 339.227 
135.045 c 337.609 130.705 335.293 126.811 332.438 123.545 c 326.891 117.205
 319.289 113.28 310.945 113.28 c 306.539 113.28 302.969 109.713 302.969 
105.307 c 302.969 78.807 l 54.809 78.807 l 54.809 105.307 l 54.809 109.713
 51.238 113.28 46.832 113.28 c 38.492 113.28 30.887 117.205 25.336 123.545
 c 19.539 130.174 15.953 139.42 15.953 149.717 c 15.953 160.006 19.539 169.252
 25.336 175.881 c 30.887 182.225 38.492 186.147 46.832 186.147 c 51.238 
186.147 54.809 189.717 54.809 194.123 c 54.809 220.623 l 190.852 220.623
 l 195.258 220.623 198.828 224.194 198.828 228.6 c 198.828 233.002 195.258
 236.577 190.852 236.577 c 92.074 236.577 l 87.586 240.51 84.531 245.85 
83.082 251.913 c 81.352 259.147 81.859 267.42 84.871 275.702 c 88.379 285.334
 94.922 292.788 102.66 297.045 c 110.07 301.123 118.566 302.217 126.383 
299.373 c 130.516 297.873 135.074 300.01 136.57 304.139 c 145.641 329.053
 l 173.32 318.979 200.988 308.846 228.672 298.784 c 229.559 298.44 230.527
 298.248 231.543 298.248 c 235.945 298.248 239.52 301.823 239.52 306.225
 c 239.52 309.733 237.258 312.709 234.113 313.78 c h
261.512 303.288 m 265.918 303.288 269.488 299.717 269.488 295.311 c 269.488
 290.905 265.918 287.338 261.512 287.338 c 257.105 287.338 253.539 290.905
 253.539 295.311 c 253.539 299.717 257.105 303.288 261.512 303.288 c h
222.758 236.573 m 227.16 236.573 230.73 232.998 230.73 228.596 c 230.73
 224.19 227.16 220.62 222.758 220.62 c 218.352 220.62 214.781 224.19 214.781
 228.596 c 214.781 233.002 218.352 236.573 222.758 236.573 c h
140.805 199.674 m 147.754 199.674 154.043 196.858 158.598 192.307 c 163.148
 187.752 165.965 181.463 165.965 174.514 c 165.965 167.569 163.148 161.28
 158.598 156.725 c 154.043 152.17 147.754 149.354 140.805 149.354 c 133.859
 149.354 127.57 152.17 123.016 156.725 c 118.461 161.28 115.645 167.569 
115.645 174.514 c 115.645 181.463 118.461 187.752 123.016 192.307 c 127.57
 196.858 133.859 199.674 140.805 199.674 c h
147.32 181.03 m 148.984 179.362 150.016 177.061 150.016 174.514 c 150.016
 171.971 148.984 169.67 147.32 168.002 c 145.652 166.334 143.352 165.307
 140.805 165.307 c 138.262 165.307 135.961 166.334 134.293 168.002 c 132.625
 169.67 131.598 171.971 131.598 174.514 c 131.598 177.061 132.625 179.362
 134.293 181.03 c 135.961 182.694 138.262 183.725 140.805 183.725 c 143.352
 183.725 145.652 182.694 147.32 181.03 c h
195.363 195.565 m 197.496 199.401 202.336 200.78 206.176 198.647 c 210.012
 196.514 211.391 191.674 209.258 187.838 c 162.414 103.862 l 160.281 100.026
 155.441 98.647 151.605 100.78 c 147.77 102.913 146.387 107.752 148.523 
111.592 c h
216.977 150.073 m 223.922 150.073 230.211 147.256 234.766 142.702 c 239.32
 138.151 242.133 131.858 242.133 124.913 c 242.133 117.967 239.32 111.674
 234.766 107.123 c 230.211 102.569 223.918 99.748 216.977 99.748 c 210.027
 99.748 203.738 102.569 199.18 107.123 c 194.629 111.674 191.812 117.967
 191.812 124.913 c 191.812 131.858 194.629 138.151 199.18 142.702 c 203.738
 147.256 210.023 150.073 216.977 150.073 c h
223.488 131.424 m 225.152 129.76 226.184 127.455 226.184 124.913 c 226.184
 122.37 225.152 120.065 223.488 118.401 c 221.82 116.733 219.52 115.702 
216.973 115.702 c 214.43 115.702 212.125 116.733 210.461 118.401 c 208.793
 120.065 207.762 122.37 207.762 124.913 c 207.762 127.455 208.793 129.76
 210.461 131.424 c 212.125 133.092 214.43 134.123 216.973 134.123 c 219.52
 134.123 221.82 133.092 223.488 131.424 c h
223.488 131.424 m f*
Q Q
showpage
%%Trailer
end restore
%%EOF
