%!PS-Adobe-3.0 EPSF-3.0
%%Creator: cairo 1.14.2 (http://cairographics.org)
%%CreationDate: Wed Oct  3 10:33:22 2018
%%Pages: 1
%%DocumentData: Clean7Bit
%%LanguageLevel: 2
%%BoundingBox: 0 6 410 403
%%EndComments
%%BeginProlog
save
50 dict begin
/q { gsave } bind def
/Q { grestore } bind def
/cm { 6 array astore concat } bind def
/w { setlinewidth } bind def
/J { setlinecap } bind def
/j { setlinejoin } bind def
/M { setmiterlimit } bind def
/d { setdash } bind def
/m { moveto } bind def
/l { lineto } bind def
/c { curveto } bind def
/h { closepath } bind def
/re { exch dup neg 3 1 roll 5 3 roll moveto 0 rlineto
      0 exch rlineto 0 rlineto closepath } bind def
/S { stroke } bind def
/f { fill } bind def
/f* { eofill } bind def
/n { newpath } bind def
/W { clip } bind def
/W* { eoclip } bind def
/BT { } bind def
/ET { } bind def
/pdfmark where { pop globaldict /?pdfmark /exec load put }
    { globaldict begin /?pdfmark /pop load def /pdfmark
    /cleartomark load def end } ifelse
/BDC { mark 3 1 roll /BDC pdfmark } bind def
/EMC { mark /EMC pdfmark } bind def
/cairo_store_point { /cairo_point_y exch def /cairo_point_x exch def } def
/Tj { show currentpoint cairo_store_point } bind def
/TJ {
  {
    dup
    type /stringtype eq
    { show } { -0.001 mul 0 cairo_font_matrix dtransform rmoveto } ifelse
  } forall
  currentpoint cairo_store_point
} bind def
/cairo_selectfont { cairo_font_matrix aload pop pop pop 0 0 6 array astore
    cairo_font exch selectfont cairo_point_x cairo_point_y moveto } bind def
/Tf { pop /cairo_font exch def /cairo_font_matrix where
      { pop cairo_selectfont } if } bind def
/Td { matrix translate cairo_font_matrix matrix concatmatrix dup
      /cairo_font_matrix exch def dup 4 get exch 5 get cairo_store_point
      /cairo_font where { pop cairo_selectfont } if } bind def
/Tm { 2 copy 8 2 roll 6 array astore /cairo_font_matrix exch def
      cairo_store_point /cairo_font where { pop cairo_selectfont } if } bind def
/g { setgray } bind def
/rg { setrgbcolor } bind def
/d1 { setcachedevice } bind def
%%EndProlog
%%BeginSetup
%%EndSetup
%%Page: 1 1
%%BeginPageSetup
%%PageBoundingBox: 0 6 410 403
%%EndPageSetup
q 0 6 410 397 rectclip q
0 g
194.734 52.659 m 190.312 52.659 186.727 56.248 186.727 60.67 c 186.727 
65.092 190.312 68.678 194.734 68.678 c 214.867 68.678 l 219.289 68.678 222.875
 65.092 222.875 60.67 c 222.875 56.248 219.289 52.659 214.867 52.659 c h
108.922 402.401 m 98.543 402.401 l 92.391 402.401 86.805 399.889 82.758
 395.842 c 78.711 391.799 76.203 386.213 76.203 380.061 c 76.203 357.666
 l 76.203 351.514 78.711 345.928 82.758 341.885 c 86.805 337.838 92.391 
335.327 98.543 335.327 c 131.164 335.327 l 131.164 315.03 l 74.051 315.03
 l 65.496 315.03 58.223 311.635 52.738 306.151 c 47.152 300.565 43.523 292.795
 42.465 284.354 c 21.02 113.643 l 16.133 112.354 11.754 109.776 8.277 106.295
 c 3.168 101.19 0 94.139 0 86.377 c 0 34.959 l 0 27.198 3.168 20.147 8.277
 15.038 c 13.383 9.932 20.434 6.764 28.195 6.764 c 381.402 6.764 l 389.164
 6.764 396.215 9.932 401.324 15.038 c 406.43 20.147 409.602 27.198 409.602
 34.959 c 409.602 86.377 l 409.602 94.139 406.43 101.19 401.324 106.295 
c 397.848 109.776 393.469 112.354 388.582 113.643 c 367.133 284.354 l 366.074
 292.795 362.445 300.565 356.863 306.151 c 351.383 311.635 344.102 315.03
 335.555 315.03 c 147.18 315.03 l 147.18 335.327 l 179.801 335.327 l 185.953
 335.327 191.539 337.838 195.586 341.885 c 199.633 345.928 202.141 351.514
 202.141 357.666 c 202.141 380.061 l 202.141 386.213 199.633 391.799 195.586
 395.842 c 191.539 399.889 185.953 402.401 179.801 402.401 c 171.211 402.401
 l 166.785 402.401 163.199 398.815 163.199 394.389 c 163.199 389.967 166.785
 386.381 171.211 386.381 c 179.801 386.381 l 181.531 386.381 183.109 385.67
 184.258 384.518 c 185.41 383.37 186.121 381.791 186.121 380.061 c 186.121
 357.666 l 186.121 355.936 185.41 354.358 184.258 353.205 c 183.109 352.057
 181.531 351.342 179.801 351.342 c 98.543 351.342 l 96.812 351.342 95.234
 352.057 94.086 353.205 c 92.934 354.358 92.223 355.936 92.223 357.666 c
 92.223 380.061 l 92.223 381.791 92.934 383.37 94.086 384.518 c 95.234 385.67
 96.812 386.385 98.543 386.385 c 108.922 386.385 l 113.344 386.385 116.93
 389.967 116.93 394.389 c 116.93 398.815 113.344 402.401 108.922 402.401
 c h
139.172 402.401 m 143.594 402.401 147.18 398.815 147.18 394.389 c 147.18
 389.967 143.598 386.381 139.172 386.381 c 134.75 386.381 131.164 389.967
 131.164 394.389 c 131.164 398.815 134.75 402.401 139.172 402.401 c h
172.762 114.577 m 177.188 114.577 180.773 110.991 180.773 106.565 c 180.773
 102.143 177.188 98.557 172.762 98.557 c 28.195 98.557 l 24.855 98.557 21.812
 97.186 19.602 94.971 c 17.391 92.764 16.02 89.717 16.02 86.377 c 16.02 
34.959 l 16.02 31.62 17.391 28.577 19.602 26.362 c 21.812 24.155 24.855 
22.78 28.195 22.78 c 381.402 22.78 l 384.742 22.78 387.789 24.155 390 26.362
 c 392.211 28.577 393.582 31.62 393.582 34.959 c 393.582 86.377 l 393.582
 89.717 392.211 92.764 390 94.971 c 387.789 97.186 384.742 98.557 381.402
 98.557 c 236.836 98.557 l 232.414 98.557 228.828 102.143 228.828 106.565
 c 228.828 110.991 232.414 114.577 236.836 114.577 c 372.328 114.577 l 351.242
 282.413 l 350.625 287.327 348.613 291.752 345.539 294.827 c 342.953 297.413
 339.543 299.014 335.555 299.014 c 74.051 299.014 l 70.059 299.014 66.648
 297.413 64.062 294.827 c 60.992 291.752 58.977 287.327 58.355 282.413 c
 37.273 114.577 l h
204.801 114.577 m 209.227 114.577 212.809 110.991 212.809 106.565 c 212.809
 102.143 209.227 98.557 204.801 98.557 c 200.379 98.557 196.789 102.143 
196.789 106.565 c 196.789 110.987 200.379 114.577 204.801 114.577 c h
87.742 200.233 m 83.32 200.233 79.73 203.823 79.73 208.245 c 79.73 212.67
 83.32 216.252 87.742 216.252 c 174.695 216.252 l 179.121 216.252 182.707
 212.67 182.707 208.245 c 182.707 203.823 179.121 200.233 174.695 200.233
 c h
223.488 240.194 m 219.066 240.194 215.477 243.78 215.477 248.202 c 215.477
 252.627 219.066 256.213 223.488 256.213 c 238.891 256.213 l 243.316 256.213
 246.898 252.627 246.898 248.202 c 246.898 243.78 243.316 240.194 238.891
 240.194 c h
223.488 160.276 m 219.066 160.276 215.477 163.862 215.477 168.284 c 215.477
 172.705 219.066 176.295 223.488 176.295 c 238.891 176.295 l 243.316 176.295
 246.898 172.705 246.898 168.284 c 246.898 163.862 243.316 160.276 238.891
 160.276 c h
306.457 160.276 m 302.031 160.276 298.445 163.862 298.445 168.284 c 298.445
 172.705 302.031 176.295 306.457 176.295 c 321.859 176.295 l 326.281 176.295
 329.867 172.705 329.867 168.284 c 329.867 163.862 326.281 160.276 321.859
 160.276 c h
264.973 160.276 m 260.547 160.276 256.961 163.862 256.961 168.284 c 256.961
 172.705 260.547 176.295 264.973 176.295 c 280.375 176.295 l 284.797 176.295
 288.383 172.705 288.383 168.284 c 288.383 163.862 284.797 160.276 280.375
 160.276 c h
223.488 200.233 m 219.066 200.233 215.477 203.823 215.477 208.245 c 215.477
 212.67 219.066 216.252 223.488 216.252 c 238.891 216.252 l 243.316 216.252
 246.898 212.67 246.898 208.245 c 246.898 203.823 243.316 200.233 238.891
 200.233 c h
306.457 200.233 m 302.031 200.233 298.445 203.823 298.445 208.245 c 298.445
 212.67 302.031 216.252 306.457 216.252 c 321.859 216.252 l 326.281 216.252
 329.867 212.67 329.867 208.245 c 329.867 203.823 326.281 200.233 321.859
 200.233 c h
264.973 200.233 m 260.547 200.233 256.961 203.823 256.961 208.245 c 256.961
 212.67 260.547 216.252 264.973 216.252 c 280.375 216.252 l 284.797 216.252
 288.383 212.67 288.383 208.245 c 288.383 203.823 284.797 200.233 280.375
 200.233 c h
306.457 240.194 m 302.031 240.194 298.445 243.78 298.445 248.202 c 298.445
 252.627 302.031 256.213 306.457 256.213 c 321.859 256.213 l 326.281 256.213
 329.867 252.627 329.867 248.202 c 329.867 243.78 326.281 240.194 321.859
 240.194 c h
264.973 240.194 m 260.547 240.194 256.961 243.78 256.961 248.202 c 256.961
 252.627 260.547 256.213 264.973 256.213 c 280.375 256.213 l 284.797 256.213
 288.383 252.627 288.383 248.202 c 288.383 243.78 284.797 240.194 280.375
 240.194 c h
264.973 240.194 m f*
Q Q
showpage
%%Trailer
end restore
%%EOF
