%!PS-Adobe-3.0 EPSF-3.0
%%Creator: cairo 1.14.2 (http://cairographics.org)
%%CreationDate: Wed Oct  3 10:33:22 2018
%%Pages: 1
%%DocumentData: Clean7Bit
%%LanguageLevel: 2
%%BoundingBox: 0 50 409 357
%%EndComments
%%BeginProlog
save
50 dict begin
/q { gsave } bind def
/Q { grestore } bind def
/cm { 6 array astore concat } bind def
/w { setlinewidth } bind def
/J { setlinecap } bind def
/j { setlinejoin } bind def
/M { setmiterlimit } bind def
/d { setdash } bind def
/m { moveto } bind def
/l { lineto } bind def
/c { curveto } bind def
/h { closepath } bind def
/re { exch dup neg 3 1 roll 5 3 roll moveto 0 rlineto
      0 exch rlineto 0 rlineto closepath } bind def
/S { stroke } bind def
/f { fill } bind def
/f* { eofill } bind def
/n { newpath } bind def
/W { clip } bind def
/W* { eoclip } bind def
/BT { } bind def
/ET { } bind def
/pdfmark where { pop globaldict /?pdfmark /exec load put }
    { globaldict begin /?pdfmark /pop load def /pdfmark
    /cleartomark load def end } ifelse
/BDC { mark 3 1 roll /BDC pdfmark } bind def
/EMC { mark /EMC pdfmark } bind def
/cairo_store_point { /cairo_point_y exch def /cairo_point_x exch def } def
/Tj { show currentpoint cairo_store_point } bind def
/TJ {
  {
    dup
    type /stringtype eq
    { show } { -0.001 mul 0 cairo_font_matrix dtransform rmoveto } ifelse
  } forall
  currentpoint cairo_store_point
} bind def
/cairo_selectfont { cairo_font_matrix aload pop pop pop 0 0 6 array astore
    cairo_font exch selectfont cairo_point_x cairo_point_y moveto } bind def
/Tf { pop /cairo_font exch def /cairo_font_matrix where
      { pop cairo_selectfont } if } bind def
/Td { matrix translate cairo_font_matrix matrix concatmatrix dup
      /cairo_font_matrix exch def dup 4 get exch 5 get cairo_store_point
      /cairo_font where { pop cairo_selectfont } if } bind def
/Tm { 2 copy 8 2 roll 6 array astore /cairo_font_matrix exch def
      cairo_store_point /cairo_font where { pop cairo_selectfont } if } bind def
/g { setgray } bind def
/rg { setrgbcolor } bind def
/d1 { setcachedevice } bind def
%%EndProlog
%%BeginSetup
%%EndSetup
%%Page: 1 1
%%BeginPageSetup
%%PageBoundingBox: 0 50 409 357
%%EndPageSetup
q 0 50 409 307 rectclip q
0 g
40.164 310.448 m 35.734 310.448 32.141 314.038 32.141 318.468 c 32.141 
322.902 35.734 326.495 40.164 326.495 c 58.512 326.495 l 62.945 326.495 
66.535 322.902 66.535 318.468 c 66.535 314.038 62.945 310.448 58.512 310.448
 c h
239.395 51.3 m 239.395 51.296 l 372.258 51.296 l 382.316 51.296 391.453
 55.405 398.07 62.027 c 404.691 68.644 408.801 77.78 408.801 87.839 c 408.801
 319.859 l 408.801 329.917 404.691 339.054 398.07 345.671 c 391.453 352.292
 382.316 356.402 372.258 356.402 c 35.742 356.402 l 25.684 356.402 16.547
 352.292 9.93 345.671 c 3.309 339.054 -0.801 329.917 -0.801 319.859 c -0.801
 87.839 l -0.801 77.784 3.309 68.648 9.93 62.027 c 16.547 55.405 25.684 
51.296 35.742 51.296 c 175.207 51.296 l 175.207 51.3 l 179.637 51.3 183.227
 54.89 183.227 59.323 c 183.227 63.753 179.637 67.343 175.207 67.343 c 35.742
 67.343 l 30.117 67.343 24.992 69.652 21.273 73.37 c 17.555 77.089 15.246
 82.214 15.246 87.839 c 15.246 280.542 l 392.754 280.542 l 392.754 87.839
 l 392.754 82.214 390.445 77.089 386.727 73.37 c 383.008 69.652 377.887 
67.347 372.258 67.347 c 239.395 67.347 l 234.961 67.347 231.367 63.753 231.367
 59.323 c 231.367 54.89 234.961 51.3 239.395 51.3 c h
207.301 67.347 m 211.73 67.347 215.32 63.753 215.32 59.323 c 215.32 54.89
 211.73 51.3 207.301 51.3 c 202.867 51.3 199.273 54.89 199.273 59.323 c 
199.273 63.753 202.867 67.347 207.301 67.347 c h
215.32 130.495 m 215.32 126.066 211.73 122.476 207.301 122.476 c 202.867
 122.476 199.273 126.066 199.273 130.495 c 199.273 162.195 l 199.273 166.624
 202.867 170.218 207.301 170.218 c 211.73 170.218 215.32 166.624 215.32 
162.195 c h
177.555 205.902 m 177.555 236.968 l 177.555 240.132 178.852 243.011 180.945
 245.105 c 183.039 247.198 185.922 248.499 189.086 248.499 c 225.512 248.499
 l 228.676 248.499 231.559 247.198 233.652 245.105 c 235.746 243.011 237.047
 240.132 237.047 236.968 c 237.047 205.902 l h
253.094 204.464 m 256.266 203.292 259.117 201.441 261.465 199.089 c 265.668
 194.886 268.277 189.081 268.277 182.695 c 268.277 109.999 l 268.277 103.609
 265.668 97.808 261.465 93.605 c 257.262 89.402 251.461 86.792 245.07 86.792
 c 169.527 86.792 l 163.141 86.792 157.336 89.402 153.133 93.605 c 148.93
 97.808 146.32 103.609 146.32 109.999 c 146.32 182.695 l 146.32 189.081 
148.93 194.886 153.133 199.089 c 155.48 201.441 158.332 203.292 161.508 
204.464 c 161.508 236.968 l 161.508 244.558 164.605 251.46 169.602 256.452
 c 174.598 261.448 181.492 264.546 189.086 264.546 c 225.512 264.546 l 233.102
 264.546 240.004 261.448 244.996 256.452 c 249.992 251.456 253.09 244.558
 253.09 236.964 c 253.09 204.464 l h
245.07 189.855 m 247.031 189.855 248.82 189.042 250.117 187.745 c 251.422
 186.445 252.227 184.655 252.227 182.695 c 252.227 109.999 l 252.227 108.042
 251.422 106.249 250.117 104.948 c 248.82 103.648 247.031 102.839 245.07
 102.839 c 169.527 102.839 l 167.57 102.839 165.777 103.648 164.477 104.948
 c 163.176 106.249 162.367 108.038 162.367 109.999 c 162.367 182.695 l 162.367
 184.655 163.176 186.445 164.477 187.745 c 165.777 189.042 167.57 189.855
 169.527 189.855 c h
372.258 340.355 m 35.742 340.355 l 30.117 340.355 24.992 338.042 21.273
 334.323 c 17.555 330.605 15.246 325.484 15.246 319.855 c 15.246 296.589
 l 392.754 296.589 l 392.754 319.855 l 392.754 325.484 390.445 330.605 386.727
 334.323 c 383.008 338.042 377.883 340.355 372.258 340.355 c h
134.633 310.448 m 130.203 310.448 126.609 314.038 126.609 318.468 c 126.609
 322.902 130.203 326.495 134.633 326.495 c 152.98 326.495 l 157.414 326.495
 161.004 322.902 161.004 318.468 c 161.004 314.038 157.414 310.448 152.98
 310.448 c h
87.398 310.448 m 82.969 310.448 79.375 314.038 79.375 318.468 c 79.375 
322.902 82.969 326.495 87.398 326.495 c 105.746 326.495 l 110.18 326.495
 113.773 322.902 113.773 318.468 c 113.773 314.038 110.18 310.448 105.746
 310.448 c h
87.398 310.448 m f*
Q Q
showpage
%%Trailer
end restore
%%EOF
