%!PS-Adobe-3.0 EPSF-3.0
%%Creator: cairo 1.14.2 (http://cairographics.org)
%%CreationDate: Wed Oct  3 10:33:22 2018
%%Pages: 1
%%DocumentData: Clean7Bit
%%LanguageLevel: 2
%%BoundingBox: 49 -1 360 410
%%EndComments
%%BeginProlog
save
50 dict begin
/q { gsave } bind def
/Q { grestore } bind def
/cm { 6 array astore concat } bind def
/w { setlinewidth } bind def
/J { setlinecap } bind def
/j { setlinejoin } bind def
/M { setmiterlimit } bind def
/d { setdash } bind def
/m { moveto } bind def
/l { lineto } bind def
/c { curveto } bind def
/h { closepath } bind def
/re { exch dup neg 3 1 roll 5 3 roll moveto 0 rlineto
      0 exch rlineto 0 rlineto closepath } bind def
/S { stroke } bind def
/f { fill } bind def
/f* { eofill } bind def
/n { newpath } bind def
/W { clip } bind def
/W* { eoclip } bind def
/BT { } bind def
/ET { } bind def
/pdfmark where { pop globaldict /?pdfmark /exec load put }
    { globaldict begin /?pdfmark /pop load def /pdfmark
    /cleartomark load def end } ifelse
/BDC { mark 3 1 roll /BDC pdfmark } bind def
/EMC { mark /EMC pdfmark } bind def
/cairo_store_point { /cairo_point_y exch def /cairo_point_x exch def } def
/Tj { show currentpoint cairo_store_point } bind def
/TJ {
  {
    dup
    type /stringtype eq
    { show } { -0.001 mul 0 cairo_font_matrix dtransform rmoveto } ifelse
  } forall
  currentpoint cairo_store_point
} bind def
/cairo_selectfont { cairo_font_matrix aload pop pop pop 0 0 6 array astore
    cairo_font exch selectfont cairo_point_x cairo_point_y moveto } bind def
/Tf { pop /cairo_font exch def /cairo_font_matrix where
      { pop cairo_selectfont } if } bind def
/Td { matrix translate cairo_font_matrix matrix concatmatrix dup
      /cairo_font_matrix exch def dup 4 get exch 5 get cairo_store_point
      /cairo_font where { pop cairo_selectfont } if } bind def
/Tm { 2 copy 8 2 roll 6 array astore /cairo_font_matrix exch def
      cairo_store_point /cairo_font where { pop cairo_selectfont } if } bind def
/g { setgray } bind def
/rg { setrgbcolor } bind def
/d1 { setcachedevice } bind def
%%EndProlog
%%BeginSetup
%%EndSetup
%%Page: 1 1
%%BeginPageSetup
%%PageBoundingBox: 49 -1 360 410
%%EndPageSetup
q 49 -1 311 411 rectclip q
0 g
140.398 407.195 m 141.852 408.679 143.879 409.601 146.117 409.601 c 323.258
 409.601 l 333.227 409.601 342.277 405.53 348.836 398.972 c 355.395 392.413
 359.465 383.359 359.465 373.398 c 359.465 356.573 l 359.465 352.148 355.879
 348.562 351.453 348.562 c 347.027 348.562 343.441 352.148 343.441 356.573
 c 343.441 373.398 l 343.441 378.937 341.168 383.984 337.508 387.64 c 333.848
 391.304 328.805 393.577 323.262 393.577 c 154.133 393.577 l 154.133 313.081
 l 154.133 308.655 150.543 305.07 146.117 305.07 c 65.625 305.07 l 65.625
 117.124 l 65.625 112.698 62.039 109.109 57.613 109.109 c 53.188 109.109
 49.602 112.698 49.602 117.124 c 49.602 313.081 l 49.602 314.421 49.93 315.687
 50.512 316.796 c 50.906 317.542 51.406 318.218 52.008 318.804 c h
351.453 300.488 m 347.027 300.488 343.441 296.905 343.441 292.48 c 343.441
 36.202 l 343.441 30.663 341.168 25.62 337.508 21.96 c 333.844 18.296 328.805
 16.027 323.258 16.027 c 85.805 16.027 l 80.262 16.027 75.219 18.296 71.555
 21.96 c 67.898 25.62 65.625 30.663 65.625 36.202 c 65.625 53.03 l 65.625
 57.452 62.039 61.042 57.613 61.042 c 53.188 61.042 49.602 57.452 49.602
 53.03 c 49.602 36.202 l 49.602 26.238 53.672 17.187 60.227 10.628 c 66.789
 4.07 75.84 -0.001 85.805 -0.001 c 323.262 -0.001 l 333.227 -0.001 342.277
 4.07 348.836 10.628 c 355.395 17.187 359.465 26.238 359.465 36.202 c 359.465
 292.48 l 359.461 296.905 355.879 300.488 351.453 300.488 c h
351.453 332.538 m 347.027 332.538 343.441 328.952 343.441 324.527 c 343.441
 320.101 347.027 316.515 351.453 316.515 c 355.879 316.515 359.461 320.101
 359.461 324.527 c 359.461 328.952 355.879 332.538 351.453 332.538 c h
57.613 93.089 m 62.039 93.089 65.625 89.499 65.625 85.077 c 65.625 80.652
 62.039 77.062 57.613 77.062 c 53.188 77.062 49.602 80.652 49.602 85.077
 c 49.602 89.499 53.188 93.089 57.613 93.089 c h
183.211 68.859 m 178.789 68.859 175.199 72.445 175.199 76.87 c 175.199 
81.296 178.789 84.882 183.211 84.882 c 311.883 84.882 l 316.305 84.882 319.898
 81.296 319.898 76.87 c 319.898 72.445 316.305 68.859 311.883 68.859 c h
183.211 148.605 m 311.883 148.605 l 316.305 148.605 319.898 152.191 319.898
 156.613 c 319.898 161.038 316.305 164.624 311.883 164.624 c 183.211 164.624
 l 178.789 164.624 175.199 161.038 175.199 156.613 c 175.199 152.191 178.789
 148.605 183.211 148.605 c h
183.211 228.347 m 311.883 228.347 l 316.305 228.347 319.898 231.937 319.898
 236.359 c 319.898 240.784 316.305 244.374 311.883 244.374 c 183.211 244.374
 l 178.789 244.374 175.199 240.784 175.199 236.359 c 175.199 231.937 178.789
 228.347 183.211 228.347 c h
85.117 78.452 m 105.66 57.913 l 108.789 54.788 113.859 54.788 116.988 57.913
 c 158.066 98.995 l 161.195 102.124 161.195 107.195 158.066 110.323 c 154.938
 113.452 149.867 113.452 146.738 110.323 c 111.32 74.905 l 96.445 89.78 
l 93.32 92.909 88.246 92.909 85.117 89.78 c 81.992 86.655 81.992 81.581 
85.117 78.452 c h
85.117 158.202 m 105.66 137.659 l 108.789 134.53 113.859 134.53 116.988
 137.659 c 158.066 178.738 l 161.195 181.866 161.195 186.937 158.066 190.07
 c 154.938 193.198 149.867 193.198 146.738 190.07 c 111.32 154.655 l 96.445
 169.53 l 93.32 172.655 88.246 172.655 85.117 169.53 c 81.992 166.402 81.992
 161.327 85.117 158.202 c h
85.117 237.948 m 105.66 217.405 l 108.789 214.28 113.859 214.28 116.988
 217.405 c 158.066 258.484 l 161.195 261.613 161.195 266.687 158.066 269.812
 c 154.938 272.945 149.867 272.945 146.738 269.812 c 111.32 234.402 l 96.445
 249.277 l 93.32 252.405 88.246 252.405 85.117 249.277 c 81.992 246.148 
81.992 241.077 85.117 237.948 c h
76.953 321.093 m 138.105 321.093 l 138.105 382.249 l h
76.953 321.093 m f*
Q Q
showpage
%%Trailer
end restore
%%EOF
