%!PS-Adobe-3.0 EPSF-3.0
%%Creator: cairo 1.14.2 (http://cairographics.org)
%%CreationDate: Wed Oct  3 10:33:22 2018
%%Pages: 1
%%DocumentData: Clean7Bit
%%LanguageLevel: 2
%%BoundingBox: 0 33 410 375
%%EndComments
%%BeginProlog
save
50 dict begin
/q { gsave } bind def
/Q { grestore } bind def
/cm { 6 array astore concat } bind def
/w { setlinewidth } bind def
/J { setlinecap } bind def
/j { setlinejoin } bind def
/M { setmiterlimit } bind def
/d { setdash } bind def
/m { moveto } bind def
/l { lineto } bind def
/c { curveto } bind def
/h { closepath } bind def
/re { exch dup neg 3 1 roll 5 3 roll moveto 0 rlineto
      0 exch rlineto 0 rlineto closepath } bind def
/S { stroke } bind def
/f { fill } bind def
/f* { eofill } bind def
/n { newpath } bind def
/W { clip } bind def
/W* { eoclip } bind def
/BT { } bind def
/ET { } bind def
/pdfmark where { pop globaldict /?pdfmark /exec load put }
    { globaldict begin /?pdfmark /pop load def /pdfmark
    /cleartomark load def end } ifelse
/BDC { mark 3 1 roll /BDC pdfmark } bind def
/EMC { mark /EMC pdfmark } bind def
/cairo_store_point { /cairo_point_y exch def /cairo_point_x exch def } def
/Tj { show currentpoint cairo_store_point } bind def
/TJ {
  {
    dup
    type /stringtype eq
    { show } { -0.001 mul 0 cairo_font_matrix dtransform rmoveto } ifelse
  } forall
  currentpoint cairo_store_point
} bind def
/cairo_selectfont { cairo_font_matrix aload pop pop pop 0 0 6 array astore
    cairo_font exch selectfont cairo_point_x cairo_point_y moveto } bind def
/Tf { pop /cairo_font exch def /cairo_font_matrix where
      { pop cairo_selectfont } if } bind def
/Td { matrix translate cairo_font_matrix matrix concatmatrix dup
      /cairo_font_matrix exch def dup 4 get exch 5 get cairo_store_point
      /cairo_font where { pop cairo_selectfont } if } bind def
/Tm { 2 copy 8 2 roll 6 array astore /cairo_font_matrix exch def
      cairo_store_point /cairo_font where { pop cairo_selectfont } if } bind def
/g { setgray } bind def
/rg { setrgbcolor } bind def
/d1 { setcachedevice } bind def
%%EndProlog
%%BeginSetup
%%EndSetup
%%Page: 1 1
%%BeginPageSetup
%%PageBoundingBox: 0 33 410 375
%%EndPageSetup
q 0 33 410 342 rectclip q
0 g
204.801 161.518 m 222.336 161.518 238.211 154.409 249.699 142.92 c 259.414
 133.202 265.992 120.358 267.801 106.03 c 354.031 106.03 l 364.898 106.03
 374.785 110.479 381.957 117.655 c 389.129 124.827 393.582 134.709 393.582
 145.577 c 393.582 155.893 388.895 163.413 381.773 169.358 c 373.773 176.034
 362.539 181.065 351.023 185.725 c 204.801 244.877 l 139.246 218.358 l 138.273
 217.936 137.199 217.705 136.07 217.705 c 131.652 217.705 128.07 221.288
 128.07 225.705 c 128.07 229.127 130.223 232.045 133.242 233.19 c 201.797
 260.92 l 202.023 261.014 202.254 261.096 202.48 261.166 c 213.305 265.174
 226.352 273.858 235.898 285.186 c 243.258 293.924 248.402 304.166 248.402
 314.78 c 248.402 326.819 243.523 337.721 235.633 345.612 c 227.742 353.498
 216.84 358.381 204.801 358.381 c 192.758 358.381 181.855 353.498 173.969
 345.612 c 166.078 337.721 161.195 326.819 161.195 314.78 c 161.195 310.358
 157.613 306.768 153.188 306.768 c 148.762 306.768 145.18 310.354 145.18
 314.78 c 145.18 331.241 151.852 346.147 162.641 356.936 c 173.43 367.725
 188.336 374.401 204.801 374.401 c 221.262 374.401 236.168 367.725 246.961
 356.936 c 257.746 346.147 264.422 331.245 264.422 314.78 c 264.422 300.041
 257.707 286.33 248.098 274.92 c 241.18 266.717 232.695 259.659 224.172 
254.299 c 357.035 200.553 l 369.77 195.405 382.316 189.733 392.035 181.623
 c 402.629 172.78 409.602 161.42 409.602 145.577 c 409.602 130.291 403.352
 116.393 393.281 106.327 c 383.215 96.26 369.32 90.01 354.031 90.01 c 267.801
 90.01 l 265.992 75.678 259.414 62.83 249.699 53.12 c 238.211 41.627 222.336
 34.518 204.801 34.518 c 187.266 34.518 171.391 41.627 159.898 53.12 c 150.188
 62.834 143.605 75.678 141.801 90.01 c 55.57 90.01 l 40.281 90.01 26.387
 96.26 16.32 106.327 c 6.25 116.393 0 130.288 0 145.577 c 0 162.077 7.734
 173.729 18.684 182.534 c 28.758 190.635 41.254 195.975 52.566 200.553 c
 74.539 209.44 l 75.512 209.862 76.586 210.096 77.715 210.096 c 82.133 210.096
 85.715 206.514 85.715 202.096 c 85.715 198.803 83.727 195.975 80.883 194.748
 c 80.867 194.741 l 80.773 194.702 80.676 194.659 80.574 194.623 c 58.574
 185.721 l 48.293 181.561 37.004 176.76 28.695 170.08 c 21.27 164.108 16.02
 156.342 16.02 145.577 c 16.02 134.709 20.473 124.823 27.645 117.651 c 34.816
 110.479 44.703 106.026 55.57 106.026 c 141.801 106.026 l 143.605 120.358
 150.188 133.202 159.898 142.916 c 171.391 154.409 187.266 161.518 204.801
 161.518 c h
106.684 221.815 m 102.266 221.815 98.684 218.233 98.684 213.815 c 98.684
 209.397 102.266 205.815 106.684 205.815 c 111.102 205.815 114.684 209.397
 114.684 213.815 c 114.684 218.233 111.102 221.815 106.684 221.815 c h
196.789 121.26 m 196.789 106.03 l 181.559 106.03 l 177.137 106.03 173.551
 102.44 173.551 98.018 c 173.551 93.592 177.133 90.01 181.559 90.01 c 196.789
 90.01 l 196.789 74.78 l 196.789 70.354 200.375 66.768 204.801 66.768 c 
209.223 66.768 212.809 70.354 212.809 74.78 c 212.809 90.01 l 228.039 90.01
 l 232.461 90.01 236.051 93.592 236.051 98.018 c 236.051 102.44 232.461 
106.03 228.039 106.03 c 212.809 106.03 l 212.809 121.26 l 212.809 125.682
 209.227 129.268 204.801 129.268 c 200.379 129.268 196.789 125.682 196.789
 121.26 c h
238.375 131.592 m 229.785 140.186 217.914 145.498 204.801 145.498 c 191.688
 145.498 179.816 140.186 171.227 131.592 c 152.789 113.155 152.789 82.881
 171.227 64.444 c 179.816 55.854 191.688 50.538 204.801 50.538 c 217.914
 50.538 229.781 55.854 238.375 64.444 c 256.812 82.881 256.812 113.155 238.375
 131.592 c h
238.375 131.592 m f*
Q Q
showpage
%%Trailer
end restore
%%EOF
