%!PS-Adobe-3.0 EPSF-3.0
%%Creator: cairo 1.14.2 (http://cairographics.org)
%%CreationDate: Wed Oct  3 10:33:22 2018
%%Pages: 1
%%DocumentData: Clean7Bit
%%LanguageLevel: 2
%%BoundingBox: 3 -1 408 410
%%EndComments
%%BeginProlog
save
50 dict begin
/q { gsave } bind def
/Q { grestore } bind def
/cm { 6 array astore concat } bind def
/w { setlinewidth } bind def
/J { setlinecap } bind def
/j { setlinejoin } bind def
/M { setmiterlimit } bind def
/d { setdash } bind def
/m { moveto } bind def
/l { lineto } bind def
/c { curveto } bind def
/h { closepath } bind def
/re { exch dup neg 3 1 roll 5 3 roll moveto 0 rlineto
      0 exch rlineto 0 rlineto closepath } bind def
/S { stroke } bind def
/f { fill } bind def
/f* { eofill } bind def
/n { newpath } bind def
/W { clip } bind def
/W* { eoclip } bind def
/BT { } bind def
/ET { } bind def
/pdfmark where { pop globaldict /?pdfmark /exec load put }
    { globaldict begin /?pdfmark /pop load def /pdfmark
    /cleartomark load def end } ifelse
/BDC { mark 3 1 roll /BDC pdfmark } bind def
/EMC { mark /EMC pdfmark } bind def
/cairo_store_point { /cairo_point_y exch def /cairo_point_x exch def } def
/Tj { show currentpoint cairo_store_point } bind def
/TJ {
  {
    dup
    type /stringtype eq
    { show } { -0.001 mul 0 cairo_font_matrix dtransform rmoveto } ifelse
  } forall
  currentpoint cairo_store_point
} bind def
/cairo_selectfont { cairo_font_matrix aload pop pop pop 0 0 6 array astore
    cairo_font exch selectfont cairo_point_x cairo_point_y moveto } bind def
/Tf { pop /cairo_font exch def /cairo_font_matrix where
      { pop cairo_selectfont } if } bind def
/Td { matrix translate cairo_font_matrix matrix concatmatrix dup
      /cairo_font_matrix exch def dup 4 get exch 5 get cairo_store_point
      /cairo_font where { pop cairo_selectfont } if } bind def
/Tm { 2 copy 8 2 roll 6 array astore /cairo_font_matrix exch def
      cairo_store_point /cairo_font where { pop cairo_selectfont } if } bind def
/g { setgray } bind def
/rg { setrgbcolor } bind def
/d1 { setcachedevice } bind def
%%EndProlog
%%BeginSetup
%%EndSetup
%%Page: 1 1
%%BeginPageSetup
%%PageBoundingBox: 3 -1 408 410
%%EndPageSetup
q 3 -1 405 411 rectclip q
0 g
205.352 409.6 m 214.973 409.6 221.609 402.014 228.184 394.502 c 232.078
 390.053 235.938 385.643 238.301 385.217 c 240.719 384.776 245.914 387.659
 251.074 390.53 c 259.617 395.276 268.109 399.991 276.805 396.752 c 285.602
 393.479 288.895 384.26 292.176 375.073 c 294.117 369.635 296.055 364.217
 297.902 363.131 c 299.758 362.045 305.453 363.045 311.141 364.038 c 320.691
 365.709 330.227 367.377 337.309 361.405 c 344.352 355.463 344.309 345.76
 344.266 336.057 c 344.242 330.327 344.211 324.6 345.598 322.959 c 346.98
 321.315 352.625 320.366 358.273 319.416 c 367.855 317.799 377.457 316.186
 382.152 308.17 c 386.836 300.17 383.605 291.049 380.363 281.897 c 378.414
 276.405 376.461 270.897 377.25 268.78 c 378.039 266.67 383.035 263.764 
388.055 260.842 c 396.57 255.893 405.133 250.916 406.828 241.569 c 408.496
 232.381 402.426 224.741 396.301 217.03 c 392.543 212.295 388.754 207.526
 388.754 204.799 c 388.754 202.073 392.543 197.299 396.301 192.569 c 402.426
 184.858 408.496 177.217 406.828 168.03 c 405.133 158.686 396.57 153.702
 388.055 148.752 c 383.035 145.834 378.039 142.928 377.25 140.815 c 376.461
 138.702 378.414 133.19 380.363 127.702 c 383.605 118.545 386.836 109.424
 382.152 101.432 c 377.457 93.413 367.855 91.795 358.273 90.186 c 352.625
 89.233 346.98 88.28 345.598 86.639 c 344.211 84.998 344.242 79.268 344.266
 73.541 c 344.309 63.838 344.352 54.135 337.309 48.19 c 330.227 42.217 320.691
 43.889 311.141 45.561 c 305.453 46.553 299.758 47.549 297.902 46.467 c 
296.055 45.381 294.117 39.963 292.176 34.526 c 288.895 25.338 285.602 16.12
 276.805 12.842 c 268.109 9.608 259.617 14.327 251.074 19.069 c 245.914 
21.936 240.723 24.823 238.301 24.381 c 235.938 23.952 232.078 19.545 228.184
 15.096 c 221.609 7.584 214.973 -0.002 205.352 -0.002 c 195.738 -0.002 189.102
 7.584 182.523 15.096 c 178.633 19.545 174.773 23.955 172.406 24.385 c 169.988
 24.827 164.797 21.94 159.633 19.073 c 151.09 14.327 142.602 9.608 133.902
 12.846 c 125.105 16.123 121.816 25.342 118.531 34.53 c 116.59 39.963 114.652
 45.385 112.805 46.467 c 110.953 47.553 105.258 46.557 99.566 45.561 c 90.016
 43.889 80.477 42.221 73.398 48.194 c 66.352 54.139 66.398 63.842 66.441
 73.545 c 66.469 79.272 66.492 84.998 65.109 86.639 c 63.727 88.284 58.086
 89.233 52.434 90.186 c 42.852 91.795 33.25 93.416 28.555 101.432 c 23.871
 109.428 27.102 118.549 30.348 127.702 c 32.293 133.194 34.242 138.702 33.457
 140.819 c 32.672 142.928 27.676 145.834 22.648 148.756 c 14.141 153.705
 5.574 158.686 3.883 168.03 c 2.211 177.217 8.281 184.862 14.406 192.573
 c 18.164 197.303 21.957 202.077 21.957 204.803 c 21.957 207.53 18.164 212.299
 14.406 217.03 c 8.281 224.745 2.211 232.381 3.883 241.573 c 5.574 250.92
 14.141 255.897 22.648 260.846 c 27.676 263.768 32.672 266.674 33.457 268.784
 c 34.242 270.901 32.293 276.409 30.348 281.901 c 27.102 291.053 23.867 
300.174 28.555 308.17 c 33.25 316.186 42.852 317.803 52.434 319.416 c 58.086
 320.37 63.727 321.319 65.109 322.959 c 66.492 324.604 66.469 330.33 66.441
 336.061 c 66.398 345.764 66.352 355.467 73.398 361.405 c 80.477 367.377
 90.016 365.713 99.566 364.041 c 105.258 363.045 110.953 362.049 112.805
 363.135 c 114.652 364.217 116.59 369.639 118.531 375.077 c 121.812 384.26
 125.109 393.483 133.902 396.756 c 142.602 399.995 151.09 395.276 159.633
 390.53 c 164.797 387.663 169.988 384.78 172.406 385.217 c 174.773 385.647
 178.633 390.057 182.523 394.502 c 189.102 402.014 195.738 409.6 205.352
 409.6 c h
304.492 306.26 m 300.07 306.26 296.492 302.678 296.492 298.26 c 296.492
 296.291 297.203 294.487 298.383 293.092 c 298.406 293.065 l 298.57 292.873
 298.742 292.694 298.918 292.522 c 320.434 269.584 333.609 238.733 333.609
 204.799 c 333.609 169.381 319.258 137.319 296.047 114.108 c 272.836 90.897
 240.773 76.545 205.352 76.545 c 190.191 76.545 175.645 79.174 162.145 84.006
 c 161.902 84.108 161.652 84.194 161.398 84.272 c 161.383 84.28 l 160.648
 84.498 159.867 84.623 159.059 84.623 c 154.645 84.623 151.059 81.041 151.059
 76.623 c 151.059 72.998 153.473 69.936 156.773 68.952 c 171.953 63.526 
188.309 60.565 205.352 60.565 c 245.18 60.565 281.242 76.713 307.34 102.811
 c 333.445 128.916 349.586 164.971 349.586 204.799 c 349.586 242.913 334.805
 277.569 310.664 303.354 c 309.195 305.127 306.977 306.26 304.492 306.26
 c h
280.348 326.565 m 275.93 326.565 272.348 322.983 272.348 318.565 c 272.348
 314.151 275.93 310.565 280.348 310.565 c 284.766 310.565 288.348 314.151
 288.348 318.565 c 288.348 322.983 284.766 326.565 280.348 326.565 c h
254.383 340.483 m 239.074 346.014 222.57 349.034 205.352 349.034 c 165.523
 349.034 129.469 332.889 103.367 306.788 c 77.266 280.686 61.117 244.627
 61.117 204.799 c 61.117 166.768 75.84 132.178 99.891 106.409 c 101.359 
104.655 103.566 103.534 106.035 103.534 c 110.453 103.534 114.035 107.116
 114.035 111.534 c 114.035 113.498 113.328 115.295 112.152 116.686 c 112.152
 116.69 l 112.121 116.725 l 111.965 116.909 111.801 117.084 111.629 117.248
 c 90.211 140.17 77.098 170.952 77.098 204.799 c 77.098 240.217 91.453 272.284
 114.664 295.491 c 137.871 318.702 169.938 333.057 205.352 333.057 c 220.66
 333.057 235.336 330.373 248.945 325.455 c 248.949 325.455 l 249.914 325.045
 250.969 324.823 252.082 324.823 c 256.5 324.823 260.082 328.405 260.082
 332.823 c 260.082 336.44 257.68 339.498 254.383 340.483 c h
130.359 99.034 m 125.945 99.034 122.359 95.452 122.359 91.034 c 122.359
 86.616 125.945 83.034 130.359 83.034 c 134.777 83.034 138.359 86.616 138.359
 91.034 c 138.359 95.452 134.777 99.034 130.359 99.034 c h
158.777 283.424 m 149.605 283.424 141.305 279.709 135.289 273.698 c 129.281
 267.686 125.562 259.381 125.562 250.209 c 125.562 241.041 129.281 232.733
 135.289 226.725 c 141.305 220.713 149.605 216.995 158.777 216.995 c 167.949
 216.995 176.254 220.713 182.266 226.725 c 188.273 232.733 191.992 241.041
 191.992 250.209 c 191.992 259.381 188.273 267.686 182.266 273.698 c 176.254
 279.709 167.949 283.424 158.777 283.424 c h
170.969 262.401 m 167.852 265.518 163.539 267.452 158.777 267.452 c 154.02
 267.452 149.707 265.518 146.586 262.401 c 143.469 259.28 141.539 254.971
 141.539 250.209 c 141.539 245.452 143.469 241.139 146.586 238.018 c 149.707
 234.905 154.02 232.971 158.777 232.971 c 163.539 232.971 167.852 234.901
 170.969 238.018 c 174.086 241.139 176.016 245.452 176.016 250.209 c 176.016
 254.971 174.086 259.28 170.969 262.401 c h
245.285 279.807 m 152.133 138.53 l 149.719 134.858 150.738 129.928 154.41
 127.514 c 158.082 125.104 163.012 126.123 165.426 129.795 c 258.578 271.069
 l 260.992 274.741 259.973 279.67 256.301 282.084 c 252.629 284.498 247.695
 283.479 245.285 279.807 c h
251.93 192.608 m 242.758 192.608 234.453 188.889 228.445 182.877 c 222.434
 176.866 218.715 168.561 218.715 159.389 c 218.715 150.217 222.434 141.916
 228.445 135.905 c 234.457 129.893 242.758 126.174 251.93 126.174 c 261.102
 126.174 269.406 129.893 275.414 135.905 c 281.43 141.916 285.148 150.217
 285.148 159.389 c 285.148 168.561 281.43 176.866 275.414 182.877 c 269.406
 188.889 261.102 192.608 251.93 192.608 c h
264.117 171.58 m 261.004 174.698 256.691 176.627 251.93 176.627 c 247.168
 176.627 242.859 174.702 239.742 171.58 c 236.621 168.463 234.691 164.151
 234.691 159.389 c 234.691 154.627 236.621 150.319 239.742 147.202 c 242.859
 144.08 247.168 142.155 251.93 142.155 c 256.691 142.155 261.004 144.08 
264.117 147.202 c 267.242 150.319 269.168 154.627 269.168 159.389 c 269.168
 164.151 267.242 168.459 264.117 171.58 c h
216.203 384.014 m 212.02 388.795 207.797 393.623 205.355 393.623 c 202.914
 393.623 198.691 388.795 194.508 384.014 c 188.777 377.471 183.098 370.983
 175.215 369.549 c 167.215 368.096 159.535 372.366 151.895 376.612 c 146.57
 379.573 141.273 382.514 139.461 381.838 c 137.672 381.17 135.617 375.428
 133.574 369.705 c 130.664 361.565 127.77 353.452 120.855 349.405 c 113.898
 345.327 105.352 346.819 96.82 348.311 c 90.93 349.342 85.043 350.373 83.699
 349.233 c 82.305 348.061 82.332 342.088 82.359 336.12 c 82.398 327.448 
82.438 318.776 77.281 312.659 c 72.141 306.561 63.602 305.123 55.055 303.686
 c 49.141 302.69 43.211 301.694 42.289 300.116 c 41.367 298.549 43.375 292.885
 45.391 287.202 c 48.289 279.018 51.199 270.811 48.375 263.229 c 45.586 
255.745 38.133 251.409 30.641 247.049 c 25.297 243.944 19.918 240.815 19.547
 238.76 c 19.168 236.674 23.012 231.838 26.891 226.952 c 32.391 220.03 37.938
 213.049 37.938 204.799 c 37.938 196.545 32.391 189.569 26.891 182.643 c
 23.012 177.764 19.168 172.924 19.547 170.838 c 19.918 168.78 25.297 165.655
 30.641 162.545 c 38.133 158.19 45.586 153.858 48.375 146.373 c 51.199 138.788
 48.289 130.577 45.391 122.393 c 43.375 116.713 41.367 111.049 42.289 109.483
 c 43.211 107.905 49.137 106.905 55.055 105.913 c 63.605 104.471 72.141 
103.038 77.281 96.936 c 82.438 90.827 82.398 82.155 82.359 73.479 c 82.332
 67.51 82.305 61.541 83.699 60.362 c 85.047 59.229 90.93 60.256 96.82 61.288
 c 105.352 62.78 113.898 64.276 120.855 60.198 c 127.77 56.151 130.668 48.034
 133.574 39.893 c 135.617 34.17 137.672 28.424 139.461 27.764 c 141.273 
27.088 146.57 30.03 151.895 32.987 c 159.535 37.233 167.215 41.498 175.215
 40.045 c 183.102 38.62 188.777 32.127 194.508 25.58 c 198.691 20.799 202.914
 15.975 205.355 15.975 c 207.797 15.975 212.02 20.799 216.203 25.58 c 221.93
 32.127 227.613 38.62 235.492 40.045 c 243.492 41.498 251.176 37.233 258.816
 32.987 c 264.141 30.03 269.438 27.088 271.25 27.764 c 273.039 28.424 275.09
 34.17 277.133 39.893 c 280.043 48.034 282.941 56.147 289.852 60.198 c 296.812
 64.276 305.352 62.78 313.883 61.288 c 319.777 60.256 325.664 59.225 327.012
 60.362 c 328.402 61.541 328.379 67.51 328.352 73.479 c 328.309 82.151 328.273
 90.827 333.43 96.936 c 338.57 103.038 347.102 104.471 355.648 105.913 c
 361.57 106.905 367.5 107.905 368.422 109.483 c 369.34 111.049 367.336 116.713
 365.32 122.393 c 362.418 130.577 359.508 138.788 362.336 146.373 c 365.117
 153.858 372.574 158.19 380.066 162.545 c 385.414 165.655 390.789 168.78
 391.164 170.838 c 391.539 172.924 387.695 177.764 383.82 182.643 c 378.32
 189.569 372.773 196.545 372.773 204.799 c 372.773 213.049 378.32 220.03
 383.82 226.952 c 387.695 231.838 391.539 236.674 391.164 238.76 c 390.789
 240.815 385.414 243.944 380.066 247.049 c 372.574 251.409 365.117 255.745
 362.336 263.229 c 359.508 270.811 362.418 279.018 365.32 287.202 c 367.336
 292.885 369.34 298.549 368.422 300.116 c 367.5 301.694 361.57 302.69 355.648
 303.686 c 347.102 305.123 338.57 306.561 333.43 312.659 c 328.273 318.776
 328.309 327.448 328.352 336.12 c 328.379 342.088 328.402 348.061 327.012
 349.233 c 325.664 350.373 319.777 349.342 313.883 348.311 c 305.352 346.819
 296.812 345.327 289.852 349.405 c 282.941 353.452 280.039 361.565 277.133
 369.705 c 275.09 375.428 273.039 381.17 271.25 381.838 c 269.438 382.514
 264.141 379.573 258.816 376.612 c 251.172 372.366 243.492 368.096 235.492
 369.549 c 227.609 370.983 221.93 377.471 216.203 384.014 c h
216.203 384.014 m f*
Q Q
showpage
%%Trailer
end restore
%%EOF
