%!PS-Adobe-3.0 EPSF-3.0
%%Creator: cairo 1.14.2 (http://cairographics.org)
%%CreationDate: Wed Oct  3 10:33:22 2018
%%Pages: 1
%%DocumentData: Clean7Bit
%%LanguageLevel: 2
%%BoundingBox: 0 29 410 379
%%EndComments
%%BeginProlog
save
50 dict begin
/q { gsave } bind def
/Q { grestore } bind def
/cm { 6 array astore concat } bind def
/w { setlinewidth } bind def
/J { setlinecap } bind def
/j { setlinejoin } bind def
/M { setmiterlimit } bind def
/d { setdash } bind def
/m { moveto } bind def
/l { lineto } bind def
/c { curveto } bind def
/h { closepath } bind def
/re { exch dup neg 3 1 roll 5 3 roll moveto 0 rlineto
      0 exch rlineto 0 rlineto closepath } bind def
/S { stroke } bind def
/f { fill } bind def
/f* { eofill } bind def
/n { newpath } bind def
/W { clip } bind def
/W* { eoclip } bind def
/BT { } bind def
/ET { } bind def
/pdfmark where { pop globaldict /?pdfmark /exec load put }
    { globaldict begin /?pdfmark /pop load def /pdfmark
    /cleartomark load def end } ifelse
/BDC { mark 3 1 roll /BDC pdfmark } bind def
/EMC { mark /EMC pdfmark } bind def
/cairo_store_point { /cairo_point_y exch def /cairo_point_x exch def } def
/Tj { show currentpoint cairo_store_point } bind def
/TJ {
  {
    dup
    type /stringtype eq
    { show } { -0.001 mul 0 cairo_font_matrix dtransform rmoveto } ifelse
  } forall
  currentpoint cairo_store_point
} bind def
/cairo_selectfont { cairo_font_matrix aload pop pop pop 0 0 6 array astore
    cairo_font exch selectfont cairo_point_x cairo_point_y moveto } bind def
/Tf { pop /cairo_font exch def /cairo_font_matrix where
      { pop cairo_selectfont } if } bind def
/Td { matrix translate cairo_font_matrix matrix concatmatrix dup
      /cairo_font_matrix exch def dup 4 get exch 5 get cairo_store_point
      /cairo_font where { pop cairo_selectfont } if } bind def
/Tm { 2 copy 8 2 roll 6 array astore /cairo_font_matrix exch def
      cairo_store_point /cairo_font where { pop cairo_selectfont } if } bind def
/g { setgray } bind def
/rg { setrgbcolor } bind def
/d1 { setcachedevice } bind def
%%EndProlog
%%BeginSetup
%%EndSetup
%%Page: 1 1
%%BeginPageSetup
%%PageBoundingBox: 0 29 410 379
%%EndPageSetup
q 0 29 410 350 rectclip q
0 g
42.383 378.401 m 367.211 378.401 l 378.879 378.401 389.477 373.635 397.152
 365.955 c 404.832 358.28 409.602 347.678 409.602 336.014 c 409.602 326.413
 l 409.602 321.995 406.02 318.413 401.602 318.413 c 397.18 318.413 393.602
 321.995 393.602 326.413 c 393.527 326.413 l 393.527 336.014 l 393.527 343.245
 390.566 349.823 385.793 354.592 c 381.02 359.37 374.445 362.33 367.211 
362.33 c 42.383 362.33 l 35.156 362.33 28.578 359.37 23.805 354.592 c 19.031
 349.823 16.07 343.245 16.07 336.014 c 16.07 229.702 l 16 229.702 l 16 225.284
 12.418 221.702 8 221.702 c 3.582 221.702 0 225.284 0 229.702 c 0 336.014
 l 0 347.678 4.766 358.28 12.445 365.955 c 20.121 373.635 30.723 378.401
 42.383 378.401 c h
8 173.702 m 3.582 173.702 0 170.123 0 165.702 c 0 156.104 l 0 144.436 4.766
 133.842 12.445 126.163 c 20.121 118.483 30.723 113.717 42.387 113.717 c
 78.703 113.717 l 78.727 38.51 l 78.727 36.651 79.367 34.784 80.68 33.264
 c 83.574 29.92 88.633 29.557 91.98 32.452 c 186.113 113.717 l 367.211 113.717
 l 378.879 113.717 389.477 118.483 397.152 126.159 c 404.832 133.842 409.602
 144.436 409.602 156.104 c 409.602 262.413 l 409.602 266.83 406.02 270.413
 401.602 270.413 c 397.18 270.413 393.602 266.83 393.602 262.413 c 393.527
 262.413 l 393.527 156.104 l 393.527 148.873 390.566 142.295 385.793 137.526
 c 381.02 132.748 374.445 129.788 367.211 129.788 c 183.164 129.788 l 180.93
 129.788 178.914 128.877 177.457 127.409 c 94.773 56.03 l 94.773 121.752
 l 94.773 126.19 91.176 129.788 86.738 129.788 c 42.383 129.788 l 35.156
 129.788 28.578 132.748 23.805 137.522 c 19.031 142.295 16.07 148.873 16.07
 156.104 c 16.07 165.702 l 16 165.702 l 16 170.123 12.418 173.702 8 173.702
 c h
8 205.702 m 12.418 205.702 16 202.123 16 197.702 c 16 193.284 12.418 189.702
 8 189.702 c 3.582 189.702 0 193.284 0 197.702 c 0 202.123 3.582 205.702
 8 205.702 c h
401.602 302.413 m 397.18 302.413 393.602 298.83 393.602 294.413 c 393.602
 289.998 397.18 286.413 401.602 286.413 c 406.02 286.413 409.602 289.998
 409.602 294.413 c 409.602 298.83 406.02 302.413 401.602 302.413 c h
161.152 245.217 m 161.152 196.104 l 161.152 191.666 164.75 188.065 169.188
 188.065 c 173.625 188.065 177.227 191.666 177.227 196.104 c 177.227 245.217
 l 177.227 249.655 173.625 253.252 169.188 253.252 c 164.75 253.252 161.152
 249.655 161.152 245.217 c h
232.379 245.217 m 232.379 196.104 l 232.379 191.666 235.977 188.065 240.414
 188.065 c 244.852 188.065 248.445 191.666 248.445 196.104 c 248.445 245.217
 l 248.445 249.655 244.852 253.252 240.414 253.252 c 235.977 253.252 232.379
 249.655 232.379 245.217 c h
196.766 245.217 m 196.766 196.104 l 196.766 191.666 200.363 188.065 204.801
 188.065 c 209.238 188.065 212.836 191.666 212.836 196.104 c 212.836 245.217
 l 212.836 249.655 209.238 253.252 204.801 253.252 c 200.363 253.252 196.766
 249.655 196.766 245.217 c h
263.672 280.975 m 145.93 280.975 l 178.641 330.284 l 181.086 333.979 180.074
 338.952 176.383 341.397 c 172.691 343.842 167.715 342.827 165.273 339.139
 c 126.688 280.975 l 96.625 280.975 l 92.188 280.975 88.59 277.373 88.59
 272.936 c 88.59 268.498 92.188 264.905 96.625 264.905 c 109.531 264.905
 l 122.961 167.823 l 123.25 163.643 126.727 160.342 130.977 160.342 c 278.625
 160.362 l 282.57 160.358 286.008 163.264 286.566 167.28 c 300.07 264.905
 l 312.977 264.905 l 317.414 264.905 321.012 268.498 321.012 272.936 c 321.012
 277.373 317.414 280.971 312.977 280.971 c 282.914 280.971 l 244.332 339.139
 l 241.883 342.827 236.91 343.842 233.219 341.397 c 229.523 338.952 228.512
 333.979 230.961 330.284 c h
283.883 264.905 m 125.715 264.905 l 137.961 176.416 l 271.641 176.416 l
 h
283.883 264.905 m f*
Q Q
showpage
%%Trailer
end restore
%%EOF
