%!PS-Adobe-3.0 EPSF-3.0
%%Creator: cairo 1.14.2 (http://cairographics.org)
%%CreationDate: Wed Oct  3 10:33:22 2018
%%Pages: 1
%%DocumentData: Clean7Bit
%%LanguageLevel: 2
%%BoundingBox: 0 39 410 370
%%EndComments
%%BeginProlog
save
50 dict begin
/q { gsave } bind def
/Q { grestore } bind def
/cm { 6 array astore concat } bind def
/w { setlinewidth } bind def
/J { setlinecap } bind def
/j { setlinejoin } bind def
/M { setmiterlimit } bind def
/d { setdash } bind def
/m { moveto } bind def
/l { lineto } bind def
/c { curveto } bind def
/h { closepath } bind def
/re { exch dup neg 3 1 roll 5 3 roll moveto 0 rlineto
      0 exch rlineto 0 rlineto closepath } bind def
/S { stroke } bind def
/f { fill } bind def
/f* { eofill } bind def
/n { newpath } bind def
/W { clip } bind def
/W* { eoclip } bind def
/BT { } bind def
/ET { } bind def
/pdfmark where { pop globaldict /?pdfmark /exec load put }
    { globaldict begin /?pdfmark /pop load def /pdfmark
    /cleartomark load def end } ifelse
/BDC { mark 3 1 roll /BDC pdfmark } bind def
/EMC { mark /EMC pdfmark } bind def
/cairo_store_point { /cairo_point_y exch def /cairo_point_x exch def } def
/Tj { show currentpoint cairo_store_point } bind def
/TJ {
  {
    dup
    type /stringtype eq
    { show } { -0.001 mul 0 cairo_font_matrix dtransform rmoveto } ifelse
  } forall
  currentpoint cairo_store_point
} bind def
/cairo_selectfont { cairo_font_matrix aload pop pop pop 0 0 6 array astore
    cairo_font exch selectfont cairo_point_x cairo_point_y moveto } bind def
/Tf { pop /cairo_font exch def /cairo_font_matrix where
      { pop cairo_selectfont } if } bind def
/Td { matrix translate cairo_font_matrix matrix concatmatrix dup
      /cairo_font_matrix exch def dup 4 get exch 5 get cairo_store_point
      /cairo_font where { pop cairo_selectfont } if } bind def
/Tm { 2 copy 8 2 roll 6 array astore /cairo_font_matrix exch def
      cairo_store_point /cairo_font where { pop cairo_selectfont } if } bind def
/g { setgray } bind def
/rg { setrgbcolor } bind def
/d1 { setcachedevice } bind def
%%EndProlog
%%BeginSetup
%%EndSetup
%%Page: 1 1
%%BeginPageSetup
%%PageBoundingBox: 0 39 410 370
%%EndPageSetup
q 0 39 410 331 rectclip q
0 g
34.648 369.6 m 374.953 369.6 l 384.488 369.6 393.152 365.702 399.43 359.428
 c 405.707 353.155 409.602 344.487 409.602 334.952 c 409.602 271.998 l 409.555
 271.998 l 409.555 267.584 405.977 263.998 401.555 263.998 c 397.137 263.998
 393.555 267.584 393.555 271.998 c 393.508 271.998 l 393.508 334.952 l 393.508
 340.045 391.418 344.686 388.055 348.053 c 384.684 351.42 380.047 353.51
 374.953 353.51 c 34.648 353.51 l 29.555 353.51 24.914 351.42 21.547 348.053
 c 18.18 344.686 16.09 340.045 16.09 334.952 c 16.09 271.998 l 16.043 271.998
 l 16.043 267.584 12.461 263.998 8.043 263.998 c 3.625 263.998 0.043 267.584
 0.043 271.998 c 0 271.998 l 0 334.952 l 0 344.487 3.895 353.155 10.172 
359.428 c 16.445 365.702 25.113 369.6 34.648 369.6 c h
8.043 216.002 m 12.461 216.002 16.043 212.42 16.043 208.002 c 16.09 208.002
 l 16.09 145.053 l 16.09 139.955 18.18 135.319 21.547 131.952 c 24.914 128.584
 29.555 126.495 34.648 126.495 c 374.953 126.495 l 380.047 126.495 384.684
 128.584 388.055 131.952 c 391.418 135.319 393.508 139.955 393.508 145.053
 c 393.508 208.002 l 393.555 208.002 l 393.555 212.42 397.137 216.002 401.555
 216.002 c 405.977 216.002 409.555 212.42 409.555 208.002 c 409.602 208.002
 l 409.602 145.053 l 409.602 135.514 405.707 126.854 399.43 120.577 c 393.152
 114.299 384.488 110.405 374.953 110.405 c 243.441 110.405 l 245.645 100.588
 249.371 91.366 254.367 82.995 c 261.051 71.788 270.027 62.057 280.668 54.428
 c 284.277 51.842 285.109 46.819 282.523 43.209 c 280.953 41.018 278.488
 39.854 275.984 39.85 c 133.613 39.846 l 129.168 39.846 125.57 43.448 125.57
 47.889 c 125.57 50.674 126.984 53.131 129.133 54.577 c 139.684 62.182 148.59
 71.858 155.234 82.995 c 160.227 91.366 163.957 100.588 166.16 110.405 c
 34.648 110.405 l 25.109 110.405 16.445 114.299 10.172 120.577 c 3.898 126.854
 0 135.514 0 145.053 c 0 208.002 l 0.043 208.002 l 0.043 212.42 3.625 216.002
 8.043 216.002 c h
8.043 248.002 m 12.461 248.002 16.043 244.42 16.043 240.002 c 16.043 235.584
 12.461 232.002 8.043 232.002 c 3.625 232.002 0.043 235.584 0.043 240.002
 c 0.043 244.42 3.625 248.002 8.043 248.002 c h
401.555 248.002 m 405.973 248.002 409.555 244.42 409.555 240.002 c 409.555
 235.584 405.973 232.002 401.555 232.002 c 397.137 232.002 393.555 235.584
 393.555 240.002 c 393.555 244.42 397.137 248.002 401.555 248.002 c h
331.051 139.37 m 360.523 139.37 l 366.062 139.37 371.094 141.627 374.734
 145.272 c 378.375 148.913 380.637 153.944 380.637 159.483 c 380.637 188.955
 l 380.637 193.397 377.035 196.998 372.59 196.998 c 368.148 196.998 364.547
 193.397 364.547 188.955 c 364.547 159.483 l 364.547 158.385 364.09 157.381
 363.359 156.647 c 362.625 155.916 361.621 155.459 360.523 155.459 c 331.051
 155.459 l 326.605 155.459 323.008 151.858 323.008 147.416 c 323.008 142.971
 326.605 139.37 331.051 139.37 c h
78.551 155.459 m 49.074 155.459 l 47.977 155.459 46.977 155.913 46.242 
156.647 c 45.508 157.377 45.055 158.385 45.055 159.483 c 45.055 188.952 
l 45.055 193.397 41.453 196.998 37.008 196.998 c 32.566 196.998 28.961 193.397
 28.961 188.952 c 28.961 159.483 l 28.961 153.944 31.227 148.913 34.867 
145.272 c 38.508 141.627 43.539 139.37 49.074 139.37 c 78.551 139.37 l 82.992
 139.37 86.594 142.971 86.594 147.413 c 86.594 151.858 82.992 155.459 78.551
 155.459 c h
331.051 324.545 m 360.523 324.545 l 361.621 324.545 362.625 324.092 363.359
 323.358 c 364.09 322.623 364.547 321.623 364.547 320.526 c 364.547 291.049
 l 364.547 286.608 368.148 283.002 372.59 283.002 c 377.035 283.002 380.637
 286.608 380.637 291.049 c 380.637 320.526 l 380.637 326.061 378.375 331.092
 374.734 334.733 c 371.094 338.373 366.062 340.635 360.523 340.635 c 331.051
 340.635 l 326.605 340.635 323.008 337.034 323.008 332.592 c 323.008 328.147
 326.605 324.545 331.051 324.545 c h
78.551 340.635 m 49.074 340.635 l 43.539 340.635 38.508 338.373 34.867 
334.733 c 31.227 331.092 28.961 326.061 28.961 320.526 c 28.961 291.049 
l 28.961 286.608 32.566 283.002 37.008 283.002 c 41.453 283.002 45.055 286.608
 45.055 291.049 c 45.055 320.526 l 45.055 321.623 45.508 322.623 46.242 
323.358 c 46.977 324.092 47.977 324.545 49.074 324.545 c 78.551 324.545 
l 82.992 324.545 86.594 328.147 86.594 332.592 c 86.594 337.034 82.992 340.635
 78.551 340.635 c h
204.801 343.014 m 197.316 343.014 192.023 338.666 186.809 334.377 c 184.266
 332.288 181.75 330.217 180.078 329.76 c 178.371 329.291 175.098 329.842
 171.84 330.389 c 165.406 331.467 159.008 332.545 152.809 328.916 c 146.59
 325.268 144.418 319.127 142.25 312.998 c 141.191 310.002 140.133 307.014
 138.961 305.842 c 137.789 304.67 134.801 303.612 131.805 302.553 c 125.676
 300.385 119.531 298.213 115.887 291.995 c 112.258 285.795 113.336 279.397
 114.414 272.963 c 114.961 269.705 115.512 266.432 115.039 264.725 c 114.582
 263.053 112.512 260.534 110.422 257.995 c 106.133 252.776 101.789 247.487
 101.789 240.002 c 101.789 232.518 106.133 227.229 110.422 222.014 c 112.512
 219.467 114.582 216.952 115.039 215.28 c 115.512 213.577 114.961 210.299
 114.414 207.045 c 113.336 200.608 112.258 194.209 115.887 188.014 c 119.531
 181.795 125.676 179.623 131.805 177.452 c 134.801 176.393 137.789 175.338
 138.961 174.166 c 140.133 172.995 141.191 170.002 142.25 167.006 c 144.418
 160.877 146.59 154.733 152.809 151.092 c 159.008 147.463 165.406 148.538
 171.84 149.62 c 175.098 150.166 178.371 150.717 180.078 150.248 c 181.75
 149.784 184.266 147.717 186.809 145.623 c 192.027 141.342 197.316 136.991
 204.801 136.991 c 212.281 136.991 217.574 141.342 222.789 145.623 c 225.336
 147.717 227.852 149.784 229.523 150.248 c 231.227 150.717 234.504 150.166
 237.758 149.62 c 244.195 148.538 250.594 147.463 256.789 151.092 c 263.008
 154.733 265.18 160.877 267.348 167.006 c 268.406 170.002 269.465 172.995
 270.637 174.166 c 271.809 175.338 274.801 176.393 277.797 177.452 c 283.926
 179.623 290.066 181.795 293.711 188.014 c 297.34 194.209 296.266 200.608
 295.184 207.045 c 294.637 210.299 294.086 213.577 294.555 215.28 c 295.016
 216.952 297.086 219.467 299.176 222.014 c 303.461 227.233 307.812 232.518
 307.812 240.002 c 307.812 247.487 303.461 252.78 299.176 257.995 c 297.086
 260.538 295.016 263.053 294.555 264.725 c 294.086 266.432 294.637 269.705
 295.184 272.963 c 296.266 279.397 297.34 285.795 293.711 291.995 c 290.066
 298.213 283.926 300.385 277.797 302.553 c 274.801 303.612 271.809 304.67
 270.637 305.842 c 269.465 307.014 268.406 310.002 267.348 312.998 c 265.18
 319.127 263.008 325.272 256.789 328.916 c 250.594 332.545 244.195 331.467
 237.758 330.389 c 234.504 329.842 231.227 329.291 229.523 329.76 c 227.852
 330.217 225.336 332.288 222.789 334.377 c 217.574 338.666 212.281 343.014
 204.801 343.014 c h
212.609 321.998 m 209.633 324.444 206.613 326.924 204.801 326.924 c 202.988
 326.924 199.969 324.444 196.992 321.998 c 193.129 318.823 189.305 315.678
 184.289 314.299 c 179.133 312.881 174.156 313.717 169.199 314.549 c 165.617
 315.151 162.051 315.748 160.918 315.088 c 159.789 314.428 158.594 311.038
 157.398 307.659 c 155.719 302.909 154.039 298.17 150.336 294.467 c 146.633
 290.76 141.895 289.084 137.145 287.405 c 133.762 286.209 130.375 285.014
 129.715 283.885 c 129.055 282.752 129.648 279.186 130.254 275.6 c 131.086
 270.647 131.922 265.67 130.504 260.514 c 129.121 255.498 125.98 251.674
 122.805 247.811 c 120.359 244.834 117.879 241.815 117.879 240.002 c 117.879
 238.186 120.359 235.17 122.805 232.194 c 125.98 228.327 129.121 224.506
 130.504 219.491 c 131.922 214.334 131.086 209.358 130.254 204.405 c 129.648
 200.819 129.055 197.252 129.715 196.123 c 130.375 194.995 133.762 193.795
 137.145 192.6 c 141.895 190.92 146.633 189.245 150.336 185.541 c 154.039
 181.834 155.719 177.092 157.398 172.346 c 158.594 168.967 159.789 165.577
 160.918 164.92 c 162.051 164.252 165.617 164.854 169.199 165.455 c 174.156
 166.288 179.133 167.123 184.289 165.705 c 189.305 164.327 193.129 161.186
 196.992 158.006 c 199.969 155.561 202.988 153.08 204.801 153.08 c 206.613
 153.08 209.633 155.561 212.609 158.006 c 216.473 161.186 220.297 164.327
 225.312 165.705 c 230.469 167.123 235.445 166.288 240.398 165.455 c 243.98
 164.854 247.551 164.252 248.68 164.92 c 249.809 165.577 251.008 168.967
 252.203 172.346 c 253.883 177.096 255.559 181.834 259.262 185.541 c 262.965
 189.245 267.707 190.92 272.457 192.6 c 275.836 193.795 279.227 194.995 
279.883 196.123 c 280.547 197.252 279.945 200.819 279.348 204.405 c 278.512
 209.358 277.68 214.334 279.098 219.491 c 280.477 224.506 283.617 228.327
 286.793 232.194 c 289.242 235.17 291.723 238.186 291.723 240.002 c 291.723
 241.815 289.242 244.834 286.793 247.811 c 283.617 251.674 280.477 255.498
 279.098 260.514 c 277.68 265.67 278.512 270.647 279.348 275.6 c 279.945
 279.186 280.547 282.752 279.883 283.885 c 279.227 285.014 275.836 286.209
 272.457 287.405 c 267.707 289.084 262.965 290.76 259.262 294.467 c 255.559
 298.17 253.883 302.909 252.203 307.659 c 251.008 311.038 249.809 314.428
 248.68 315.088 c 247.551 315.748 243.984 315.151 240.398 314.549 c 235.445
 313.717 230.469 312.881 225.312 314.299 c 220.297 315.678 216.473 318.823
 212.609 321.998 c h
196.758 299.717 m 196.758 292.342 l 191.504 290.92 186.809 288.143 183.07
 284.409 c 177.512 278.846 174.07 271.166 174.07 262.686 c 174.07 254.202
 177.512 246.518 183.07 240.955 c 188.633 235.397 196.316 231.955 204.801
 231.955 c 208.84 231.955 212.5 230.319 215.148 227.67 c 217.797 225.022
 219.434 221.362 219.434 217.319 c 219.434 213.28 217.797 209.62 215.148
 206.971 c 212.5 204.323 208.84 202.686 204.801 202.686 c 200.758 202.686
 197.098 204.323 194.449 206.971 c 191.801 209.62 190.164 213.28 190.164
 217.319 c 190.164 221.764 186.562 225.366 182.117 225.366 c 177.676 225.366
 174.07 221.764 174.07 217.319 c 174.07 208.838 177.512 201.155 183.07 195.592
 c 186.809 191.858 191.504 189.08 196.758 187.659 c 196.758 180.284 l 196.758
 175.842 200.355 172.237 204.801 172.237 c 209.242 172.237 212.844 175.842
 212.844 180.284 c 212.844 187.659 l 218.098 189.08 222.789 191.858 226.523
 195.592 c 232.086 201.155 235.523 208.838 235.523 217.319 c 235.523 225.803
 232.086 233.483 226.523 239.045 c 220.965 244.608 213.285 248.045 204.801
 248.045 c 200.758 248.045 197.098 249.686 194.453 252.33 c 191.805 254.983
 190.164 258.639 190.164 262.682 c 190.164 266.725 191.805 270.385 194.453
 273.03 c 197.102 275.682 200.758 277.319 204.801 277.319 c 208.844 277.319
 212.504 275.682 215.148 273.03 c 217.801 270.385 219.438 266.725 219.438
 262.682 c 219.438 258.237 223.039 254.639 227.48 254.639 c 231.926 254.639
 235.527 258.237 235.527 262.682 c 235.527 271.166 232.086 278.846 226.527
 284.405 c 222.789 288.143 218.098 290.92 212.848 292.342 c 212.848 299.717
 l 212.848 304.163 209.242 307.764 204.801 307.764 c 200.355 307.764 196.758
 304.163 196.758 299.717 c h
227.023 110.405 m 182.578 110.405 l 180.133 97.627 175.469 85.608 168.996
 74.764 c 164.953 67.983 160.211 61.674 154.867 55.936 c 254.73 55.936 l
 249.387 61.674 244.645 67.983 240.602 74.764 c 234.129 85.608 229.465 97.627
 227.023 110.405 c h
227.023 110.405 m f*
Q Q
showpage
%%Trailer
end restore
%%EOF
