%!PS-Adobe-3.0 EPSF-3.0
%%Creator: cairo 1.14.2 (http://cairographics.org)
%%CreationDate: Wed Oct  3 10:33:22 2018
%%Pages: 1
%%DocumentData: Clean7Bit
%%LanguageLevel: 2
%%BoundingBox: 36 -1 374 410
%%EndComments
%%BeginProlog
save
50 dict begin
/q { gsave } bind def
/Q { grestore } bind def
/cm { 6 array astore concat } bind def
/w { setlinewidth } bind def
/J { setlinecap } bind def
/j { setlinejoin } bind def
/M { setmiterlimit } bind def
/d { setdash } bind def
/m { moveto } bind def
/l { lineto } bind def
/c { curveto } bind def
/h { closepath } bind def
/re { exch dup neg 3 1 roll 5 3 roll moveto 0 rlineto
      0 exch rlineto 0 rlineto closepath } bind def
/S { stroke } bind def
/f { fill } bind def
/f* { eofill } bind def
/n { newpath } bind def
/W { clip } bind def
/W* { eoclip } bind def
/BT { } bind def
/ET { } bind def
/pdfmark where { pop globaldict /?pdfmark /exec load put }
    { globaldict begin /?pdfmark /pop load def /pdfmark
    /cleartomark load def end } ifelse
/BDC { mark 3 1 roll /BDC pdfmark } bind def
/EMC { mark /EMC pdfmark } bind def
/cairo_store_point { /cairo_point_y exch def /cairo_point_x exch def } def
/Tj { show currentpoint cairo_store_point } bind def
/TJ {
  {
    dup
    type /stringtype eq
    { show } { -0.001 mul 0 cairo_font_matrix dtransform rmoveto } ifelse
  } forall
  currentpoint cairo_store_point
} bind def
/cairo_selectfont { cairo_font_matrix aload pop pop pop 0 0 6 array astore
    cairo_font exch selectfont cairo_point_x cairo_point_y moveto } bind def
/Tf { pop /cairo_font exch def /cairo_font_matrix where
      { pop cairo_selectfont } if } bind def
/Td { matrix translate cairo_font_matrix matrix concatmatrix dup
      /cairo_font_matrix exch def dup 4 get exch 5 get cairo_store_point
      /cairo_font where { pop cairo_selectfont } if } bind def
/Tm { 2 copy 8 2 roll 6 array astore /cairo_font_matrix exch def
      cairo_store_point /cairo_font where { pop cairo_selectfont } if } bind def
/g { setgray } bind def
/rg { setrgbcolor } bind def
/d1 { setcachedevice } bind def
%%EndProlog
%%BeginSetup
%%EndSetup
%%Page: 1 1
%%BeginPageSetup
%%PageBoundingBox: 36 -1 374 410
%%EndPageSetup
q 36 -1 338 411 rectclip q
0 g
289.57 30.812 m 285.57 18.957 277.145 9.847 266.762 4.707 c 256.793 -0.231
 245.016 -1.508 233.605 1.949 c 66.816 58.242 l 54.961 62.246 45.852 70.672
 40.707 81.05 c 35.57 91.422 34.395 103.75 38.391 115.582 c 104.297 310.777
 l 107.539 320.375 113.734 328.453 122.18 334.039 c 201.434 400.054 l 206.547
 404.531 215.086 407.886 221.75 408.992 c 229.062 410.211 236.57 409.593
 243.578 407.234 c 303.164 387.242 l 311.105 384.558 317.816 379.89 322.922
 373.984 c 328.129 367.961 331.672 360.64 333.164 352.812 c 356.18 252.246
 l 357.359 247.894 357.852 243.476 357.715 239.109 c 357.574 234.562 356.77
 230.156 355.367 226.015 c 344.871 194.91 l 351.703 192.605 359.02 190.547
 366.891 188.797 c 371.207 187.843 373.93 183.574 372.977 179.257 c 372.023
 174.941 367.754 172.215 363.438 173.168 c 354.992 175.047 347.121 177.254
 339.758 179.73 c h
157.91 129.875 m 157.91 133.535 155.941 136.297 152.477 137.468 c 110.82
 151.488 l 106.629 152.89 102.09 150.629 100.684 146.437 c 99.281 142.246
 101.543 137.703 105.738 136.3 c 147.156 122.359 l 148.016 122.047 148.945
 121.875 149.91 121.875 c 154.328 121.875 157.91 125.906 157.91 129.875 
c h
212.035 117.422 m 207.07 118.875 201.773 114.84 201.773 109.722 c 201.773
 106.144 203.578 103.527 206.914 102.25 c 207.09 102.187 207.262 102.125
 207.445 102.066 c 248.555 88.234 l 252.746 86.828 257.289 89.09 258.691
 93.281 c 260.094 97.476 257.832 102.015 253.637 103.422 c h
179.656 127.707 m 175.242 127.707 171.656 124.125 171.656 119.707 c 171.656
 115.289 175.242 111.707 179.656 111.707 c 184.074 111.707 187.656 115.289
 187.656 119.707 c 187.656 124.125 184.074 127.707 179.656 127.707 c h
235.816 309.804 m 235.902 314.222 239.555 317.734 243.977 317.648 c 248.395
 317.562 251.906 313.91 251.82 309.492 c 251.82 309.402 251.484 299.472 
255.047 285.199 c 255.289 285.312 255.527 285.422 255.766 285.543 c 261.934
 288.593 266.934 294 269.305 301.019 c 271.688 308.066 270.984 315.418 267.926
 321.597 c 264.867 327.765 259.469 332.765 252.445 335.14 c 245.398 337.519
 238.051 336.816 231.867 333.754 c 225.699 330.703 220.699 325.3 218.328
 318.277 c 215.945 311.226 216.648 303.879 219.711 297.699 c 222.766 291.531
 228.164 286.531 235.188 284.156 c 236.504 283.715 237.828 283.379 239.152
 283.144 c 235.457 298.847 235.812 309.707 235.816 309.804 c h
259.988 269.875 m 269.18 246.797 288.664 218.777 329.918 200.683 c 340.18
 231.164 l 341.098 233.875 341.625 236.699 341.711 239.547 c 341.793 242.32
 341.465 245.199 340.68 248.101 c 317.539 349.234 l 316.57 354.593 314.383
 359.371 310.809 363.5 c 307.512 367.316 303.191 370.328 298.078 372.054
 c 238.496 392.047 l 233.961 393.574 229.086 393.968 224.32 393.179 c 223.141
 392.984 214.156 389.609 211.406 387.543 c 131.254 320.84 l 125.75 317.269
 121.582 311.906 119.484 305.691 c 53.574 110.5 l 50.992 102.843 51.758 
94.859 55.078 88.144 c 58.398 81.441 64.266 76.007 71.898 73.429 c 237.316
 17.578 l 244.973 14.992 252.957 15.754 259.672 19.078 c 266.367 22.398 
271.805 28.261 274.383 35.89 c 324.773 185.422 l 276.223 206.187 254.148
 239.699 244.117 266.707 c 227.801 266.593 212.664 275.816 205.336 290.609
 c 194.82 311.851 203.539 337.609 224.773 348.125 c 246.02 358.644 271.777
 349.925 282.293 328.687 c 287.164 318.851 288.281 307.156 284.492 295.937
 c 280.695 284.687 272.707 276.047 262.855 271.172 c 261.918 270.703 260.961
 270.273 259.988 269.875 c h
135.008 223 m 277.828 174.929 l 282.023 173.527 286.559 175.789 287.961
 179.984 c 289.367 184.175 287.105 188.715 282.91 190.117 c 140.094 238.187
 l 135.898 239.59 131.363 237.328 129.961 233.136 c 128.555 228.941 130.816
 224.402 135.008 223 c h
120.371 179.652 m 263.191 131.582 l 267.383 130.175 271.922 132.437 273.324
 136.632 c 274.727 140.828 272.465 145.363 268.273 146.765 c 125.457 194.836
 l 121.262 196.242 116.727 193.98 115.32 189.785 c 113.918 185.593 116.18
 181.054 120.371 179.652 c h
120.371 179.652 m f*
Q Q
showpage
%%Trailer
end restore
%%EOF
