%!PS-Adobe-3.0 EPSF-3.0
%%Creator: cairo 1.14.2 (http://cairographics.org)
%%CreationDate: Wed Oct  3 10:33:22 2018
%%Pages: 1
%%DocumentData: Clean7Bit
%%LanguageLevel: 2
%%BoundingBox: 0 47 410 362
%%EndComments
%%BeginProlog
save
50 dict begin
/q { gsave } bind def
/Q { grestore } bind def
/cm { 6 array astore concat } bind def
/w { setlinewidth } bind def
/J { setlinecap } bind def
/j { setlinejoin } bind def
/M { setmiterlimit } bind def
/d { setdash } bind def
/m { moveto } bind def
/l { lineto } bind def
/c { curveto } bind def
/h { closepath } bind def
/re { exch dup neg 3 1 roll 5 3 roll moveto 0 rlineto
      0 exch rlineto 0 rlineto closepath } bind def
/S { stroke } bind def
/f { fill } bind def
/f* { eofill } bind def
/n { newpath } bind def
/W { clip } bind def
/W* { eoclip } bind def
/BT { } bind def
/ET { } bind def
/pdfmark where { pop globaldict /?pdfmark /exec load put }
    { globaldict begin /?pdfmark /pop load def /pdfmark
    /cleartomark load def end } ifelse
/BDC { mark 3 1 roll /BDC pdfmark } bind def
/EMC { mark /EMC pdfmark } bind def
/cairo_store_point { /cairo_point_y exch def /cairo_point_x exch def } def
/Tj { show currentpoint cairo_store_point } bind def
/TJ {
  {
    dup
    type /stringtype eq
    { show } { -0.001 mul 0 cairo_font_matrix dtransform rmoveto } ifelse
  } forall
  currentpoint cairo_store_point
} bind def
/cairo_selectfont { cairo_font_matrix aload pop pop pop 0 0 6 array astore
    cairo_font exch selectfont cairo_point_x cairo_point_y moveto } bind def
/Tf { pop /cairo_font exch def /cairo_font_matrix where
      { pop cairo_selectfont } if } bind def
/Td { matrix translate cairo_font_matrix matrix concatmatrix dup
      /cairo_font_matrix exch def dup 4 get exch 5 get cairo_store_point
      /cairo_font where { pop cairo_selectfont } if } bind def
/Tm { 2 copy 8 2 roll 6 array astore /cairo_font_matrix exch def
      cairo_store_point /cairo_font where { pop cairo_selectfont } if } bind def
/g { setgray } bind def
/rg { setrgbcolor } bind def
/d1 { setcachedevice } bind def
%%EndProlog
%%BeginSetup
%%EndSetup
%%Page: 1 1
%%BeginPageSetup
%%PageBoundingBox: 0 47 410 362
%%EndPageSetup
q 0 47 410 315 rectclip q
0 g
203.133 129.92 m 31.91 129.92 l 23.125 129.92 15.148 133.51 9.367 139.288
 c 3.586 145.069 0 153.045 0 161.83 c 0 329.69 l 0 338.475 3.586 346.452
 9.367 352.233 c 15.148 358.014 23.125 361.6 31.91 361.6 c 349.574 361.6
 l 358.359 361.6 366.336 358.014 372.117 352.233 c 377.898 346.452 381.484
 338.475 381.484 329.69 c 381.484 224.198 l 398.926 205.522 409.602 180.452
 409.602 152.885 c 409.602 124.03 397.902 97.905 378.992 78.995 c 360.082
 60.084 333.957 48.385 305.102 48.385 c 276.242 48.385 250.117 60.084 231.211
 78.995 c 217.469 92.733 207.539 110.284 203.133 129.92 c h
99.324 185.545 m 94.906 185.545 91.324 189.123 91.324 193.545 c 91.324 
197.959 94.906 201.545 99.324 201.545 c 212.598 201.545 l 217.52 210.877
 223.812 219.377 231.211 226.776 c 232.539 228.108 233.906 229.401 235.305
 230.655 c 218.059 230.655 l 218.059 230.78 l 213.641 230.78 210.059 234.362
 210.059 238.78 c 210.059 243.198 213.641 246.78 218.059 246.78 c 259.188
 246.78 l 273.047 253.573 288.629 257.385 305.102 257.385 c 327.543 257.385
 348.332 250.311 365.363 238.268 c 365.363 329.69 l 365.363 334.022 363.586
 337.967 360.719 340.834 c 357.852 343.698 353.91 345.479 349.574 345.479
 c 31.91 345.479 l 27.574 345.479 23.633 343.698 20.766 340.834 c 17.902
 337.967 16.121 334.022 16.121 329.69 c 16.121 246.78 l 154.059 246.78 l
 158.477 246.78 162.059 243.198 162.059 238.78 c 162.059 234.362 158.477
 230.78 154.059 230.78 c 154.059 230.655 l 16.121 230.655 l 16.121 201.545
 l 35.324 201.545 l 39.742 201.545 43.324 197.959 43.324 193.545 c 43.324
 189.123 39.742 185.545 35.324 185.545 c 35.324 185.42 l 16.121 185.42 l
 16.121 161.83 l 16.121 157.498 17.902 153.553 20.766 150.686 c 23.633 147.823
 27.578 146.045 31.91 146.045 c 200.82 146.045 l 200.676 148.307 200.602
 150.588 200.602 152.885 c 200.602 164.245 202.414 175.182 205.77 185.42
 c 99.324 185.42 l h
67.324 201.545 m 62.906 201.545 59.324 197.959 59.324 193.545 c 59.324 
189.123 62.906 185.545 67.324 185.545 c 71.742 185.545 75.324 189.123 75.324
 193.545 c 75.324 197.963 71.742 201.545 67.324 201.545 c h
186.059 246.78 m 181.641 246.78 178.059 243.198 178.059 238.78 c 178.059
 234.362 181.641 230.78 186.059 230.78 c 190.477 230.78 194.059 234.362 
194.059 238.78 c 194.059 243.202 190.477 246.78 186.059 246.78 c h
305.102 241.26 m 281.539 241.26 259.199 231.967 242.609 215.377 c 226.617
 199.385 216.727 177.291 216.727 152.885 c 216.727 128.483 226.617 106.385
 242.609 90.393 c 258.602 74.405 280.695 64.51 305.102 64.51 c 329.508 64.51
 351.602 74.405 367.594 90.393 c 383.586 106.385 393.477 128.483 393.477
 152.885 c 393.477 201.69 353.914 241.26 305.102 241.26 c h
325.652 178.987 m 325.652 199.288 l 325.652 200.967 324.961 202.498 323.848
 203.608 c 322.73 204.725 321.203 205.42 319.523 205.42 c 293.098 205.42
 l 291.418 205.42 289.887 204.725 288.773 203.608 c 287.66 202.498 286.969
 200.967 286.969 199.288 c 286.969 178.987 l h
270.844 177.198 m 268.82 176.248 266.988 174.952 265.426 173.389 c 261.973
 169.936 259.828 165.163 259.828 159.909 c 259.828 107.166 l 259.828 101.909
 261.973 97.139 265.426 93.686 c 268.879 90.233 273.648 88.084 278.906 88.084
 c 333.715 88.084 l 338.973 88.084 343.742 90.233 347.195 93.686 c 350.648
 97.139 352.797 101.909 352.797 107.166 c 352.797 159.909 l 352.797 165.163
 350.648 169.936 347.195 173.389 c 345.633 174.952 343.805 176.248 341.777
 177.198 c 341.777 199.288 l 341.777 205.416 339.277 210.983 335.25 215.01
 c 331.219 219.041 325.652 221.541 319.527 221.541 c 293.098 221.541 l 286.969
 221.541 281.402 219.041 277.375 215.01 c 273.348 210.983 270.844 205.416
 270.844 199.288 c h
333.715 162.866 m 278.906 162.866 l 278.102 162.866 277.363 162.53 276.824
 161.991 c 276.285 161.452 275.949 160.713 275.949 159.909 c 275.949 107.166
 l 275.949 106.358 276.285 105.623 276.824 105.084 c 277.363 104.545 278.102
 104.209 278.906 104.209 c 333.715 104.209 l 334.52 104.209 335.258 104.545
 335.797 105.084 c 336.336 105.623 336.672 106.358 336.672 107.166 c 336.672
 159.909 l 336.672 160.713 336.336 161.452 335.797 161.991 c 335.258 162.53
 334.52 162.866 333.715 162.866 c h
314.371 124.686 m 314.371 142.389 l 314.371 146.842 310.762 150.452 306.309
 150.452 c 301.859 150.452 298.25 146.842 298.25 142.389 c 298.25 124.686
 l 298.25 120.233 301.859 116.623 306.309 116.623 c 310.762 116.623 314.371
 120.233 314.371 124.686 c h
46.504 282.534 m 93.055 282.534 l 97.508 282.534 101.117 286.143 101.117
 290.592 c 101.117 295.045 97.508 298.655 93.055 298.655 c 46.504 298.655
 l 42.051 298.655 38.441 295.045 38.441 290.592 c 38.441 286.143 42.051 
282.534 46.504 282.534 c h
288.43 282.534 m 334.98 282.534 l 339.434 282.534 343.043 286.143 343.043
 290.592 c 343.043 295.045 339.434 298.655 334.98 298.655 c 288.43 298.655
 l 283.98 298.655 280.371 295.045 280.371 290.592 c 280.371 286.143 283.98
 282.534 288.43 282.534 c h
207.789 282.534 m 254.336 282.534 l 258.789 282.534 262.398 286.143 262.398
 290.592 c 262.398 295.045 258.789 298.655 254.336 298.655 c 207.789 298.655
 l 203.336 298.655 199.727 295.045 199.727 290.592 c 199.727 286.143 203.336
 282.534 207.789 282.534 c h
127.148 282.534 m 173.695 282.534 l 178.148 282.534 181.758 286.143 181.758
 290.592 c 181.758 295.045 178.148 298.655 173.695 298.655 c 127.148 298.655
 l 122.695 298.655 119.086 295.045 119.086 290.592 c 119.086 286.143 122.695
 282.534 127.148 282.534 c h
127.148 282.534 m f*
Q Q
showpage
%%Trailer
end restore
%%EOF
