%!PS-Adobe-3.0 EPSF-3.0
%%Creator: cairo 1.14.2 (http://cairographics.org)
%%CreationDate: Wed Oct  3 10:33:22 2018
%%Pages: 1
%%DocumentData: Clean7Bit
%%LanguageLevel: 2
%%BoundingBox: 0 0 410 410
%%EndComments
%%BeginProlog
save
50 dict begin
/q { gsave } bind def
/Q { grestore } bind def
/cm { 6 array astore concat } bind def
/w { setlinewidth } bind def
/J { setlinecap } bind def
/j { setlinejoin } bind def
/M { setmiterlimit } bind def
/d { setdash } bind def
/m { moveto } bind def
/l { lineto } bind def
/c { curveto } bind def
/h { closepath } bind def
/re { exch dup neg 3 1 roll 5 3 roll moveto 0 rlineto
      0 exch rlineto 0 rlineto closepath } bind def
/S { stroke } bind def
/f { fill } bind def
/f* { eofill } bind def
/n { newpath } bind def
/W { clip } bind def
/W* { eoclip } bind def
/BT { } bind def
/ET { } bind def
/pdfmark where { pop globaldict /?pdfmark /exec load put }
    { globaldict begin /?pdfmark /pop load def /pdfmark
    /cleartomark load def end } ifelse
/BDC { mark 3 1 roll /BDC pdfmark } bind def
/EMC { mark /EMC pdfmark } bind def
/cairo_store_point { /cairo_point_y exch def /cairo_point_x exch def } def
/Tj { show currentpoint cairo_store_point } bind def
/TJ {
  {
    dup
    type /stringtype eq
    { show } { -0.001 mul 0 cairo_font_matrix dtransform rmoveto } ifelse
  } forall
  currentpoint cairo_store_point
} bind def
/cairo_selectfont { cairo_font_matrix aload pop pop pop 0 0 6 array astore
    cairo_font exch selectfont cairo_point_x cairo_point_y moveto } bind def
/Tf { pop /cairo_font exch def /cairo_font_matrix where
      { pop cairo_selectfont } if } bind def
/Td { matrix translate cairo_font_matrix matrix concatmatrix dup
      /cairo_font_matrix exch def dup 4 get exch 5 get cairo_store_point
      /cairo_font where { pop cairo_selectfont } if } bind def
/Tm { 2 copy 8 2 roll 6 array astore /cairo_font_matrix exch def
      cairo_store_point /cairo_font where { pop cairo_selectfont } if } bind def
/g { setgray } bind def
/rg { setrgbcolor } bind def
/d1 { setcachedevice } bind def
%%EndProlog
%%BeginSetup
%%EndSetup
%%Page: 1 1
%%BeginPageSetup
%%PageBoundingBox: 0 0 410 410
%%EndPageSetup
q 0 0 410 410 rectclip q
0 g
256.117 18.623 m 231.93 -1.349 197.332 -3.787 160.863 8.452 c 125.633 20.28
 88.418 45.936 57.504 82.651 c 57.273 82.893 57.055 83.151 56.859 83.416
 c 26.055 120.26 7.242 161.373 1.723 198.108 c -4.023 236.362 4.531 270.186
 28.754 290.514 c 28.914 290.643 l 34.922 295.526 43.992 294.33 53.832 288.424
 c 61.336 283.924 69.906 276.483 77.809 267.135 c 78.035 266.897 78.242 
266.651 78.43 266.397 c 86.102 257.186 94.371 244.713 99.977 233.827 c 107.102
 220.002 109.719 207.35 103.137 201.827 c 95.66 195.553 91.426 186.764 90.629
 177.663 c 89.832 168.549 92.48 159.147 98.766 151.655 c 132.008 112.045
 l 138.281 104.561 147.07 100.327 156.172 99.53 c 165.285 98.733 174.688
 101.385 182.18 107.67 c 188.734 113.17 200.73 108.389 213.102 98.979 c 
230.336 85.87 250.945 64.827 258.898 44.061 c 262.91 33.584 262.609 24.608
 257.102 19.467 c 256.793 19.155 256.465 18.873 256.117 18.623 c h
299.992 70.522 m 296.07 68.53 294.543 63.666 296.578 59.655 c 298.617 55.643
 303.445 54.002 307.367 55.995 c 333.227 69.112 355.625 88.092 372.809 111.186
 c 395.922 142.245 409.602 180.717 409.602 222.358 c 409.602 273.842 388.73
 320.452 354.992 354.19 c 321.254 387.932 274.641 408.799 223.16 408.799
 c 187.348 408.799 153.859 398.67 125.402 381.112 c 105.352 368.737 87.766
 352.623 73.672 333.737 c 67.688 325.733 80.609 315.866 86.695 324.014 c
 99.57 341.264 115.633 355.971 133.945 367.276 c 159.852 383.252 190.406
 392.475 223.16 392.475 c 270.137 392.475 312.664 373.436 343.449 342.651
 c 374.234 311.866 393.273 269.334 393.273 222.358 c 393.273 184.307 380.805
 149.19 359.738 120.877 c 344.062 99.811 323.617 82.495 299.992 70.526 c
 h
274.207 59.518 m 278.621 59.518 282.207 55.936 282.207 51.518 c 282.207
 47.1 278.621 43.518 274.207 43.518 c 269.789 43.518 266.207 47.1 266.207
 51.518 c 266.207 55.936 269.789 59.518 274.207 59.518 c h
63.535 310.084 m 59.117 310.084 55.535 306.502 55.535 302.084 c 55.535 
297.666 59.117 294.084 63.535 294.084 c 67.949 294.084 71.535 297.666 71.535
 302.084 c 71.535 306.502 67.949 310.084 63.535 310.084 c h
334.781 178.209 m 334.781 173.702 331.129 170.045 326.617 170.045 c 322.113
 170.045 318.457 173.702 318.457 178.209 c 318.457 214.198 l 276.449 214.198
 l 276.449 214.233 l 274.617 214.229 272.773 214.846 271.254 216.108 c 267.805
 218.979 267.332 224.104 270.203 227.557 c 319.895 287.186 l 321.367 289.327
 323.828 290.725 326.617 290.725 c 331.129 290.725 334.781 287.069 334.781
 282.561 c 334.781 230.522 l 344.68 230.522 l 349.188 230.522 352.844 226.866
 352.844 222.358 c 352.844 217.85 349.188 214.198 344.68 214.198 c 334.781
 214.198 l h
318.457 230.518 m 293.836 230.518 l 318.457 260.069 l h
200.324 250.452 m 200.324 257.065 203.004 263.053 207.336 267.389 c 211.668
 271.717 217.656 274.401 224.27 274.401 c 230.883 274.401 236.871 271.717
 241.203 267.389 c 245.539 263.053 248.215 257.065 248.215 250.452 c 248.215
 244.135 245.801 239.534 241.766 235.702 c 236.953 231.135 229.621 227.205
 221.148 222.983 c 200.641 212.748 184.969 182.03 184.926 181.94 c 182.867
 177.944 184.434 173.03 188.43 170.971 c 189.629 170.358 190.906 170.061
 192.164 170.065 c 192.164 170.045 l 256.379 170.045 l 260.883 170.045 264.539
 173.702 264.539 178.209 c 264.539 182.717 260.883 186.373 256.379 186.373
 c 206.551 186.373 l 211.914 194.319 219.801 204.077 228.422 208.377 c 238.066
 213.186 246.531 217.78 252.988 223.905 c 260.215 230.768 264.539 239.041
 264.539 250.452 c 264.539 261.573 260.035 271.639 252.742 278.928 c 245.457
 286.217 235.391 290.725 224.27 290.725 c 213.148 290.725 203.086 286.217
 195.797 278.928 c 188.508 271.639 184 261.573 184 250.452 c 184 245.948
 187.652 242.291 192.164 242.291 c 196.668 242.291 200.324 245.948 200.324
 250.452 c h
166.027 23.885 m 197.352 13.37 226.508 15.061 246.066 31.452 c 246.102 
31.483 l 246.18 31.545 245.242 34.127 243.66 38.256 c 236.902 55.901 217.762
 75.018 203.281 86.034 c 196.828 90.944 191.125 93.944 190.664 93.561 c 
179.719 84.377 168.004 82.112 154.77 83.272 c 141.52 84.432 128.699 90.627
 119.508 101.584 c 86.266 141.198 l 77.082 152.143 73.211 165.83 74.367 
179.065 c 75.527 192.311 80.73 204.28 91.688 213.471 c 87.242 227.248 68.836
 252.483 65.629 256.299 c 58.785 264.452 51.586 270.795 45.477 274.459 c
 41.852 276.635 39.508 277.979 39.234 278.014 c 39.129 277.928 39.023 277.842
 38.914 277.76 c 19.609 261.327 12.969 233.045 17.852 200.53 c 22.973 166.455
 40.648 128.084 69.672 93.498 c 69.676 93.495 l 98.695 58.905 133.391 34.842
 166.027 23.885 c h
166.027 23.885 m f*
Q Q
showpage
%%Trailer
end restore
%%EOF
