%!PS-Adobe-3.0 EPSF-3.0
%%Creator: cairo 1.14.2 (http://cairographics.org)
%%CreationDate: Wed Oct  3 10:33:22 2018
%%Pages: 1
%%DocumentData: Clean7Bit
%%LanguageLevel: 2
%%BoundingBox: 10 -1 400 410
%%EndComments
%%BeginProlog
save
50 dict begin
/q { gsave } bind def
/Q { grestore } bind def
/cm { 6 array astore concat } bind def
/w { setlinewidth } bind def
/J { setlinecap } bind def
/j { setlinejoin } bind def
/M { setmiterlimit } bind def
/d { setdash } bind def
/m { moveto } bind def
/l { lineto } bind def
/c { curveto } bind def
/h { closepath } bind def
/re { exch dup neg 3 1 roll 5 3 roll moveto 0 rlineto
      0 exch rlineto 0 rlineto closepath } bind def
/S { stroke } bind def
/f { fill } bind def
/f* { eofill } bind def
/n { newpath } bind def
/W { clip } bind def
/W* { eoclip } bind def
/BT { } bind def
/ET { } bind def
/pdfmark where { pop globaldict /?pdfmark /exec load put }
    { globaldict begin /?pdfmark /pop load def /pdfmark
    /cleartomark load def end } ifelse
/BDC { mark 3 1 roll /BDC pdfmark } bind def
/EMC { mark /EMC pdfmark } bind def
/cairo_store_point { /cairo_point_y exch def /cairo_point_x exch def } def
/Tj { show currentpoint cairo_store_point } bind def
/TJ {
  {
    dup
    type /stringtype eq
    { show } { -0.001 mul 0 cairo_font_matrix dtransform rmoveto } ifelse
  } forall
  currentpoint cairo_store_point
} bind def
/cairo_selectfont { cairo_font_matrix aload pop pop pop 0 0 6 array astore
    cairo_font exch selectfont cairo_point_x cairo_point_y moveto } bind def
/Tf { pop /cairo_font exch def /cairo_font_matrix where
      { pop cairo_selectfont } if } bind def
/Td { matrix translate cairo_font_matrix matrix concatmatrix dup
      /cairo_font_matrix exch def dup 4 get exch 5 get cairo_store_point
      /cairo_font where { pop cairo_selectfont } if } bind def
/Tm { 2 copy 8 2 roll 6 array astore /cairo_font_matrix exch def
      cairo_store_point /cairo_font where { pop cairo_selectfont } if } bind def
/g { setgray } bind def
/rg { setrgbcolor } bind def
/d1 { setcachedevice } bind def
%%EndProlog
%%BeginSetup
%%EndSetup
%%Page: 1 1
%%BeginPageSetup
%%PageBoundingBox: 10 -1 400 410
%%EndPageSetup
q 10 -1 390 411 rectclip q
0 g
362.789 224.538 m 362.789 8.015 l 362.789 3.589 359.199 -0.001 354.773 
-0.001 c 55.09 -0.001 l 50.664 -0.001 47.078 3.589 47.078 8.015 c 47.078
 224.538 l 18.414 224.538 l 13.988 224.538 10.398 228.124 10.398 232.55 
c 10.398 265.647 l 10.398 268.589 11.984 271.155 14.344 272.55 c 200.238
 408.073 l 203.152 410.194 207.023 410.054 209.758 407.979 c 396.145 272.097
 l 398.289 270.538 399.426 268.108 399.426 265.647 c 399.461 232.546 l 399.461
 228.124 395.875 224.534 391.449 224.534 c 362.789 224.534 l h
236.934 43.292 m 236.934 43.276 l 268.836 43.276 l 269.418 43.276 270.055
 43.304 270.73 43.358 c 276.617 43.839 282.117 46.511 286.141 50.561 c 290.289
 54.737 292.922 60.374 292.922 66.628 c 292.922 67.171 292.898 67.765 292.844
 68.413 c 280.824 216.679 l 280.297 223.163 277.602 229.132 273.395 233.464
 c 269.137 237.847 263.41 240.561 256.816 240.561 c 251.172 240.561 l 251.172
 266.811 l 251.172 279.534 245.973 291.097 237.598 299.472 c 229.219 307.851
 217.656 313.05 204.934 313.05 c 192.211 313.05 180.648 307.851 172.273 
299.472 c 163.895 291.093 158.695 279.534 158.695 266.811 c 158.695 240.561
 l 153.051 240.561 l 146.461 240.561 140.73 237.847 136.473 233.464 c 132.262
 229.132 129.57 223.167 129.043 216.679 c 117.023 68.413 l 116.973 67.765
 116.945 67.171 116.945 66.628 c 116.945 60.374 119.578 54.737 123.727 50.561
 c 127.746 46.511 133.246 43.839 139.133 43.358 c 139.812 43.304 140.445
 43.276 141.031 43.276 c 172.934 43.276 l 172.934 43.292 l 177.352 43.292
 180.934 46.874 180.934 51.292 c 180.934 55.706 177.352 59.292 172.934 59.292
 c 172.934 59.304 l 141.031 59.304 l 140.766 59.304 140.551 59.311 140.387
 59.323 c 138.363 59.483 136.461 60.417 135.055 61.827 c 133.781 63.112 
132.973 64.8 132.973 66.628 c 132.973 66.851 132.977 67.03 132.988 67.159
 c 145.008 215.429 l 145.23 218.186 146.289 220.64 147.93 222.323 c 149.258
 223.69 151.027 224.538 153.051 224.538 c 158.695 224.538 l 158.695 198.292
 l 158.695 193.862 162.281 190.276 166.707 190.276 c 171.133 190.276 174.719
 193.862 174.719 198.292 c 174.719 224.538 l 235.148 224.538 l 235.148 198.292
 l 235.148 193.862 238.734 190.276 243.16 190.276 c 247.586 190.276 251.172
 193.862 251.172 198.292 c 251.172 224.538 l 256.816 224.538 l 258.836 224.538
 260.609 223.69 261.938 222.323 c 263.578 220.636 264.637 218.186 264.859
 215.429 c 276.883 67.159 l 276.891 67.03 276.898 66.851 276.898 66.628 
c 276.898 64.804 276.086 63.112 274.809 61.827 c 273.41 60.417 271.508 59.483
 269.477 59.323 c 269.316 59.311 269.102 59.304 268.836 59.304 c 236.934
 59.304 l 236.934 59.292 l 232.516 59.292 228.934 55.706 228.934 51.292 
c 228.934 46.87 232.516 43.292 236.934 43.292 c h
204.934 59.292 m 200.516 59.292 196.934 55.706 196.934 51.292 c 196.934
 46.874 200.516 43.292 204.934 43.292 c 209.352 43.292 212.934 46.874 212.934
 51.292 c 212.934 55.706 209.352 59.292 204.934 59.292 c h
235.148 240.561 m 235.148 266.811 l 235.148 275.112 231.742 282.663 226.266
 288.143 c 220.785 293.624 213.23 297.026 204.93 297.026 c 196.633 297.026
 189.082 293.624 183.602 288.143 c 178.117 282.663 174.719 275.112 174.719
 266.811 c 174.719 240.561 l h
346.762 16.026 m 346.762 232.55 l 346.762 236.976 350.348 240.561 354.773
 240.561 c 383.438 240.561 l 383.438 261.62 l 204.934 391.753 l 26.43 261.62
 l 26.43 240.561 l 55.09 240.561 l 59.516 240.561 63.105 236.976 63.105 
232.55 c 63.105 16.026 l h
346.762 16.026 m f*
Q Q
showpage
%%Trailer
end restore
%%EOF
