%!PS-Adobe-3.0 EPSF-3.0
%%Creator: cairo 1.14.2 (http://cairographics.org)
%%CreationDate: Wed Oct  3 10:33:22 2018
%%Pages: 1
%%DocumentData: Clean7Bit
%%LanguageLevel: 2
%%BoundingBox: 0 -1 410 409
%%EndComments
%%BeginProlog
save
50 dict begin
/q { gsave } bind def
/Q { grestore } bind def
/cm { 6 array astore concat } bind def
/w { setlinewidth } bind def
/J { setlinecap } bind def
/j { setlinejoin } bind def
/M { setmiterlimit } bind def
/d { setdash } bind def
/m { moveto } bind def
/l { lineto } bind def
/c { curveto } bind def
/h { closepath } bind def
/re { exch dup neg 3 1 roll 5 3 roll moveto 0 rlineto
      0 exch rlineto 0 rlineto closepath } bind def
/S { stroke } bind def
/f { fill } bind def
/f* { eofill } bind def
/n { newpath } bind def
/W { clip } bind def
/W* { eoclip } bind def
/BT { } bind def
/ET { } bind def
/pdfmark where { pop globaldict /?pdfmark /exec load put }
    { globaldict begin /?pdfmark /pop load def /pdfmark
    /cleartomark load def end } ifelse
/BDC { mark 3 1 roll /BDC pdfmark } bind def
/EMC { mark /EMC pdfmark } bind def
/cairo_store_point { /cairo_point_y exch def /cairo_point_x exch def } def
/Tj { show currentpoint cairo_store_point } bind def
/TJ {
  {
    dup
    type /stringtype eq
    { show } { -0.001 mul 0 cairo_font_matrix dtransform rmoveto } ifelse
  } forall
  currentpoint cairo_store_point
} bind def
/cairo_selectfont { cairo_font_matrix aload pop pop pop 0 0 6 array astore
    cairo_font exch selectfont cairo_point_x cairo_point_y moveto } bind def
/Tf { pop /cairo_font exch def /cairo_font_matrix where
      { pop cairo_selectfont } if } bind def
/Td { matrix translate cairo_font_matrix matrix concatmatrix dup
      /cairo_font_matrix exch def dup 4 get exch 5 get cairo_store_point
      /cairo_font where { pop cairo_selectfont } if } bind def
/Tm { 2 copy 8 2 roll 6 array astore /cairo_font_matrix exch def
      cairo_store_point /cairo_font where { pop cairo_selectfont } if } bind def
/g { setgray } bind def
/rg { setrgbcolor } bind def
/d1 { setcachedevice } bind def
%%EndProlog
%%BeginSetup
%%EndSetup
%%Page: 1 1
%%BeginPageSetup
%%PageBoundingBox: 0 -1 410 409
%%EndPageSetup
q 0 -1 410 410 rectclip q
0 g
172.582 408.402 m 220.238 408.402 263.383 389.085 294.613 357.851 c 325.844
 326.62 345.164 283.476 345.164 235.82 c 345.164 202.605 335.773 171.577
 319.508 145.249 c 397.438 67.323 l 410.848 53.917 412.07 37.902 406.414
 24.636 c 404.258 19.577 401.105 14.98 397.262 11.136 c 393.418 7.296 388.82
 4.148 383.766 1.991 c 370.5 -3.669 354.484 -2.442 341.078 10.964 c 263.148
 88.89 l 236.82 72.628 205.801 63.241 172.582 63.241 c 124.926 63.241 81.781
 82.558 50.551 113.788 c 19.32 145.019 0 188.163 0 235.82 c 0 283.476 19.32
 326.62 50.551 357.851 c 81.781 389.081 124.926 408.402 172.582 408.402 
c h
140.602 161.601 m 100.953 161.601 l 87.773 256.89 l 257.391 256.89 l 244.207
 161.601 l 204.211 161.601 l 204.211 161.593 l 199.965 161.398 196.586 157.894
 196.586 153.605 c 196.586 149.312 199.965 145.812 204.211 145.616 c 204.223
 145.616 l 204.34 145.609 204.461 145.605 204.586 145.605 c 204.707 145.605
 204.828 145.609 204.949 145.616 c 251.16 145.62 l 255.086 145.616 258.508
 148.511 259.062 152.507 c 273.504 256.89 l 287.723 256.89 l 292.141 256.89
 295.723 260.472 295.723 264.89 c 295.723 269.308 292.141 272.89 287.723
 272.89 c 255.43 272.89 l 214.195 335.046 l 211.762 338.722 206.809 339.73
 203.133 337.296 c 199.461 334.862 198.453 329.913 200.883 326.234 c 236.273
 272.89 l 108.891 272.89 l 144.277 326.234 l 146.711 329.913 145.703 334.862
 142.027 337.296 c 138.352 339.73 133.398 338.722 130.965 335.046 c 89.73
 272.89 l 57.441 272.89 l 53.023 272.89 49.441 269.308 49.441 264.89 c 49.441
 260.472 53.023 256.89 57.441 256.89 c 71.66 256.89 l 86.023 153.042 l 86.309
 148.886 89.773 145.605 94.004 145.605 c 140.602 145.605 l 145.02 145.605
 148.602 149.187 148.602 153.605 c 148.602 158.023 145.02 161.601 140.602
 161.601 c h
172.594 161.601 m 168.176 161.601 164.594 158.023 164.594 153.605 c 164.594
 149.187 168.176 145.605 172.594 145.605 c 177.008 145.605 180.59 149.187
 180.59 153.605 c 180.59 158.023 177.008 161.601 172.594 161.601 c h
126.68 235.386 m 126.68 183.105 l 126.68 178.691 130.258 175.105 134.676
 175.105 c 139.094 175.105 142.676 178.691 142.676 183.105 c 142.676 235.386
 l 142.676 239.804 139.094 243.382 134.676 243.382 c 130.258 243.382 126.68
 239.804 126.68 235.386 c h
202.484 235.386 m 202.484 183.105 l 202.484 178.691 206.07 175.105 210.484
 175.105 c 214.902 175.105 218.484 178.691 218.484 183.105 c 218.484 235.386
 l 218.484 239.804 214.902 243.382 210.484 243.382 c 206.07 243.382 202.484
 239.804 202.484 235.386 c h
164.582 235.386 m 164.582 183.105 l 164.582 178.691 168.164 175.105 172.582
 175.105 c 177 175.105 180.582 178.691 180.582 183.105 c 180.582 235.386
 l 180.582 239.804 177 243.382 172.582 243.382 c 168.164 243.382 164.582
 239.804 164.582 235.386 c h
310.316 131.823 m 305.5 125.452 300.25 119.425 294.613 113.788 c 288.977
 108.152 282.945 102.902 276.578 98.085 c 352.391 22.273 l 360.438 14.226
 369.836 13.398 377.52 16.675 c 380.609 17.995 383.488 19.984 385.953 22.448
 c 388.414 24.913 390.406 27.792 391.727 30.886 c 395.004 38.57 394.176 
47.964 386.129 56.011 c h
283.301 346.542 m 254.965 374.874 215.82 392.402 172.582 392.402 c 129.34
 392.402 90.195 374.874 61.859 346.542 c 33.523 318.206 16 279.058 16 235.823
 c 16 192.581 33.523 153.433 61.859 125.101 c 90.195 96.765 129.34 79.241
 172.582 79.241 c 215.82 79.241 254.965 96.765 283.301 125.101 c 311.637
 153.433 329.164 192.581 329.164 235.823 c 329.164 279.058 311.637 318.206
 283.301 346.542 c h
283.301 346.542 m f*
Q Q
showpage
%%Trailer
end restore
%%EOF
