%!PS-Adobe-3.0 EPSF-3.0
%%Creator: cairo 1.14.2 (http://cairographics.org)
%%CreationDate: Wed Oct  3 10:33:22 2018
%%Pages: 1
%%DocumentData: Clean7Bit
%%LanguageLevel: 2
%%BoundingBox: 0 39 409 368
%%EndComments
%%BeginProlog
save
50 dict begin
/q { gsave } bind def
/Q { grestore } bind def
/cm { 6 array astore concat } bind def
/w { setlinewidth } bind def
/J { setlinecap } bind def
/j { setlinejoin } bind def
/M { setmiterlimit } bind def
/d { setdash } bind def
/m { moveto } bind def
/l { lineto } bind def
/c { curveto } bind def
/h { closepath } bind def
/re { exch dup neg 3 1 roll 5 3 roll moveto 0 rlineto
      0 exch rlineto 0 rlineto closepath } bind def
/S { stroke } bind def
/f { fill } bind def
/f* { eofill } bind def
/n { newpath } bind def
/W { clip } bind def
/W* { eoclip } bind def
/BT { } bind def
/ET { } bind def
/pdfmark where { pop globaldict /?pdfmark /exec load put }
    { globaldict begin /?pdfmark /pop load def /pdfmark
    /cleartomark load def end } ifelse
/BDC { mark 3 1 roll /BDC pdfmark } bind def
/EMC { mark /EMC pdfmark } bind def
/cairo_store_point { /cairo_point_y exch def /cairo_point_x exch def } def
/Tj { show currentpoint cairo_store_point } bind def
/TJ {
  {
    dup
    type /stringtype eq
    { show } { -0.001 mul 0 cairo_font_matrix dtransform rmoveto } ifelse
  } forall
  currentpoint cairo_store_point
} bind def
/cairo_selectfont { cairo_font_matrix aload pop pop pop 0 0 6 array astore
    cairo_font exch selectfont cairo_point_x cairo_point_y moveto } bind def
/Tf { pop /cairo_font exch def /cairo_font_matrix where
      { pop cairo_selectfont } if } bind def
/Td { matrix translate cairo_font_matrix matrix concatmatrix dup
      /cairo_font_matrix exch def dup 4 get exch 5 get cairo_store_point
      /cairo_font where { pop cairo_selectfont } if } bind def
/Tm { 2 copy 8 2 roll 6 array astore /cairo_font_matrix exch def
      cairo_store_point /cairo_font where { pop cairo_selectfont } if } bind def
/g { setgray } bind def
/rg { setrgbcolor } bind def
/d1 { setcachedevice } bind def
%%EndProlog
%%BeginSetup
%%EndSetup
%%Page: 1 1
%%BeginPageSetup
%%PageBoundingBox: 0 39 409 368
%%EndPageSetup
q 0 39 409 329 rectclip q
0 g
52.555 367.601 m 281.582 367.601 l 286.016 367.601 289.609 364.007 289.609
 359.573 c 289.609 355.136 286.016 351.542 281.582 351.542 c 52.555 351.542
 l 42.309 351.542 32.984 347.343 26.223 340.577 c 19.457 333.816 15.258 
324.495 15.258 314.245 c 15.258 177.878 l 15.258 167.628 19.457 158.308 
26.223 151.542 c 32.984 144.777 42.305 140.577 52.555 140.577 c 62.172 140.573
 l 62.172 140.55 l 66.598 140.55 70.188 136.964 70.188 132.534 c 70.188 
128.109 66.598 124.519 62.172 124.519 c 52.555 124.519 l 37.875 124.519 
24.535 130.523 14.867 140.187 c 5.199 149.855 -0.801 163.198 -0.801 177.878
 c -0.801 314.245 l -0.801 328.925 5.199 342.265 14.867 351.933 c 24.535
 361.601 37.875 367.601 52.555 367.601 c h
126.285 124.523 m 150.719 124.523 l 166.152 97.788 181.574 71.046 197.008
 44.312 c 197.688 43.097 198.695 42.042 199.984 41.292 c 203.812 39.077 
208.711 40.386 210.93 44.214 c 226.395 70.991 241.82 97.745 257.277 124.523
 c 355.445 124.523 l 370.125 124.523 383.465 130.523 393.133 140.187 c 402.797
 149.855 408.801 163.198 408.801 177.878 c 408.801 314.245 l 408.801 328.925
 402.797 342.265 393.133 351.933 c 383.465 361.601 370.125 367.601 355.445
 367.601 c 345.812 367.601 l 341.379 367.601 337.785 364.007 337.785 359.573
 c 337.785 355.136 341.379 351.542 345.812 351.542 c 355.445 351.542 l 365.691
 351.542 375.016 347.343 381.777 340.577 c 388.543 333.816 392.742 324.495
 392.742 314.245 c 392.742 177.878 l 392.742 167.628 388.543 158.308 381.777
 151.542 c 375.016 144.777 365.691 140.577 355.445 140.577 c 252.684 140.577
 l 249.441 140.577 246.645 138.652 245.379 135.886 c 231.586 111.991 217.793
 88.136 204 64.245 c 190.086 88.343 176.16 112.433 162.246 136.534 c 160.77
 139.105 158.082 140.542 155.316 140.542 c 126.285 140.558 l 126.285 140.55
 l 121.859 140.55 118.273 136.964 118.273 132.534 c 118.273 128.109 121.859
 124.523 126.285 124.523 c h
94.227 140.55 m 89.805 140.55 86.211 136.964 86.211 132.534 c 86.211 128.109
 89.801 124.519 94.227 124.519 c 98.652 124.519 102.242 128.109 102.242 
132.534 c 102.242 136.96 98.652 140.55 94.227 140.55 c h
313.695 367.601 m 318.133 367.601 321.727 364.007 321.727 359.573 c 321.727
 355.136 318.133 351.542 313.695 351.542 c 309.262 351.542 305.668 355.136
 305.668 359.573 c 305.668 364.007 309.262 367.601 313.695 367.601 c h
91.008 296.448 m 90.289 297.823 89.168 299.003 87.703 299.792 c 83.805 
301.886 78.945 300.429 76.852 296.53 c 63.852 272.37 l 37.301 267.554 l 
35.664 267.347 34.082 266.636 32.797 265.413 c 29.59 262.362 29.465 257.292
 32.512 254.089 c 51.48 234.257 l 47.832 207.339 l 47.562 205.761 47.766
 204.085 48.516 202.53 c 50.438 198.546 55.227 196.874 59.211 198.796 c 
83.906 210.695 l 108.605 198.8 l 109.969 198.14 111.539 197.859 113.152 
198.077 c 117.535 198.667 120.609 202.698 120.023 207.077 c 116.336 234.257
 l 135.305 254.089 l 135.293 254.097 l 136.34 255.195 137.086 256.597 137.371
 258.198 c 138.152 262.546 135.258 266.702 130.914 267.48 c 103.961 272.37
 l h
91.668 261.394 m 83.91 275.823 l 81.344 271.058 76.77 258.441 70.5 257.32
 c 54.383 254.394 l 58.117 250.491 68.711 242.237 67.867 235.937 c 65.664
 219.687 l 80.43 226.8 l 82.551 227.823 85.102 227.902 87.391 226.8 c 102.152
 219.687 l 99.973 235.753 l 99.602 238.128 100.293 240.648 102.082 242.527
 c 113.43 254.398 l 97.781 257.234 l 95.281 257.53 92.953 259.003 91.668
 261.394 c h
331.191 296.448 m 330.477 297.823 329.352 299.003 327.887 299.792 c 323.988
 301.886 319.133 300.429 317.035 296.53 c 304.039 272.37 l 277.48 267.554
 l 275.848 267.347 274.266 266.636 272.977 265.413 c 269.773 262.362 269.648
 257.292 272.695 254.089 c 291.664 234.257 l 288.012 207.339 l 287.746 205.761
 287.949 204.085 288.699 202.53 c 290.621 198.546 295.41 196.874 299.395
 198.796 c 324.09 210.695 l 348.789 198.8 l 350.152 198.14 351.719 197.859
 353.336 198.077 c 357.719 198.667 360.789 202.698 360.203 207.077 c 356.52
 234.257 l 375.488 254.089 l 375.477 254.097 l 376.523 255.195 377.27 256.597
 377.555 258.198 c 378.336 262.546 375.445 266.702 371.094 267.48 c 344.148
 272.37 l h
331.852 261.394 m 333.137 259.003 335.461 257.53 337.969 257.23 c 353.617
 254.394 l 342.266 242.527 l 340.48 240.648 339.785 238.128 340.16 235.753
 c 342.336 219.687 l 327.574 226.8 l 325.289 227.902 322.734 227.823 320.613
 226.8 c 305.852 219.687 l 308.055 235.937 l 308.387 238.437 307.531 240.823
 305.918 242.523 c 294.57 254.394 l 310.688 257.316 l 313.184 257.765 315.203
 259.327 316.32 261.402 c 324.094 275.82 l h
211.102 296.448 m 210.383 297.823 209.262 299.003 207.793 299.792 c 203.898
 301.886 199.039 300.429 196.941 296.53 c 183.945 272.37 l 157.391 267.554
 l 155.758 267.347 154.172 266.636 152.887 265.413 c 149.684 262.362 149.555
 257.292 152.602 254.089 c 171.57 234.257 l 167.922 207.339 l 167.652 205.761
 167.859 204.085 168.605 202.53 c 170.527 198.546 175.32 196.874 179.305
 198.796 c 204 210.695 l 228.695 198.8 l 230.062 198.14 231.629 197.859 
233.242 198.077 c 237.625 198.667 240.699 202.698 240.113 207.077 c 236.43
 234.257 l 255.395 254.089 l 255.387 254.097 l 256.43 255.195 257.176 256.597
 257.465 258.198 c 258.242 262.546 255.352 266.702 251.004 267.48 c 224.055
 272.37 l h
211.762 261.394 m 204 275.823 l 201.438 271.058 196.863 258.441 190.594
 257.32 c 174.477 254.394 l 178.211 250.491 188.805 242.237 187.961 235.937
 c 185.758 219.687 l 200.52 226.8 l 202.641 227.823 205.195 227.902 207.48
 226.8 c 222.242 219.687 l 220.066 235.753 l 219.691 238.128 220.387 240.648
 222.172 242.527 c 233.523 254.398 l 217.875 257.234 l 215.371 257.53 213.047
 259.003 211.762 261.394 c h
211.762 261.394 m f*
Q Q
showpage
%%Trailer
end restore
%%EOF
