%!PS-Adobe-3.0 EPSF-3.0
%%Creator: cairo 1.14.2 (http://cairographics.org)
%%CreationDate: Wed Oct  3 10:33:22 2018
%%Pages: 1
%%DocumentData: Clean7Bit
%%LanguageLevel: 2
%%BoundingBox: 0 2 410 407
%%EndComments
%%BeginProlog
save
50 dict begin
/q { gsave } bind def
/Q { grestore } bind def
/cm { 6 array astore concat } bind def
/w { setlinewidth } bind def
/J { setlinecap } bind def
/j { setlinejoin } bind def
/M { setmiterlimit } bind def
/d { setdash } bind def
/m { moveto } bind def
/l { lineto } bind def
/c { curveto } bind def
/h { closepath } bind def
/re { exch dup neg 3 1 roll 5 3 roll moveto 0 rlineto
      0 exch rlineto 0 rlineto closepath } bind def
/S { stroke } bind def
/f { fill } bind def
/f* { eofill } bind def
/n { newpath } bind def
/W { clip } bind def
/W* { eoclip } bind def
/BT { } bind def
/ET { } bind def
/pdfmark where { pop globaldict /?pdfmark /exec load put }
    { globaldict begin /?pdfmark /pop load def /pdfmark
    /cleartomark load def end } ifelse
/BDC { mark 3 1 roll /BDC pdfmark } bind def
/EMC { mark /EMC pdfmark } bind def
/cairo_store_point { /cairo_point_y exch def /cairo_point_x exch def } def
/Tj { show currentpoint cairo_store_point } bind def
/TJ {
  {
    dup
    type /stringtype eq
    { show } { -0.001 mul 0 cairo_font_matrix dtransform rmoveto } ifelse
  } forall
  currentpoint cairo_store_point
} bind def
/cairo_selectfont { cairo_font_matrix aload pop pop pop 0 0 6 array astore
    cairo_font exch selectfont cairo_point_x cairo_point_y moveto } bind def
/Tf { pop /cairo_font exch def /cairo_font_matrix where
      { pop cairo_selectfont } if } bind def
/Td { matrix translate cairo_font_matrix matrix concatmatrix dup
      /cairo_font_matrix exch def dup 4 get exch 5 get cairo_store_point
      /cairo_font where { pop cairo_selectfont } if } bind def
/Tm { 2 copy 8 2 roll 6 array astore /cairo_font_matrix exch def
      cairo_store_point /cairo_font where { pop cairo_selectfont } if } bind def
/g { setgray } bind def
/rg { setrgbcolor } bind def
/d1 { setcachedevice } bind def
%%EndProlog
%%BeginSetup
%%EndSetup
%%Page: 1 1
%%BeginPageSetup
%%PageBoundingBox: 0 2 410 407
%%EndPageSetup
q 0 2 410 405 rectclip q
0 g
359.527 305.838 m 347.199 305.838 l 345.418 305.838 343.797 305.108 342.617
 303.92 c 341.434 302.741 340.703 301.12 340.703 299.342 c 340.703 195.627
 l 340.703 193.85 341.434 192.229 342.617 191.045 c 343.797 189.862 345.418
 189.131 347.199 189.131 c 359.527 189.131 l 368.883 189.131 377.398 192.967
 383.574 199.139 c 389.754 205.319 393.586 213.83 393.586 223.186 c 393.586
 271.78 l 393.586 281.139 389.754 289.651 383.574 295.827 c 377.398 302.002
 368.883 305.838 359.527 305.838 c h
204.801 118.03 m 209.219 118.03 212.801 114.444 212.801 110.03 c 212.801
 105.608 209.219 102.03 204.801 102.03 c 200.383 102.03 196.801 105.608 
196.801 110.03 c 196.801 114.448 200.383 118.03 204.801 118.03 c h
181.555 112.885 m 183.141 117.014 181.254 121.577 177.336 123.088 c 167
 127.034 157.703 133.135 150.004 140.834 c 135.938 154.905 127.203 174.299
 127.203 195.631 c 127.203 250.19 l 127.203 271.522 135.938 290.92 150.004
 304.983 c 164.07 319.053 183.469 327.784 204.801 327.784 c 226.133 327.784
 245.527 319.053 259.598 304.983 c 273.664 290.92 282.398 271.522 282.398
 250.19 c 282.398 195.631 l 282.398 174.299 273.664 154.905 259.598 140.834
 c 252.102 133.342 243.094 127.358 233.09 123.409 c 229.336 121.924 227.605
 117.389 229.23 113.276 c 230.855 109.159 235.219 107.03 238.977 108.514
 c 251.039 113.28 261.891 120.483 270.918 129.514 c 287.883 146.475 298.41
 169.877 298.41 195.631 c 298.41 250.19 l 298.41 275.94 287.883 299.346 
270.918 316.311 c 253.957 333.272 230.551 343.799 204.801 343.799 c 179.051
 343.799 155.645 333.272 138.684 316.311 c 121.723 299.346 111.191 275.94
 111.191 250.19 c 111.191 195.631 l 111.191 169.877 121.723 146.475 138.684
 129.514 c 147.949 120.248 159.137 112.901 171.586 108.139 c 175.5 106.631
 179.961 108.756 181.555 112.885 c h
65.762 321.6 m 77.84 346.768 96.148 367.338 118.805 381.92 c 143.258 397.655
 172.719 406.401 204.801 406.401 c 236.984 406.401 266.496 397.686 290.961
 381.948 c 313.59 367.381 331.852 346.827 343.875 321.608 c 344.961 321.768
 346.07 321.854 347.199 321.854 c 359.527 321.854 l 373.305 321.854 385.824
 316.221 394.898 307.151 c 403.969 298.077 409.602 285.561 409.602 271.78
 c 409.602 223.19 l 409.602 209.413 403.969 196.893 394.898 187.823 c 385.824
 178.748 373.305 173.12 359.527 173.12 c 359.211 173.12 l 354.617 145.514
 342.578 119.686 325.355 98.264 c 308.336 77.092 286.215 60.202 261.184 
50.12 c 262.035 47.018 262.484 43.764 262.484 40.401 c 262.484 30.213 258.324
 20.955 251.617 14.248 c 244.914 7.545 235.66 3.385 225.469 3.385 c 184.129
 3.385 l 173.941 3.385 164.684 7.545 157.977 14.248 c 151.273 20.955 147.113
 30.213 147.113 40.401 c 147.113 50.588 151.273 59.842 157.977 66.549 c 
164.684 73.256 173.941 77.42 184.129 77.42 c 225.469 77.42 l 235.656 77.42
 244.914 73.256 251.617 66.549 c 252.336 65.834 253.023 65.088 253.68 64.315
 c 276.754 73.268 297.203 88.733 312.91 108.272 c 327.977 127.014 338.645
 149.483 343.039 173.506 c 338.5 174.358 334.434 176.58 331.293 179.725 
c 327.215 183.799 324.684 189.432 324.684 195.631 c 324.684 299.342 l 324.684
 304.807 326.652 309.83 329.914 313.737 c 319.203 336.682 302.762 355.342
 282.328 368.495 c 260.43 382.588 233.879 390.385 204.801 390.385 c 175.824
 390.385 149.328 382.557 127.434 368.467 c 106.953 355.284 90.453 336.612
 79.684 313.733 c 82.945 309.827 84.914 304.807 84.914 299.342 c 84.914 
195.627 l 84.914 189.432 82.383 183.799 78.305 179.725 c 74.25 175.67 68.66
 173.143 62.496 173.12 c 50.07 173.116 l 36.293 173.116 23.773 178.748 14.699
 187.819 c 5.633 196.889 0 209.413 0 223.19 c 0 271.78 l 0 285.561 5.633
 298.077 14.703 307.151 c 23.773 316.221 36.293 321.854 50.07 321.854 c 
62.398 321.854 l 63.543 321.854 64.664 321.764 65.762 321.6 c h
62.398 305.838 m 50.07 305.838 l 40.715 305.838 32.199 302.002 26.023 295.827
 c 19.848 289.651 16.016 281.139 16.016 271.78 c 16.016 223.186 l 16.016
 213.83 19.848 205.319 26.023 199.139 c 32.199 192.967 40.715 189.131 50.07
 189.131 c 62.398 189.131 l 64.18 189.131 65.805 189.866 66.984 191.045 
c 68.164 192.229 68.898 193.85 68.898 195.627 c 68.898 299.342 l 68.898 
301.12 68.164 302.745 66.984 303.924 c 65.805 305.108 64.18 305.838 62.398
 305.838 c h
225.469 61.405 m 184.133 61.405 l 178.363 61.405 173.113 59.038 169.305
 55.229 c 165.492 51.42 163.129 46.17 163.129 40.401 c 163.129 34.631 165.492
 29.385 169.305 25.577 c 173.113 21.764 178.363 19.397 184.133 19.397 c 
225.469 19.397 l 231.238 19.397 236.488 21.764 240.297 25.577 c 244.105 
29.385 246.473 34.631 246.473 40.401 c 246.473 46.17 244.105 51.42 240.297
 55.229 c 236.488 59.038 231.238 61.405 225.469 61.405 c h
225.469 61.405 m f*
Q Q
showpage
%%Trailer
end restore
%%EOF
