%!PS-Adobe-3.0 EPSF-3.0
%%Creator: cairo 1.14.2 (http://cairographics.org)
%%CreationDate: Wed Oct  3 10:33:22 2018
%%Pages: 1
%%DocumentData: Clean7Bit
%%LanguageLevel: 2
%%BoundingBox: 92 -1 319 410
%%EndComments
%%BeginProlog
save
50 dict begin
/q { gsave } bind def
/Q { grestore } bind def
/cm { 6 array astore concat } bind def
/w { setlinewidth } bind def
/J { setlinecap } bind def
/j { setlinejoin } bind def
/M { setmiterlimit } bind def
/d { setdash } bind def
/m { moveto } bind def
/l { lineto } bind def
/c { curveto } bind def
/h { closepath } bind def
/re { exch dup neg 3 1 roll 5 3 roll moveto 0 rlineto
      0 exch rlineto 0 rlineto closepath } bind def
/S { stroke } bind def
/f { fill } bind def
/f* { eofill } bind def
/n { newpath } bind def
/W { clip } bind def
/W* { eoclip } bind def
/BT { } bind def
/ET { } bind def
/pdfmark where { pop globaldict /?pdfmark /exec load put }
    { globaldict begin /?pdfmark /pop load def /pdfmark
    /cleartomark load def end } ifelse
/BDC { mark 3 1 roll /BDC pdfmark } bind def
/EMC { mark /EMC pdfmark } bind def
/cairo_store_point { /cairo_point_y exch def /cairo_point_x exch def } def
/Tj { show currentpoint cairo_store_point } bind def
/TJ {
  {
    dup
    type /stringtype eq
    { show } { -0.001 mul 0 cairo_font_matrix dtransform rmoveto } ifelse
  } forall
  currentpoint cairo_store_point
} bind def
/cairo_selectfont { cairo_font_matrix aload pop pop pop 0 0 6 array astore
    cairo_font exch selectfont cairo_point_x cairo_point_y moveto } bind def
/Tf { pop /cairo_font exch def /cairo_font_matrix where
      { pop cairo_selectfont } if } bind def
/Td { matrix translate cairo_font_matrix matrix concatmatrix dup
      /cairo_font_matrix exch def dup 4 get exch 5 get cairo_store_point
      /cairo_font where { pop cairo_selectfont } if } bind def
/Tm { 2 copy 8 2 roll 6 array astore /cairo_font_matrix exch def
      cairo_store_point /cairo_font where { pop cairo_selectfont } if } bind def
/g { setgray } bind def
/rg { setrgbcolor } bind def
/d1 { setcachedevice } bind def
%%EndProlog
%%BeginSetup
%%EndSetup
%%Page: 1 1
%%BeginPageSetup
%%PageBoundingBox: 92 -1 319 410
%%EndPageSetup
q 92 -1 227 411 rectclip q
0 g
318.004 401.514 m 318.004 311.217 l 318.062 306.76 314.34 303.112 309.914
 303.112 c 305.445 303.112 301.824 306.733 301.824 311.202 c 301.824 335.116
 l 297.938 333.178 293.555 332.088 288.934 332.088 c 280.93 332.088 273.66
 335.354 268.395 340.62 c 268.242 340.768 268.098 340.92 267.949 341.077
 c 267.805 340.92 267.656 340.768 267.508 340.62 c 262.242 335.354 254.973
 332.088 246.969 332.088 c 238.965 332.088 231.695 335.354 226.43 340.62
 c 226.277 340.768 226.133 340.92 225.984 341.077 c 225.836 340.92 225.691
 340.768 225.539 340.62 c 220.273 335.354 213.008 332.088 205.004 332.088
 c 197 332.088 189.727 335.354 184.461 340.62 c 184.312 340.768 184.164 
340.92 184.02 341.077 c 183.871 340.92 183.727 340.768 183.574 340.62 c 
178.309 335.354 171.039 332.088 163.039 332.088 c 155.035 332.088 147.762
 335.354 142.496 340.62 c 142.348 340.768 142.199 340.92 142.055 341.077
 c 141.906 340.92 141.758 340.768 141.609 340.62 c 136.344 335.354 129.074
 332.088 121.07 332.088 c 116.445 332.088 112.066 333.178 108.18 335.116
 c 108.18 163.264 l 108.18 158.795 104.555 155.178 100.086 155.178 c 95.621
 155.178 92 158.795 92 163.264 c 92 401.514 l 92 401.58 92 401.651 92.004
 401.721 c 92.008 401.791 92.008 401.858 92.008 401.928 c 92.016 401.998
 92.02 402.065 92.023 402.135 c 92.027 402.202 92.035 402.272 92.039 402.342
 c 92.051 402.405 92.055 402.475 92.066 402.545 c 92.07 402.608 92.086 402.678
 92.094 402.745 c 92.102 402.811 92.117 402.877 92.125 402.944 c 92.137 
403.01 92.148 403.077 92.164 403.143 c 92.18 403.209 92.191 403.276 92.207
 403.342 c 92.223 403.405 92.238 403.467 92.258 403.534 c 92.273 403.596
 92.289 403.663 92.305 403.725 c 92.324 403.791 92.344 403.854 92.363 403.916
 c 92.383 403.983 92.402 404.045 92.426 404.108 c 92.445 404.17 92.469 404.233
 92.492 404.291 c 92.492 404.295 l 92.512 404.354 92.539 404.416 92.559 
404.479 c 92.586 404.538 92.609 404.6 92.633 404.659 c 92.66 404.717 92.688
 404.78 92.715 404.842 c 92.742 404.901 92.77 404.959 92.797 405.018 c 92.824
 405.077 92.852 405.139 92.883 405.194 c 92.914 405.252 92.945 405.311 92.977
 405.37 c 93.008 405.424 93.039 405.483 93.07 405.538 c 93.102 405.592 93.137
 405.651 93.172 405.705 c 93.203 405.76 93.238 405.815 93.273 405.873 c 
93.309 405.924 93.344 405.983 93.383 406.034 c 93.414 406.088 93.453 406.139
 93.492 406.194 c 93.527 406.248 93.57 406.299 93.605 406.35 c 93.648 406.405
 93.684 406.452 93.727 406.502 c 93.727 406.506 l 93.848 406.655 l 93.887
 406.705 93.93 406.756 93.973 406.807 c 94.016 406.854 94.055 406.905 94.102
 406.952 c 94.145 406.998 94.188 407.045 94.23 407.092 c 94.367 407.233 
l 94.414 407.28 94.461 407.323 94.508 407.366 c 94.555 407.413 94.602 407.452
 94.648 407.498 c 94.695 407.545 94.746 407.584 94.793 407.627 c 94.844 
407.67 94.895 407.713 94.945 407.752 c 95.094 407.873 l 95.148 407.916 95.195
 407.952 95.25 407.995 c 95.301 408.03 95.352 408.073 95.406 408.108 c 95.461
 408.147 95.512 408.182 95.566 408.217 c 95.617 408.256 95.676 408.291 95.727
 408.327 c 95.781 408.362 95.836 408.397 95.895 408.428 c 95.949 408.463
 96.008 408.498 96.062 408.53 c 96.23 408.623 l 96.289 408.655 96.348 408.686
 96.406 408.717 c 96.461 408.745 96.523 408.776 96.582 408.803 c 96.641 
408.83 96.699 408.858 96.758 408.885 c 96.82 408.913 96.879 408.936 96.941
 408.963 c 96.941 408.967 l 97 408.991 97.062 409.014 97.121 409.041 c 97.184
 409.061 97.246 409.088 97.309 409.108 c 97.367 409.131 97.43 409.155 97.492
 409.174 c 97.555 409.198 97.617 409.217 97.68 409.237 c 97.746 409.256 
97.809 409.276 97.875 409.295 c 97.938 409.311 98.004 409.327 98.066 409.342
 c 98.133 409.362 98.195 409.377 98.258 409.393 c 98.324 409.409 98.391 
409.42 98.457 409.436 c 98.523 409.452 98.586 409.463 98.656 409.475 c 98.723
 409.487 98.789 409.498 98.855 409.506 c 98.922 409.518 98.992 409.526 99.055
 409.534 c 99.125 409.545 99.195 409.553 99.258 409.561 c 99.465 409.577
 l 99.535 409.58 99.602 409.588 99.672 409.592 c 99.742 409.592 99.809 409.592
 99.879 409.596 c 99.949 409.6 100.023 409.6 100.09 409.6 c 309.914 409.6
 l 309.984 409.6 310.055 409.6 310.125 409.596 c 310.195 409.592 310.262
 409.592 310.332 409.592 c 310.332 409.588 l 310.398 409.584 310.469 409.58
 310.539 409.577 c 310.605 409.573 310.676 409.565 310.742 409.557 c 310.809
 409.549 310.879 409.545 310.945 409.534 c 311.012 409.526 311.082 409.514
 311.148 409.506 c 311.211 409.498 311.281 409.483 311.348 409.475 c 311.348
 409.471 l 311.414 409.459 311.477 409.452 311.547 409.436 c 311.613 409.42
 311.68 409.409 311.742 409.389 c 311.805 409.377 311.871 409.358 311.938
 409.342 c 312 409.327 312.066 409.311 312.133 409.295 c 312.133 409.291
 l 312.195 409.276 312.258 409.256 312.32 409.237 c 312.32 409.233 l 312.383
 409.217 312.445 409.194 312.508 409.174 c 312.695 409.108 l 312.758 409.088
 312.82 409.061 312.883 409.038 c 312.941 409.014 313.004 408.987 313.062
 408.963 c 313.125 408.936 313.184 408.913 313.242 408.885 c 313.305 408.858
 313.363 408.83 313.422 408.803 c 313.48 408.776 313.539 408.745 313.598
 408.717 c 313.656 408.686 313.711 408.655 313.773 408.623 c 313.941 408.53
 l 313.996 408.498 314.055 408.463 314.109 408.428 c 314.164 408.393 314.223
 408.358 314.273 408.327 c 314.328 408.291 314.383 408.252 314.438 408.217
 c 314.598 408.108 l 314.648 408.069 314.703 408.03 314.758 407.991 c 314.805
 407.952 314.859 407.913 314.91 407.873 c 314.961 407.834 315.008 407.791
 315.059 407.752 c 315.109 407.709 315.16 407.67 315.211 407.623 c 315.258
 407.584 315.305 407.541 315.352 407.498 c 315.402 407.452 315.449 407.409
 315.496 407.366 c 315.543 407.323 315.586 407.276 315.637 407.233 c 315.637
 407.229 l 315.68 407.186 315.727 407.139 315.773 407.092 c 315.82 407.045
 315.859 406.998 315.906 406.952 c 315.945 406.901 315.988 406.854 316.031
 406.803 c 316.074 406.752 316.117 406.705 316.156 406.655 c 316.195 406.604
 316.242 406.553 316.277 406.502 c 316.32 406.452 316.359 406.401 316.398
 406.35 c 316.434 406.295 316.477 406.245 316.512 406.19 c 316.551 406.139
 316.586 406.084 316.621 406.03 c 316.66 405.979 316.695 405.924 316.727
 405.87 c 316.73 405.87 l 316.77 405.815 316.801 405.76 316.836 405.702 
c 316.867 405.651 316.902 405.592 316.93 405.538 c 316.969 405.483 316.996
 405.42 317.027 405.366 c 317.059 405.311 317.09 405.248 317.117 405.19 
c 317.148 405.135 317.18 405.077 317.207 405.014 c 317.289 404.838 l 317.316
 404.78 317.344 404.717 317.367 404.655 c 317.395 404.596 317.418 404.538
 317.445 404.475 c 317.469 404.413 317.492 404.354 317.512 404.291 c 317.578
 404.104 l 317.602 404.041 317.617 403.979 317.641 403.916 c 317.66 403.85
 317.68 403.788 317.695 403.725 c 317.715 403.659 317.734 403.596 317.75
 403.53 c 317.766 403.467 317.781 403.405 317.797 403.338 c 317.812 403.272
 317.824 403.205 317.84 403.139 c 317.852 403.077 317.867 403.01 317.879
 402.94 c 317.891 402.873 317.898 402.811 317.91 402.741 c 317.914 402.741
 l 317.922 402.674 317.93 402.608 317.938 402.541 c 317.941 402.541 l 317.945
 402.471 317.957 402.405 317.961 402.338 c 317.98 402.131 l 317.984 402.061
 317.992 401.995 317.992 401.924 c 317.996 401.858 318 401.788 318 401.717
 c 318.004 401.717 l h
100.09 106.643 m 95.621 106.643 92.004 103.022 92.004 98.557 c 92.004 41.393
 l 92.004 30.002 96.656 19.655 104.152 12.155 c 111.652 4.655 122.004 -0.002
 133.395 -0.002 c 276.609 -0.002 l 288.004 -0.002 298.352 4.655 305.852 
12.155 c 313.352 19.651 318.004 30.002 318.004 41.393 c 318.004 246.471 
l 318.062 250.924 314.34 254.577 309.914 254.577 c 305.445 254.577 301.824
 250.955 301.824 246.487 c 301.824 74.463 l 108.18 74.463 l 108.18 98.553
 l 108.18 103.022 104.555 106.643 100.09 106.643 c h
100.09 138.998 m 104.555 138.998 108.18 135.377 108.18 130.909 c 108.18
 126.444 104.555 122.823 100.09 122.823 c 95.621 122.823 92.004 126.444 
92.004 130.909 c 92.004 135.377 95.621 138.998 100.09 138.998 c h
309.914 286.932 m 305.445 286.932 301.824 283.311 301.824 278.842 c 301.824
 274.377 305.445 270.756 309.914 270.756 c 314.383 270.756 318.004 274.377
 318.004 278.842 c 318.004 283.311 314.383 286.932 309.914 286.932 c h
212.156 281.014 m 211.434 282.401 210.305 283.592 208.824 284.385 c 204.898
 286.498 200.008 285.026 197.895 281.096 c 179.227 246.405 l 140.91 239.452
 l 139.262 239.245 137.664 238.53 136.371 237.295 c 133.145 234.225 133.016
 229.12 136.086 225.889 c 163.32 197.413 l 158.066 158.647 l 157.797 157.053
 158.004 155.362 158.758 153.799 c 160.695 149.784 165.52 148.104 169.531
 150.041 c 205.004 167.127 l 240.477 150.041 l 241.852 149.373 243.43 149.092
 245.055 149.311 c 249.477 149.905 252.57 153.967 251.977 158.381 c 246.684
 197.413 l 273.914 225.897 l 274.961 226.998 275.715 228.416 276.004 230.03
 c 276.789 234.409 273.875 238.596 269.496 239.381 c 230.773 246.405 l h
218.391 235.346 m 205.004 260.237 l 191.602 235.354 l 190.477 233.264 188.445
 231.69 185.93 231.241 c 158.117 226.198 l 177.68 205.741 l 179.305 204.03
 180.168 201.623 179.832 199.108 c 176.031 171.084 l 201.496 183.354 l 203.633
 184.381 206.207 184.463 208.508 183.354 c 233.977 171.084 l 230.199 198.92
 l 229.82 201.311 230.523 203.85 232.324 205.741 c 251.883 226.198 l 224.551
 231.155 l 222.027 231.455 219.688 232.94 218.391 235.346 c h
288.934 348.264 m 292.469 348.264 295.691 349.717 298.031 352.057 c 300.375
 354.397 301.824 357.62 301.824 361.155 c 301.824 393.42 l 276.039 393.42
 l 276.039 361.155 l 276.039 357.62 277.492 354.397 279.832 352.057 c 282.172
 349.717 285.398 348.264 288.934 348.264 c h
259.863 361.155 m 259.863 393.42 l 234.074 393.42 l 234.074 361.155 l 234.074
 357.62 235.527 354.397 237.867 352.057 c 240.211 349.717 243.43 348.264
 246.969 348.264 c 250.508 348.264 253.727 349.717 256.07 352.057 c 258.41
 354.397 259.863 357.62 259.863 361.155 c h
205.004 348.264 m 208.539 348.264 211.762 349.717 214.102 352.057 c 216.445
 354.397 217.898 357.62 217.898 361.155 c 217.898 393.42 l 192.109 393.42
 l 192.109 361.155 l 192.109 357.62 193.562 354.397 195.902 352.057 c 198.242
 349.717 201.465 348.264 205.004 348.264 c h
163.039 348.264 m 166.574 348.264 169.797 349.717 172.137 352.057 c 174.477
 354.397 175.93 357.62 175.93 361.155 c 175.93 393.42 l 150.145 393.42 l
 150.145 361.155 l 150.145 357.62 151.598 354.397 153.938 352.057 c 156.277
 349.717 159.5 348.264 163.039 348.264 c h
121.07 348.264 m 124.609 348.264 127.832 349.717 130.172 352.057 c 132.512
 354.397 133.965 357.62 133.965 361.155 c 133.965 393.42 l 108.18 393.42
 l 108.18 361.155 l 108.18 357.62 109.633 354.397 111.973 352.057 c 114.312
 349.717 117.539 348.264 121.07 348.264 c h
186.27 29.143 m 181.805 29.143 178.18 32.764 178.18 37.233 c 178.18 41.702
 181.805 45.323 186.27 45.323 c 223.738 45.323 l 228.203 45.323 231.824 
41.702 231.824 37.233 c 231.824 32.764 228.203 29.143 223.738 29.143 c h
301.824 58.284 m 301.824 41.393 l 301.824 34.467 298.988 28.166 294.414
 23.592 c 289.84 19.014 283.539 16.178 276.609 16.178 c 133.395 16.178 l
 126.469 16.178 120.164 19.014 115.59 23.592 c 111.02 28.166 108.18 34.467
 108.18 41.393 c 108.18 58.284 l h
301.824 58.284 m f*
Q Q
showpage
%%Trailer
end restore
%%EOF
