%!PS-Adobe-3.0 EPSF-3.0
%%Creator: cairo 1.14.2 (http://cairographics.org)
%%CreationDate: Wed Oct  3 10:33:22 2018
%%Pages: 1
%%DocumentData: Clean7Bit
%%LanguageLevel: 2
%%BoundingBox: 12 -1 398 410
%%EndComments
%%BeginProlog
save
50 dict begin
/q { gsave } bind def
/Q { grestore } bind def
/cm { 6 array astore concat } bind def
/w { setlinewidth } bind def
/J { setlinecap } bind def
/j { setlinejoin } bind def
/M { setmiterlimit } bind def
/d { setdash } bind def
/m { moveto } bind def
/l { lineto } bind def
/c { curveto } bind def
/h { closepath } bind def
/re { exch dup neg 3 1 roll 5 3 roll moveto 0 rlineto
      0 exch rlineto 0 rlineto closepath } bind def
/S { stroke } bind def
/f { fill } bind def
/f* { eofill } bind def
/n { newpath } bind def
/W { clip } bind def
/W* { eoclip } bind def
/BT { } bind def
/ET { } bind def
/pdfmark where { pop globaldict /?pdfmark /exec load put }
    { globaldict begin /?pdfmark /pop load def /pdfmark
    /cleartomark load def end } ifelse
/BDC { mark 3 1 roll /BDC pdfmark } bind def
/EMC { mark /EMC pdfmark } bind def
/cairo_store_point { /cairo_point_y exch def /cairo_point_x exch def } def
/Tj { show currentpoint cairo_store_point } bind def
/TJ {
  {
    dup
    type /stringtype eq
    { show } { -0.001 mul 0 cairo_font_matrix dtransform rmoveto } ifelse
  } forall
  currentpoint cairo_store_point
} bind def
/cairo_selectfont { cairo_font_matrix aload pop pop pop 0 0 6 array astore
    cairo_font exch selectfont cairo_point_x cairo_point_y moveto } bind def
/Tf { pop /cairo_font exch def /cairo_font_matrix where
      { pop cairo_selectfont } if } bind def
/Td { matrix translate cairo_font_matrix matrix concatmatrix dup
      /cairo_font_matrix exch def dup 4 get exch 5 get cairo_store_point
      /cairo_font where { pop cairo_selectfont } if } bind def
/Tm { 2 copy 8 2 roll 6 array astore /cairo_font_matrix exch def
      cairo_store_point /cairo_font where { pop cairo_selectfont } if } bind def
/g { setgray } bind def
/rg { setrgbcolor } bind def
/d1 { setcachedevice } bind def
%%EndProlog
%%BeginSetup
%%EndSetup
%%Page: 1 1
%%BeginPageSetup
%%PageBoundingBox: 12 -1 398 410
%%EndPageSetup
q 12 -1 386 411 rectclip q
0 g
133.691 227.026 m 192.711 222.905 239.309 173.725 239.309 113.655 c 239.309
 72.194 217.105 35.92 183.941 16.073 c 381.105 16.073 l 381.105 81.514 l
 381.105 85.952 384.703 89.549 389.141 89.549 c 393.578 89.549 397.176 85.952
 397.176 81.514 c 397.176 8.034 l 397.176 3.596 393.578 -0.002 389.141 -0.002
 c 125.656 -0.002 l 94.273 -0.002 65.855 12.721 45.289 33.291 c 24.723 53.858
 12 82.272 12 113.655 c 12 126.002 13.973 137.889 17.613 149.018 c 18.754
 152.518 21.57 154.526 25.25 154.526 c 29.594 154.526 34.383 148.592 32.891
 144.026 c 30.523 136.784 29.02 129.284 28.398 121.69 c 75.672 121.69 l 
76.57 139.979 80.461 160.608 87.953 179.409 c 92.191 190.045 97.586 200.108
 104.258 208.885 c 90.734 205.858 78.27 200.03 67.508 192.03 c 62.121 187.807
 54.551 192.569 54.551 198.358 c 54.551 200.916 55.727 203.217 57.594 204.686
 c 75.07 217.776 95.836 225.506 117.621 227.03 c 117.621 294.686 l 117.621
 299.123 121.219 302.717 125.656 302.717 c 183.273 302.717 l 183.273 335.479
 l 183.273 355.87 191.613 374.405 205.043 387.83 c 218.473 401.264 237.008
 409.6 257.398 409.6 c 277.789 409.6 296.32 401.264 309.754 387.83 c 323.184
 374.405 331.523 355.87 331.523 335.479 c 331.523 302.717 l 389.141 302.717
 l 393.578 302.717 397.176 299.123 397.176 294.686 c 397.176 145.795 l 397.176
 141.358 393.578 137.764 389.141 137.764 c 384.703 137.764 381.102 141.358
 381.102 145.795 c 381.102 286.651 l 331.523 286.651 l 331.523 238.713 l
 331.523 234.276 327.922 230.678 323.484 230.678 c 319.047 230.678 315.449
 234.276 315.449 238.713 c 315.449 286.651 l 199.344 286.651 l 199.344 238.713
 l 199.344 234.276 195.746 230.678 191.309 230.678 c 186.871 230.678 183.273
 234.276 183.273 238.713 c 183.273 286.651 l 133.691 286.651 l h
389.141 121.69 m 384.703 121.69 381.102 118.092 381.102 113.655 c 381.102
 109.217 384.703 105.623 389.141 105.623 c 393.578 105.623 397.176 109.217
 397.176 113.655 c 397.176 118.092 393.578 121.69 389.141 121.69 c h
40.18 183.717 m 35.762 183.717 32.18 180.139 32.18 175.717 c 32.18 171.299
 35.762 167.717 40.18 167.717 c 44.602 167.717 48.18 171.299 48.18 175.717
 c 48.18 180.139 44.602 183.717 40.18 183.717 c h
315.449 302.717 m 315.449 335.479 l 315.449 351.432 308.914 365.944 298.391
 376.471 c 287.867 386.998 273.352 393.53 257.398 393.53 c 241.441 393.53
 226.93 386.998 216.402 376.471 c 205.879 365.944 199.344 351.432 199.344
 335.479 c 199.344 302.717 l h
147.055 208.877 m 153.727 200.104 159.121 190.041 163.355 179.409 c 170.852
 160.608 174.742 139.983 175.637 121.69 c 222.91 121.69 l 219.41 164.623
 188.117 199.69 147.055 208.877 c h
175.652 105.62 m 174.781 87.288 170.891 66.577 163.355 47.721 c 159.137
 37.17 153.758 27.17 147.102 18.444 c 188.145 27.651 219.41 62.702 222.91
 105.62 c h
125.656 18.471 m 135.504 27.604 143.023 40.041 148.477 53.686 c 155.199
 70.506 158.715 89.061 159.566 105.623 c 91.742 105.623 l 92.594 89.061 
96.113 70.506 102.832 53.686 c 108.289 40.041 115.805 27.604 125.656 18.471
 c h
159.555 121.69 m 158.68 138.241 155.164 156.741 148.48 173.51 c 143.043
 187.155 135.523 199.612 125.656 208.795 c 115.789 199.612 108.27 187.155
 102.828 173.51 c 96.148 156.741 92.633 138.241 91.758 121.69 c h
104.211 18.436 m 97.555 27.166 92.176 37.166 87.957 47.721 c 80.418 66.577
 76.527 87.288 75.656 105.62 c 28.398 105.62 l 30.332 81.873 40.766 60.538
 56.648 44.651 c 69.48 31.819 85.871 22.545 104.211 18.436 c h
104.211 18.436 m f*
Q Q
showpage
%%Trailer
end restore
%%EOF
