%!PS-Adobe-3.0 EPSF-3.0
%%Creator: cairo 1.14.2 (http://cairographics.org)
%%CreationDate: Wed Oct  3 10:33:22 2018
%%Pages: 1
%%DocumentData: Clean7Bit
%%LanguageLevel: 2
%%BoundingBox: 0 24 410 385
%%EndComments
%%BeginProlog
save
50 dict begin
/q { gsave } bind def
/Q { grestore } bind def
/cm { 6 array astore concat } bind def
/w { setlinewidth } bind def
/J { setlinecap } bind def
/j { setlinejoin } bind def
/M { setmiterlimit } bind def
/d { setdash } bind def
/m { moveto } bind def
/l { lineto } bind def
/c { curveto } bind def
/h { closepath } bind def
/re { exch dup neg 3 1 roll 5 3 roll moveto 0 rlineto
      0 exch rlineto 0 rlineto closepath } bind def
/S { stroke } bind def
/f { fill } bind def
/f* { eofill } bind def
/n { newpath } bind def
/W { clip } bind def
/W* { eoclip } bind def
/BT { } bind def
/ET { } bind def
/pdfmark where { pop globaldict /?pdfmark /exec load put }
    { globaldict begin /?pdfmark /pop load def /pdfmark
    /cleartomark load def end } ifelse
/BDC { mark 3 1 roll /BDC pdfmark } bind def
/EMC { mark /EMC pdfmark } bind def
/cairo_store_point { /cairo_point_y exch def /cairo_point_x exch def } def
/Tj { show currentpoint cairo_store_point } bind def
/TJ {
  {
    dup
    type /stringtype eq
    { show } { -0.001 mul 0 cairo_font_matrix dtransform rmoveto } ifelse
  } forall
  currentpoint cairo_store_point
} bind def
/cairo_selectfont { cairo_font_matrix aload pop pop pop 0 0 6 array astore
    cairo_font exch selectfont cairo_point_x cairo_point_y moveto } bind def
/Tf { pop /cairo_font exch def /cairo_font_matrix where
      { pop cairo_selectfont } if } bind def
/Td { matrix translate cairo_font_matrix matrix concatmatrix dup
      /cairo_font_matrix exch def dup 4 get exch 5 get cairo_store_point
      /cairo_font where { pop cairo_selectfont } if } bind def
/Tm { 2 copy 8 2 roll 6 array astore /cairo_font_matrix exch def
      cairo_store_point /cairo_font where { pop cairo_selectfont } if } bind def
/g { setgray } bind def
/rg { setrgbcolor } bind def
/d1 { setcachedevice } bind def
%%EndProlog
%%BeginSetup
%%EndSetup
%%Page: 1 1
%%BeginPageSetup
%%PageBoundingBox: 0 24 410 385
%%EndPageSetup
q 0 24 410 361 rectclip q
0 g
82.117 383.998 m 327.484 383.998 l 340.824 383.998 352.945 378.545 361.73
 369.764 c 370.516 360.979 375.969 348.858 375.969 335.514 c 375.969 205.194
 l 375.969 191.854 370.516 179.733 361.73 170.948 c 352.949 162.163 340.824
 156.709 327.484 156.709 c 212.812 156.709 l 212.812 99.131 l 232.035 99.131
 l 236.461 99.131 240.047 95.545 240.047 91.123 c 240.047 75.92 l 256.195
 75.92 l 260.617 75.92 264.203 72.338 264.203 67.913 c 264.203 58.397 l 
369.598 58.397 l 374.016 58.397 377.598 54.815 377.598 50.397 c 377.598 
45.979 374.016 42.397 369.598 42.397 c 369.598 42.373 l 264.203 42.373 l
 264.203 32.858 l 264.203 28.436 260.617 24.85 256.191 24.85 c 153.41 24.85
 l 148.984 24.85 145.398 28.436 145.398 32.858 c 145.398 42.373 l 40.004
 42.373 l 40.004 42.397 l 35.586 42.397 32.004 45.979 32.004 50.397 c 32.004
 54.815 35.586 58.397 40.004 58.397 c 145.398 58.397 l 145.398 67.913 l 
145.398 72.338 148.984 75.92 153.41 75.92 c 169.555 75.92 l 169.555 91.123
 l 169.555 95.545 173.141 99.131 177.566 99.131 c 196.789 99.131 l 196.789
 156.709 l 82.117 156.709 l 68.773 156.709 56.652 162.163 47.867 170.948
 c 39.086 179.733 33.633 191.854 33.633 205.194 c 33.633 335.514 l 33.633
 348.858 39.086 360.983 47.867 369.764 c 56.652 378.545 68.773 383.998 82.117
 383.998 c h
8 58.401 m 12.418 58.401 16 54.815 16 50.397 c 16 45.979 12.418 42.397 
8 42.397 c 3.582 42.397 0 45.979 0 50.397 c 0 54.815 3.582 58.401 8 58.401
 c h
401.602 58.401 m 406.02 58.401 409.602 54.815 409.602 50.397 c 409.602 
45.979 406.02 42.397 401.602 42.397 c 397.18 42.397 393.602 45.979 393.602
 50.397 c 393.602 54.815 397.18 58.401 401.602 58.401 c h
161.422 40.873 m 248.18 40.873 l 248.18 59.901 l 232.035 59.901 l 227.609
 59.901 224.023 63.487 224.023 67.913 c 224.023 83.108 l 185.578 83.108 
l 185.578 67.913 l 185.578 63.487 181.992 59.901 177.566 59.901 c 161.418
 59.901 l 161.422 53.561 161.422 47.217 161.422 40.873 c h
79.695 209.916 m 184.906 209.916 l 189.332 209.916 192.918 213.498 192.918
 217.924 c 192.918 222.35 189.332 225.936 184.906 225.936 c 79.695 225.936
 l 75.273 225.936 71.684 222.35 71.684 217.924 c 71.684 213.498 75.273 209.916
 79.695 209.916 c h
79.695 242.823 m 184.906 242.823 l 189.332 242.823 192.918 246.409 192.918
 250.834 c 192.918 255.256 189.332 258.846 184.906 258.846 c 79.695 258.846
 l 75.273 258.846 71.684 255.26 71.684 250.834 c 71.688 246.409 75.273 242.823
 79.695 242.823 c h
79.695 275.733 m 184.906 275.733 l 189.332 275.733 192.918 279.319 192.918
 283.745 c 192.918 288.166 189.332 291.752 184.906 291.752 c 79.695 291.752
 l 75.273 291.752 71.684 288.17 71.684 283.745 c 71.688 279.319 75.273 275.733
 79.695 275.733 c h
282.707 229.983 m 286.805 227.28 291.402 225.936 296.355 225.936 c 303.23
 225.936 309.457 228.721 313.961 233.229 c 318.469 237.733 321.254 243.955
 321.254 250.834 c 321.254 257.709 318.469 263.936 313.961 268.44 c 309.457
 272.948 303.23 275.733 296.355 275.733 c 291.391 275.733 286.801 274.385
 282.707 271.686 c 286.328 265.577 288.41 258.452 288.41 250.834 c 288.41
 243.217 286.332 236.088 282.707 229.983 c h
271.938 283.651 m 265.117 288.741 256.656 291.752 247.492 291.752 c 236.191
 291.752 225.961 287.174 218.555 279.768 c 211.148 272.362 206.57 262.135
 206.57 250.834 c 206.57 239.534 211.148 229.307 218.555 221.901 c 225.961
 214.495 236.191 209.916 247.492 209.916 c 256.652 209.916 265.117 212.928
 271.938 218.018 c 278.957 212.803 287.602 209.916 296.355 209.916 c 307.656
 209.916 317.883 214.498 325.289 221.901 c 332.695 229.307 337.277 239.534
 337.277 250.834 c 337.277 262.135 332.695 272.362 325.289 279.768 c 317.883
 287.174 307.656 291.752 296.355 291.752 c 287.609 291.752 278.945 288.858
 271.938 283.651 c h
265.098 268.44 m 260.59 272.948 254.367 275.733 247.492 275.733 c 240.613
 275.733 234.387 272.948 229.883 268.44 c 225.379 263.936 222.59 257.709
 222.59 250.834 c 222.59 243.955 225.379 237.733 229.883 233.229 c 234.387
 228.721 240.613 225.936 247.492 225.936 c 254.367 225.936 260.59 228.721
 265.098 233.229 c 269.602 237.733 272.387 243.955 272.387 250.834 c 272.387
 257.709 269.602 263.936 265.098 268.44 c h
49.789 338.463 m 359.812 338.463 l 359.102 346.213 355.633 353.202 350.402
 358.436 c 344.516 364.323 336.402 367.979 327.484 367.979 c 82.117 367.979
 l 73.199 367.979 65.086 364.327 59.195 358.436 c 53.965 353.202 50.496 
346.213 49.789 338.463 c h
359.945 322.44 m 49.656 322.44 l 49.656 205.194 l 49.656 196.276 53.309
 188.163 59.195 182.276 c 65.086 176.389 73.195 172.733 82.117 172.733 c
 327.484 172.733 l 336.402 172.733 344.516 176.389 350.402 182.276 c 356.289
 188.159 359.945 196.276 359.945 205.194 c h
359.945 322.44 m f*
Q Q
showpage
%%Trailer
end restore
%%EOF
