%!PS-Adobe-3.0 EPSF-3.0
%%Creator: cairo 1.14.2 (http://cairographics.org)
%%CreationDate: Wed Oct  3 10:33:22 2018
%%Pages: 1
%%DocumentData: Clean7Bit
%%LanguageLevel: 2
%%BoundingBox: 0 51 410 358
%%EndComments
%%BeginProlog
save
50 dict begin
/q { gsave } bind def
/Q { grestore } bind def
/cm { 6 array astore concat } bind def
/w { setlinewidth } bind def
/J { setlinecap } bind def
/j { setlinejoin } bind def
/M { setmiterlimit } bind def
/d { setdash } bind def
/m { moveto } bind def
/l { lineto } bind def
/c { curveto } bind def
/h { closepath } bind def
/re { exch dup neg 3 1 roll 5 3 roll moveto 0 rlineto
      0 exch rlineto 0 rlineto closepath } bind def
/S { stroke } bind def
/f { fill } bind def
/f* { eofill } bind def
/n { newpath } bind def
/W { clip } bind def
/W* { eoclip } bind def
/BT { } bind def
/ET { } bind def
/pdfmark where { pop globaldict /?pdfmark /exec load put }
    { globaldict begin /?pdfmark /pop load def /pdfmark
    /cleartomark load def end } ifelse
/BDC { mark 3 1 roll /BDC pdfmark } bind def
/EMC { mark /EMC pdfmark } bind def
/cairo_store_point { /cairo_point_y exch def /cairo_point_x exch def } def
/Tj { show currentpoint cairo_store_point } bind def
/TJ {
  {
    dup
    type /stringtype eq
    { show } { -0.001 mul 0 cairo_font_matrix dtransform rmoveto } ifelse
  } forall
  currentpoint cairo_store_point
} bind def
/cairo_selectfont { cairo_font_matrix aload pop pop pop 0 0 6 array astore
    cairo_font exch selectfont cairo_point_x cairo_point_y moveto } bind def
/Tf { pop /cairo_font exch def /cairo_font_matrix where
      { pop cairo_selectfont } if } bind def
/Td { matrix translate cairo_font_matrix matrix concatmatrix dup
      /cairo_font_matrix exch def dup 4 get exch 5 get cairo_store_point
      /cairo_font where { pop cairo_selectfont } if } bind def
/Tm { 2 copy 8 2 roll 6 array astore /cairo_font_matrix exch def
      cairo_store_point /cairo_font where { pop cairo_selectfont } if } bind def
/g { setgray } bind def
/rg { setrgbcolor } bind def
/d1 { setcachedevice } bind def
%%EndProlog
%%BeginSetup
%%EndSetup
%%Page: 1 1
%%BeginPageSetup
%%PageBoundingBox: 0 51 410 358
%%EndPageSetup
q 0 51 410 307 rectclip q
0 g
36.539 357.6 m 373.059 357.6 l 383.117 357.6 392.254 353.491 398.871 346.873
 c 405.492 340.252 409.602 331.116 409.602 321.057 c 409.602 89.041 l 409.602
 78.983 405.492 69.846 398.871 63.225 c 392.254 56.608 383.117 52.498 373.059
 52.498 c 36.539 52.498 l 26.484 52.498 17.348 56.608 10.727 63.225 c 4.109
 69.846 0 78.983 0 89.041 c 0 321.061 l 0 331.116 4.109 340.252 10.727 346.873
 c 17.348 353.491 26.484 357.6 36.539 357.6 c h
356.648 131.916 m 352.227 131.916 348.648 128.33 348.648 123.916 c 348.648
 119.498 352.227 115.916 356.648 115.916 c 361.066 115.916 364.648 119.498
 364.648 123.916 c 364.648 128.33 361.066 131.916 356.648 131.916 c h
94.637 116.295 m 90.238 116.295 l 90.238 200.94 l 90.238 205.373 86.648
 208.963 82.215 208.963 c 59.547 208.963 l 59.547 244.069 l 90.094 244.069
 l 91.648 236.928 95.242 230.549 100.223 225.569 c 107.008 218.78 116.387
 214.58 126.742 214.58 c 137.102 214.58 146.477 218.78 153.27 225.569 c 
158.25 230.549 161.836 236.928 163.395 244.069 c 193.941 244.069 l 193.941
 208.963 l 171.273 208.963 l 166.844 208.963 163.254 205.373 163.254 200.94
 c 163.254 116.291 l 158.734 116.291 l 154.309 116.291 150.723 112.702 150.723
 108.268 c 150.723 103.838 154.309 100.248 158.734 100.248 c 171.273 100.248
 l 175.707 100.248 179.301 103.838 179.301 108.268 c 179.301 192.92 l 201.965
 192.92 l 206.398 192.92 209.988 196.51 209.988 200.94 c 209.988 252.092
 l 209.988 256.522 206.398 260.116 201.965 260.116 c 156.23 260.116 l 151.801
 260.116 148.211 256.522 148.211 252.092 c 148.211 246.163 145.805 240.795
 141.922 236.913 c 138.039 233.03 132.672 230.627 126.746 230.627 c 120.82
 230.627 115.449 233.03 111.57 236.913 c 107.684 240.795 105.281 246.163
 105.281 252.092 c 105.281 256.522 101.691 260.116 97.258 260.116 c 51.523
 260.116 l 47.09 260.116 43.5 256.522 43.5 252.092 c 43.5 200.94 l 43.5 
196.51 47.09 192.92 51.523 192.92 c 74.191 192.92 l 74.191 108.268 l 74.191
 103.838 77.781 100.248 82.211 100.248 c 94.637 100.248 l 99.062 100.248
 102.648 103.838 102.648 108.268 c 102.648 112.702 99.062 116.295 94.637
 116.295 c h
126.684 116.295 m 122.258 116.295 118.672 112.702 118.672 108.268 c 118.672
 103.838 122.258 100.248 126.684 100.248 c 131.109 100.248 134.695 103.838
 134.695 108.268 c 134.695 112.702 131.109 116.295 126.684 116.295 c h
250.711 228.42 m 356.621 228.42 l 361.055 228.42 364.648 232.014 364.648
 236.448 c 364.648 240.877 361.055 244.467 356.621 244.467 c 250.711 244.467
 l 246.281 244.467 242.688 240.877 242.688 236.448 c 242.688 232.014 246.281
 228.42 250.711 228.42 c h
250.711 115.889 m 324.648 115.87 l 329.078 115.87 332.668 119.459 332.668
 123.889 c 332.668 128.323 329.078 131.916 324.648 131.916 c 250.711 131.936
 l 246.281 131.936 242.688 128.346 242.688 123.916 c 242.688 119.483 246.281
 115.889 250.711 115.889 c h
250.711 153.405 m 356.621 153.405 l 361.055 153.405 364.648 156.995 364.648
 161.424 c 364.648 165.858 361.055 169.452 356.621 169.452 c 250.711 169.452
 l 246.281 169.452 242.688 165.858 242.688 161.424 c 242.688 156.995 246.281
 153.405 250.711 153.405 c h
250.711 190.913 m 356.621 190.913 l 361.055 190.913 364.648 194.502 364.648
 198.936 c 364.648 203.366 361.055 206.959 356.621 206.959 c 250.711 206.959
 l 246.281 206.959 242.688 203.366 242.688 198.936 c 242.688 194.502 246.281
 190.913 250.711 190.913 c h
40.965 311.647 m 59.312 311.647 l 63.742 311.647 67.336 315.241 67.336 
319.67 c 67.336 324.104 63.742 327.694 59.312 327.694 c 40.965 327.694 l
 36.535 327.694 32.941 324.104 32.941 319.67 c 32.941 315.241 36.535 311.647
 40.965 311.647 c h
135.43 311.647 m 153.781 311.647 l 158.211 311.647 161.805 315.241 161.805
 319.67 c 161.805 324.104 158.211 327.694 153.781 327.694 c 135.43 327.694
 l 131.004 327.694 127.41 324.104 127.41 319.67 c 127.41 315.241 131.004
 311.647 135.43 311.647 c h
88.195 311.647 m 106.547 311.647 l 110.977 311.647 114.57 315.241 114.57
 319.67 c 114.57 324.104 110.977 327.694 106.547 327.694 c 88.195 327.694
 l 83.77 327.694 80.176 324.104 80.176 319.67 c 80.176 315.241 83.77 311.647
 88.195 311.647 c h
16.047 297.788 m 393.555 297.788 l 393.555 321.061 l 393.555 326.686 391.246
 331.811 387.527 335.53 c 383.809 339.245 378.688 341.553 373.059 341.553
 c 36.539 341.553 l 30.914 341.553 25.789 339.245 22.074 335.53 c 18.355
 331.811 16.047 326.686 16.047 321.061 c h
393.555 281.741 m 16.047 281.741 l 16.047 89.041 l 16.047 83.413 18.355
 78.291 22.074 74.573 c 25.789 70.854 30.914 68.545 36.539 68.545 c 373.059
 68.545 l 378.684 68.545 383.809 70.854 387.523 74.573 c 391.242 78.291 
393.555 83.413 393.555 89.041 c h
393.555 281.741 m f*
Q Q
showpage
%%Trailer
end restore
%%EOF
