%!PS-Adobe-3.0 EPSF-3.0
%%Creator: cairo 1.14.2 (http://cairographics.org)
%%CreationDate: Wed Oct  3 10:33:22 2018
%%Pages: 1
%%DocumentData: Clean7Bit
%%LanguageLevel: 2
%%BoundingBox: 22 -1 388 410
%%EndComments
%%BeginProlog
save
50 dict begin
/q { gsave } bind def
/Q { grestore } bind def
/cm { 6 array astore concat } bind def
/w { setlinewidth } bind def
/J { setlinecap } bind def
/j { setlinejoin } bind def
/M { setmiterlimit } bind def
/d { setdash } bind def
/m { moveto } bind def
/l { lineto } bind def
/c { curveto } bind def
/h { closepath } bind def
/re { exch dup neg 3 1 roll 5 3 roll moveto 0 rlineto
      0 exch rlineto 0 rlineto closepath } bind def
/S { stroke } bind def
/f { fill } bind def
/f* { eofill } bind def
/n { newpath } bind def
/W { clip } bind def
/W* { eoclip } bind def
/BT { } bind def
/ET { } bind def
/pdfmark where { pop globaldict /?pdfmark /exec load put }
    { globaldict begin /?pdfmark /pop load def /pdfmark
    /cleartomark load def end } ifelse
/BDC { mark 3 1 roll /BDC pdfmark } bind def
/EMC { mark /EMC pdfmark } bind def
/cairo_store_point { /cairo_point_y exch def /cairo_point_x exch def } def
/Tj { show currentpoint cairo_store_point } bind def
/TJ {
  {
    dup
    type /stringtype eq
    { show } { -0.001 mul 0 cairo_font_matrix dtransform rmoveto } ifelse
  } forall
  currentpoint cairo_store_point
} bind def
/cairo_selectfont { cairo_font_matrix aload pop pop pop 0 0 6 array astore
    cairo_font exch selectfont cairo_point_x cairo_point_y moveto } bind def
/Tf { pop /cairo_font exch def /cairo_font_matrix where
      { pop cairo_selectfont } if } bind def
/Td { matrix translate cairo_font_matrix matrix concatmatrix dup
      /cairo_font_matrix exch def dup 4 get exch 5 get cairo_store_point
      /cairo_font where { pop cairo_selectfont } if } bind def
/Tm { 2 copy 8 2 roll 6 array astore /cairo_font_matrix exch def
      cairo_store_point /cairo_font where { pop cairo_selectfont } if } bind def
/g { setgray } bind def
/rg { setrgbcolor } bind def
/d1 { setcachedevice } bind def
%%EndProlog
%%BeginSetup
%%EndSetup
%%Page: 1 1
%%BeginPageSetup
%%PageBoundingBox: 22 -1 388 410
%%EndPageSetup
q 22 -1 366 411 rectclip q
0 g
256.418 112.155 m 256.418 106.342 256.395 42.655 256.449 42.655 c 256.449
 30.92 251.652 20.248 243.93 12.526 c 236.199 4.795 225.531 -0.002 213.793
 -0.002 c 65.055 -0.002 l 53.32 -0.002 42.652 4.795 34.926 12.526 c 27.195
 20.248 22.398 30.92 22.398 42.655 c 22.398 366.944 l 22.398 378.682 27.195
 389.35 34.926 397.077 c 42.652 404.803 53.32 409.6 65.055 409.6 c 213.793
 409.6 l 225.531 409.6 236.199 404.803 243.93 397.077 c 251.652 389.35 256.449
 378.682 256.449 366.944 c 256.449 297.444 l 346.609 297.444 l 357.75 297.444
 367.867 292.893 375.199 285.561 c 382.531 278.233 387.086 268.108 387.086
 256.971 c 387.086 225.17 l 387.016 225.17 l 387.016 220.752 383.434 217.17
 379.016 217.17 c 374.598 217.17 371.016 220.752 371.016 225.17 c 370.945
 225.17 l 370.945 244.85 l 125.82 244.85 l 125.82 225.17 l 125.75 225.17
 l 125.75 220.752 122.168 217.17 117.75 217.17 c 113.332 217.17 109.75 220.752
 109.75 225.17 c 109.68 225.17 l 109.68 256.971 l 109.68 268.108 114.234
 278.233 121.566 285.561 c 128.898 292.893 139.016 297.444 150.156 297.444
 c 240.316 297.444 l 240.316 332.932 l 38.535 332.932 l 38.535 76.67 l 240.348
 76.67 l 240.348 112.155 l 150.156 112.155 l 139.016 112.155 128.898 116.705
 121.566 124.038 c 114.234 131.373 109.68 141.491 109.68 152.627 c 109.68
 161.17 l 109.75 161.17 l 109.75 165.592 113.332 169.17 117.75 169.17 c 
122.168 169.17 125.75 165.592 125.75 161.17 c 125.82 161.17 l 125.82 152.627
 l 125.82 145.944 128.559 139.858 132.977 135.448 c 137.387 131.03 143.473
 128.291 150.156 128.291 c 346.609 128.291 l 353.297 128.291 359.379 131.03
 363.793 135.448 c 368.207 139.858 370.945 145.944 370.945 152.627 c 370.945
 161.17 l 371.016 161.17 l 371.016 165.592 374.598 169.17 379.016 169.17
 c 383.434 169.17 387.016 165.592 387.016 161.17 c 387.086 161.17 l 387.086
 152.627 l 387.086 141.491 382.531 131.373 375.199 124.038 c 367.867 116.705
 357.75 112.155 346.609 112.155 c h
379.016 201.17 m 374.598 201.17 371.016 197.592 371.016 193.17 c 371.016
 188.752 374.598 185.17 379.016 185.17 c 383.434 185.17 387.016 188.752 
387.016 193.17 c 387.016 197.592 383.434 201.17 379.016 201.17 c h
117.75 201.17 m 113.332 201.17 109.75 197.592 109.75 193.17 c 109.75 188.752
 113.332 185.17 117.75 185.17 c 122.168 185.17 125.75 188.752 125.75 193.17
 c 125.75 197.592 122.168 201.17 117.75 201.17 c h
148.219 162.014 m 232.457 162.014 l 236.91 162.014 240.523 165.627 240.523
 170.084 c 240.523 174.538 236.91 178.151 232.457 178.151 c 148.219 178.151
 l 143.762 178.151 140.148 174.538 140.148 170.084 c 140.148 165.627 143.762
 162.014 148.219 162.014 c h
148.219 200.19 m 323.539 200.19 l 327.992 200.19 331.605 203.803 331.605
 208.256 c 331.605 212.713 327.992 216.327 323.539 216.327 c 148.219 216.327
 l 143.762 216.327 140.148 212.713 140.148 208.256 c 140.148 203.803 143.762
 200.19 148.219 200.19 c h
126.152 260.983 m 370.613 260.983 l 369.758 266.073 367.305 270.639 363.793
 274.155 c 359.379 278.569 353.297 281.311 346.609 281.311 c 150.156 281.311
 l 143.473 281.311 137.387 278.569 132.977 274.155 c 129.461 270.639 127.008
 266.073 126.152 260.983 c h
98.977 363.198 m 110.75 363.198 l 115.203 363.198 118.816 366.811 118.816
 371.264 c 118.816 375.721 115.203 379.334 110.75 379.334 c 98.977 379.334
 l 94.523 379.334 90.91 375.721 90.91 371.264 c 90.91 366.811 94.523 363.198
 98.977 363.198 c h
62 363.198 m 73.773 363.198 l 78.227 363.198 81.84 366.811 81.84 371.264
 c 81.84 375.721 78.227 379.334 73.773 379.334 c 62 379.334 l 57.543 379.334
 53.93 375.721 53.93 371.264 c 53.93 366.811 57.543 363.198 62 363.198 c
 h
119.969 30.268 m 158.883 30.268 l 163.336 30.268 166.949 33.877 166.949
 38.334 c 166.949 42.791 163.336 46.405 158.883 46.405 c 119.969 46.405 
l 115.516 46.405 111.902 42.791 111.902 38.334 c 111.902 33.877 115.516 
30.268 119.969 30.268 c h
240.316 349.065 m 240.316 366.944 l 240.316 374.229 237.328 380.858 232.52
 385.67 c 227.711 390.479 221.078 393.467 213.793 393.467 c 65.055 393.467
 l 57.773 393.467 51.145 390.479 46.332 385.67 c 41.523 380.858 38.539 374.229
 38.539 366.944 c 38.539 349.065 l h
38.535 60.534 m 38.535 42.655 l 38.535 35.373 41.523 28.745 46.332 23.932
 c 51.145 19.123 57.773 16.139 65.055 16.139 c 213.793 16.139 l 221.078 
16.139 227.711 19.123 232.52 23.932 c 237.328 28.745 240.316 35.373 240.316
 42.655 c 240.348 60.534 l h
38.535 60.534 m f*
Q Q
showpage
%%Trailer
end restore
%%EOF
